<svg viewBox="0 0 126 80" version="1.1" xmlns="http://www.w3.org/2000/svg" xmlns:xlink="http://www.w3.org/1999/xlink">
    <g id="Carrinho" stroke="none" stroke-width="1" fill="none" fill-rule="evenodd">
        <g id="icon-amazon-light">
            <path d="M125.521,75.208 C125.521,77.518 123.648,79.39 121.339,79.39 L4.271,79.39 C1.962,79.39 0.091,77.518 0.091,75.208 L0.091,5.176 C0.091,2.866 1.962,0.996 4.271,0.996 L121.339,0.996 C123.648,0.996 125.521,2.866 125.521,5.176 L125.521,75.208" id="Fill-62" fill="#F9F9F9"></path>
            <path d="M71.854,48.148 C67.487,51.371 61.156,53.085 55.704,53.085 C48.064,53.085 41.184,50.262 35.977,45.559 C35.568,45.19 35.933,44.686 36.424,44.972 C42.04,48.24 48.986,50.21 56.162,50.21 C61.002,50.21 66.323,49.205 71.218,47.128 C71.957,46.815 72.575,47.615 71.854,48.148" id="Fill-63" fill="#FF9900"></path>
            <path d="M73.669,46.074 C73.111,45.359 69.978,45.736 68.57,45.904 C68.144,45.954 68.078,45.583 68.462,45.312 C70.963,43.557 75.057,44.064 75.533,44.652 C76.013,45.244 75.408,49.351 73.065,51.311 C72.704,51.613 72.363,51.452 72.522,51.052 C73.05,49.737 74.23,46.79 73.669,46.074" id="Fill-64" fill="#FF9900"></path>
            <path d="M68.669,32.909 L68.669,31.204 C68.67,30.945 68.866,30.772 69.102,30.772 L76.748,30.771 C76.992,30.771 77.188,30.949 77.19,31.202 L77.188,32.664 C77.187,32.91 76.98,33.232 76.613,33.738 L72.652,39.394 C74.124,39.36 75.678,39.58 77.014,40.331 C77.315,40.499 77.396,40.75 77.419,40.996 L77.419,42.817 C77.419,43.067 77.145,43.357 76.856,43.206 C74.503,41.974 71.379,41.839 68.778,43.221 C68.512,43.363 68.233,43.077 68.233,42.826 L68.233,41.094 C68.233,40.82 68.239,40.345 68.518,39.923 L73.106,33.34 L69.112,33.339 C68.866,33.339 68.671,33.165 68.669,32.909" id="Fill-65" fill="#000000"></path>
            <path d="M40.778,43.565 L38.453,43.565 C38.231,43.551 38.054,43.384 38.037,43.172 L38.039,31.233 C38.039,30.993 38.238,30.803 38.487,30.803 L40.653,30.803 C40.88,30.815 41.063,30.987 41.077,31.204 L41.077,32.762 L41.121,32.762 C41.685,31.255 42.749,30.551 44.181,30.551 C45.637,30.551 46.547,31.255 47.2,32.762 C47.764,31.255 49.044,30.551 50.413,30.551 C51.39,30.551 52.454,30.954 53.105,31.857 C53.844,32.863 53.691,34.32 53.691,35.601 L53.689,43.135 C53.689,43.373 53.489,43.565 53.241,43.565 L50.919,43.565 C50.684,43.55 50.501,43.365 50.501,43.136 L50.499,36.807 C50.499,36.304 50.544,35.05 50.435,34.572 C50.261,33.767 49.74,33.541 49.067,33.541 C48.502,33.541 47.917,33.918 47.678,34.521 C47.439,35.124 47.459,36.128 47.459,36.807 L47.459,43.135 C47.459,43.373 47.259,43.565 47.011,43.565 L44.688,43.565 C44.455,43.55 44.271,43.365 44.271,43.136 L44.268,36.807 C44.268,35.476 44.485,33.517 42.835,33.517 C41.162,33.517 41.229,35.426 41.229,36.807 L41.228,43.135 C41.228,43.373 41.026,43.565 40.778,43.565" id="Fill-66" fill="#000000"></path>
            <path d="M83.792,32.989 C82.077,32.989 81.969,35.325 81.969,36.783 C81.969,38.239 81.947,41.355 83.771,41.355 C85.574,41.355 85.66,38.842 85.66,37.31 C85.66,36.304 85.617,35.098 85.313,34.143 C85.052,33.315 84.53,32.989 83.792,32.989 Z M83.771,30.551 C87.225,30.551 89.09,33.517 89.09,37.285 C89.09,40.927 87.028,43.817 83.771,43.817 C80.383,43.817 78.538,40.851 78.538,37.159 C78.538,33.44 80.404,30.551 83.771,30.551 L83.771,30.551 Z" id="Fill-67" fill="#000000"></path>
            <path d="M93.569,43.565 L91.25,43.565 C91.018,43.55 90.833,43.365 90.833,43.136 L90.83,31.193 C90.85,30.974 91.042,30.803 91.276,30.803 L93.433,30.803 C93.637,30.814 93.804,30.952 93.848,31.137 L93.848,32.963 L93.89,32.963 C94.542,31.331 95.454,30.551 97.062,30.551 C98.103,30.551 99.124,30.928 99.776,31.959 C100.383,32.912 100.383,34.521 100.383,35.677 L100.383,43.189 C100.357,43.401 100.168,43.565 99.938,43.565 L97.606,43.565 C97.391,43.551 97.216,43.393 97.19,43.189 L97.19,36.708 C97.19,35.4 97.343,33.491 95.736,33.491 C95.172,33.491 94.65,33.867 94.39,34.446 C94.065,35.175 94.02,35.903 94.02,36.708 L94.02,43.135 C94.016,43.373 93.816,43.565 93.569,43.565" id="Fill-68" fill="#000000"></path>
            <path d="M64.919,43.535 C64.765,43.673 64.543,43.682 64.37,43.589 C63.598,42.948 63.459,42.65 63.037,42.039 C61.76,43.341 60.855,43.729 59.202,43.729 C57.243,43.729 55.72,42.522 55.72,40.104 C55.72,38.217 56.743,36.932 58.201,36.301 C59.462,35.749 61.225,35.648 62.574,35.497 L62.574,35.195 C62.574,34.641 62.618,33.987 62.292,33.508 C62.009,33.08 61.465,32.904 60.986,32.904 C60.1,32.904 59.311,33.359 59.117,34.301 C59.077,34.509 58.922,34.717 58.712,34.728 L56.458,34.485 C56.267,34.441 56.056,34.289 56.11,33.997 C56.628,31.262 59.099,30.437 61.311,30.437 C62.444,30.437 63.924,30.739 64.816,31.595 C65.946,32.652 65.839,34.062 65.839,35.598 L65.839,39.221 C65.839,40.313 66.292,40.79 66.718,41.377 C66.864,41.589 66.899,41.842 66.709,41.995 C66.234,42.394 65.391,43.128 64.926,43.541 L64.919,43.535 Z M62.574,37.863 C62.574,38.771 62.596,39.526 62.14,40.332 C61.77,40.986 61.182,41.389 60.529,41.389 C59.637,41.389 59.115,40.709 59.115,39.703 C59.115,37.72 60.891,37.36 62.574,37.36 L62.574,37.863 L62.574,37.863 Z" id="Fill-69" fill="#000000"></path>
            <path d="M34.426,43.535 C34.271,43.673 34.049,43.682 33.875,43.589 C33.104,42.948 32.966,42.65 32.542,42.039 C31.266,43.341 30.362,43.729 28.708,43.729 C26.749,43.729 25.226,42.522 25.226,40.104 C25.226,38.217 26.25,36.932 27.707,36.301 C28.97,35.749 30.731,35.648 32.081,35.497 L32.081,35.195 C32.081,34.641 32.125,33.987 31.797,33.508 C31.514,33.08 30.971,32.904 30.493,32.904 C29.605,32.904 28.816,33.359 28.622,34.301 C28.583,34.509 28.429,34.717 28.218,34.728 L25.964,34.485 C25.773,34.441 25.563,34.289 25.617,33.997 C26.135,31.262 28.606,30.437 30.819,30.437 C31.95,30.437 33.43,30.739 34.322,31.595 C35.453,32.652 35.344,34.062 35.344,35.598 L35.344,39.221 C35.344,40.313 35.797,40.79 36.222,41.377 C36.371,41.589 36.405,41.842 36.216,41.995 C35.74,42.394 34.895,43.128 34.432,43.541 L34.426,43.535 Z M32.081,37.863 C32.081,38.771 32.102,39.526 31.646,40.332 C31.275,40.986 30.688,41.389 30.035,41.389 C29.142,41.389 28.619,40.709 28.619,39.703 C28.619,37.72 30.398,37.36 32.081,37.36 L32.081,37.863 L32.081,37.863 Z" id="Fill-70" fill="#000000"></path>
        </g>
    </g>
</svg>