<svg viewBox="0 0 126 79" version="1.1" xmlns="http://www.w3.org/2000/svg" xmlns:xlink="http://www.w3.org/1999/xlink">
    <g id="Carrinho" stroke="none" stroke-width="1" fill="none" fill-rule="evenodd">
        <g id="icon-maestro-light">
            <path d="M125.626,74.343 C125.626,76.652 123.755,78.523 121.445,78.523 L4.377,78.523 C2.067,78.523 0.196,76.652 0.196,74.343 L0.196,4.312 C0.196,2.002 2.067,0.13 4.377,0.13 L121.445,0.13 C123.755,0.13 125.626,2.002 125.626,4.312 L125.626,74.343" id="Fill-95" fill="#F9F9F9"></path>
            <polyline id="Fill-96" fill="#EC1C2E" points="77.84 61.84 79.002 61.809 80.148 61.721 81.273 61.58 82.382 61.38 83.478 61.13 84.551 60.825 85.593 60.471 86.622 60.064 87.62 59.613 88.59 59.116 89.536 58.576 90.447 57.985 91.334 57.356 92.186 56.691 93.007 55.981 93.791 55.233 94.529 54.448 95.24 53.627 95.914 52.777 96.543 51.896 97.127 50.979 97.668 50.032 98.169 49.062 98.622 48.064 99.021 47.035 99.376 45.993 99.68 44.92 99.932 43.833 100.131 42.716 100.271 41.591 100.36 40.444 100.391 39.282 100.36 38.129 100.271 36.989 100.131 35.872 99.932 34.763 99.68 33.683 99.376 32.618 99.021 31.574 98.622 30.553 98.169 29.563 97.668 28.592 97.127 27.652 96.543 26.735 95.914 25.856 95.24 25.004 94.529 24.19 93.791 23.407 93.007 22.666 92.186 21.956 91.334 21.29 90.447 20.661 89.536 20.078 88.59 19.538 87.62 19.033 86.622 18.583 85.593 18.182 84.551 17.828 83.478 17.525 82.382 17.273 81.273 17.073 80.148 16.933 79.002 16.844 77.84 16.815 76.679 16.844 75.532 16.933 74.408 17.073 73.297 17.273 72.203 17.525 71.137 17.828 70.087 18.182 69.066 18.583 68.068 19.033 67.098 19.538 66.158 20.078 65.242 20.661 64.361 21.29 63.51 21.956 62.697 22.666 61.919 23.407 61.172 24.19 60.462 25.004 59.796 25.856 59.169 26.735 58.584 27.652 58.043 28.592 57.547 29.563 57.104 30.553 56.697 31.574 56.341 32.618 56.045 33.683 55.794 34.763 55.594 35.872 55.453 36.989 55.364 38.129 55.336 39.282 55.364 40.444 55.453 41.591 55.594 42.716 55.794 43.833 56.045 44.92 56.341 45.993 56.697 47.035 57.104 48.064 57.547 49.062 58.043 50.032 58.584 50.979 59.169 51.896 59.796 52.777 60.462 53.627 61.172 54.448 61.919 55.233 62.697 55.981 63.51 56.691 64.361 57.356 65.242 57.985 66.158 58.576 67.098 59.116 68.068 59.613 69.066 60.064 70.087 60.471 71.137 60.825 72.203 61.13 73.297 61.38 74.408 61.58 75.532 61.721 76.679 61.809 77.84 61.84"></polyline>
            <polyline id="Fill-97" fill="#0084C4" points="47.981 61.84 49.143 61.809 50.29 61.721 51.415 61.58 52.524 61.38 53.619 61.13 54.685 60.825 55.735 60.471 56.756 60.064 57.755 59.613 58.724 59.116 59.663 58.576 60.581 57.985 61.46 57.356 62.311 56.691 63.126 55.981 63.909 55.233 64.65 54.448 65.36 53.627 66.026 52.777 66.654 51.896 67.238 50.979 67.78 50.032 68.274 49.062 68.726 48.064 69.126 47.035 69.48 45.993 69.777 44.92 70.028 43.833 70.228 42.716 70.368 41.591 70.457 40.444 70.486 39.282 70.457 38.129 70.368 36.989 70.228 35.872 70.028 34.763 69.777 33.683 69.48 32.618 69.126 31.574 68.726 30.553 68.274 29.563 67.78 28.592 67.238 27.652 66.654 26.735 66.026 25.856 65.36 25.004 64.65 24.19 63.909 23.407 63.126 22.666 62.311 21.956 61.46 21.29 60.581 20.661 59.663 20.078 58.724 19.538 57.755 19.033 56.756 18.583 55.735 18.182 54.685 17.828 53.619 17.525 52.524 17.273 51.415 17.073 50.29 16.933 49.143 16.844 47.981 16.815 46.82 16.844 45.673 16.933 44.549 17.073 43.439 17.273 42.345 17.525 41.271 17.828 40.228 18.182 39.201 18.583 38.202 19.033 37.232 19.538 36.285 20.078 35.375 20.661 34.487 21.29 33.637 21.956 32.815 22.666 32.039 23.407 31.292 24.19 30.581 25.004 29.909 25.856 29.279 26.735 28.695 27.652 28.154 28.592 27.652 29.563 27.2 30.553 26.801 31.574 26.446 32.618 26.144 33.683 25.89 34.763 25.691 35.872 25.551 36.989 25.461 38.129 25.433 39.282 25.461 40.444 25.551 41.591 25.691 42.716 25.89 43.833 26.144 44.92 26.446 45.993 26.801 47.035 27.2 48.064 27.652 49.062 28.154 50.032 28.695 50.979 29.279 51.896 29.909 52.777 30.581 53.627 31.292 54.448 32.039 55.233 32.815 55.981 33.637 56.691 34.487 57.356 35.375 57.985 36.285 58.576 37.232 59.116 38.202 59.613 39.201 60.064 40.228 60.471 41.271 60.825 42.345 61.13 43.439 61.38 44.549 61.58 45.673 61.721 46.82 61.809 47.981 61.84"></polyline>
            <polyline id="Fill-98" fill="#EC1C2E" points="60.137 25.389 71.552 25.389 71.552 24.132 61.239 24.132 60.137 25.389"></polyline>
            <polyline id="Fill-99" fill="#EC1C2E" points="58.346 28.052 71.552 28.052 71.552 26.802 59.146 26.802 58.346 28.052"></polyline>
            <polyline id="Fill-100" fill="#EC1C2E" points="57.006 30.76 71.552 30.76 71.552 29.502 57.622 29.502 57.006 30.76"></polyline>
            <polyline id="Fill-101" fill="#EC1C2E" points="56.135 33.424 71.552 33.424 71.552 32.173 56.52 32.173 56.135 33.424"></polyline>
            <polyline id="Fill-102" fill="#EC1C2E" points="55.565 36.094 71.552 36.094 71.552 34.836 55.794 34.836 55.565 36.094"></polyline>
            <polyline id="Fill-103" fill="#EC1C2E" points="55.446 41.265 71.552 41.265 71.552 40.007 55.336 40.007 55.446 41.265"></polyline>
            <polyline id="Fill-104" fill="#EC1C2E" points="55.832 44.084 71.552 44.084 71.552 42.826 55.602 42.826 55.832 44.084"></polyline>
            <polyline id="Fill-105" fill="#EC1C2E" points="56.594 46.371 71.552 46.371 71.552 45.113 56.208 45.113 56.594 46.371"></polyline>
            <polyline id="Fill-106" fill="#EC1C2E" points="57.732 49.152 71.552 49.152 71.552 47.894 57.126 47.894 57.732 49.152"></polyline>
            <polyline id="Fill-107" fill="#EC1C2E" points="59.339 51.97 71.552 51.97 71.552 50.713 58.495 50.713 59.339 51.97"></polyline>
            <polyline id="Fill-108" fill="#EC1C2E" points="61.35 54.677 71.441 54.677 71.441 53.42 60.248 53.42 61.35 54.677"></polyline>
            <polyline id="Fill-109" fill="#EC1C2E" points="96.683 53.11 96.75 52.91 96.86 52.725 97.002 52.562 97.165 52.428 97.349 52.325 97.549 52.259 97.764 52.237 97.985 52.259 98.192 52.325 98.377 52.428 98.54 52.562 98.673 52.725 98.776 52.91 98.844 53.11 98.615 53.11 98.569 52.969 98.489 52.813 98.385 52.68 98.259 52.576 98.11 52.496 97.94 52.444 97.764 52.428 97.586 52.444 97.415 52.496 97.267 52.576 97.135 52.68 97.03 52.813 96.95 52.969 96.905 53.11 96.683 53.11"></polyline>
            <polyline id="Fill-110" fill="#EC1C2E" points="97.379 53.11 97.379 52.843 97.801 52.843 97.896 52.85 97.977 52.858 98.052 52.881 98.11 52.91 98.156 52.947 98.192 52.991 98.215 53.043 98.223 53.11 98.03 53.11 98.022 53.073 98.007 53.043 97.985 53.013 97.956 52.991 97.919 52.976 97.883 52.969 97.845 52.962 97.571 52.962 97.571 53.11 97.379 53.11"></polyline>
            <polyline id="Fill-111" fill="#EC1C2E" points="96.668 53.302 96.683 53.117 96.683 53.11 96.905 53.11 96.898 53.147 96.882 53.302 96.668 53.302"></polyline>
            <polyline id="Fill-112" fill="#EC1C2E" points="97.379 53.302 97.379 53.11 97.571 53.11 97.571 53.265 97.89 53.265 97.933 53.258 97.97 53.242 97.993 53.228 98.015 53.199 98.03 53.162 98.03 53.11 98.223 53.11 98.215 53.176 98.199 53.236 98.178 53.28 98.156 53.302 97.379 53.302"></polyline>
            <polyline id="Fill-113" fill="#EC1C2E" points="98.636 53.302 98.622 53.147 98.615 53.11 98.844 53.11 98.844 53.117 98.866 53.302 98.636 53.302"></polyline>
            <polyline id="Fill-114" fill="#EC1C2E" points="96.668 53.302 96.662 53.338 96.683 53.56 96.75 53.768 96.86 53.946 97.002 54.108 97.165 54.234 97.349 54.331 97.549 54.389 97.764 54.412 97.985 54.389 98.192 54.331 98.377 54.234 98.54 54.108 98.673 53.946 98.776 53.768 98.844 53.56 98.866 53.338 98.866 53.302 98.636 53.302 98.636 53.338 98.622 53.531 98.569 53.709 98.489 53.864 98.385 53.998 98.259 54.108 98.11 54.19 97.94 54.241 97.764 54.256 97.586 54.241 97.415 54.19 97.267 54.108 97.135 53.998 97.03 53.864 96.95 53.709 96.898 53.531 96.882 53.338 96.882 53.302 96.668 53.302"></polyline>
            <polyline id="Fill-115" fill="#EC1C2E" points="97.379 53.302 97.379 53.76 97.571 53.76 97.571 53.384 97.764 53.384 97.993 53.76 98.186 53.76 97.911 53.384 97.977 53.376 98.044 53.368 98.097 53.346 98.141 53.317 98.156 53.302 97.379 53.302"></polyline>
            <polyline id="Fill-116" fill="#FFFFFF" points="72.964 37.389 72.817 37.382 72.669 37.367 72.535 37.344 72.403 37.331 72.27 37.307 72.137 37.285 71.996 37.263 71.848 37.241 71.693 37.225 71.529 37.211 71.344 37.196 71.144 37.188 70.923 37.188 70.679 37.196 70.405 37.211 70.11 37.233 69.895 37.263 69.695 37.307 69.511 37.367 69.348 37.434 69.199 37.514 69.066 37.604 68.955 37.707 68.867 37.81 68.8 37.929 68.756 38.054 68.733 38.18 68.733 38.313 68.764 38.454 68.815 38.594 68.896 38.735 68.999 38.876 69.214 39.069 69.465 39.224 69.762 39.357 70.08 39.467 70.413 39.578 70.761 39.69 71.115 39.815 71.456 39.964 71.774 40.141 72.078 40.356 72.343 40.63 72.565 40.955 72.735 41.354 72.847 41.828 72.885 42.39 72.847 43.056 72.765 43.551 72.631 43.995 72.462 44.395 72.246 44.749 71.996 45.06 71.722 45.327 71.418 45.556 71.094 45.756 70.752 45.919 70.398 46.051 70.035 46.163 69.672 46.244 69.311 46.303 68.955 46.34 68.616 46.363 68.282 46.371 67.822 46.371 67.409 46.363 67.032 46.355 66.685 46.348 66.366 46.334 66.085 46.318 65.819 46.297 65.582 46.266 65.36 46.237 65.153 46.199 64.959 46.163 64.769 46.111 64.591 46.059 64.413 46.008 64.236 45.941 64.051 45.874 64.509 43.551 64.613 43.574 64.738 43.61 64.894 43.647 65.064 43.691 65.263 43.729 65.485 43.781 65.722 43.824 65.974 43.869 66.24 43.906 66.521 43.944 66.811 43.973 67.113 44.002 67.417 44.017 67.728 44.024 68.039 44.024 68.356 44.009 68.652 43.958 68.896 43.877 69.081 43.759 69.228 43.626 69.34 43.469 69.421 43.308 69.488 43.145 69.532 42.982 69.554 42.812 69.547 42.663 69.511 42.523 69.45 42.405 69.37 42.286 69.266 42.183 69.14 42.086 68.999 41.997 68.844 41.917 68.674 41.835 68.49 41.754 68.296 41.68 68.104 41.606 67.898 41.524 67.69 41.443 67.476 41.354 67.269 41.265 67.062 41.169 66.854 41.058 66.654 40.94 66.462 40.814 66.284 40.673 66.115 40.51 65.96 40.341 65.819 40.148 65.693 39.941 65.589 39.711 65.501 39.467 65.441 39.194 65.404 38.898 65.396 38.572 65.419 38.224 65.441 38.01 65.471 37.802 65.501 37.604 65.544 37.411 65.589 37.225 65.641 37.041 65.708 36.871 65.774 36.701 65.855 36.545 65.937 36.39 66.033 36.249 66.137 36.109 66.248 35.976 66.366 35.849 66.491 35.731 66.631 35.62 66.779 35.517 66.936 35.421 67.105 35.332 67.284 35.243 67.467 35.169 67.667 35.095 67.876 35.036 68.096 34.976 68.334 34.925 68.578 34.881 68.83 34.844 69.096 34.814 69.376 34.792 69.672 34.778 69.977 34.763 70.686 34.763 71.042 34.769 71.36 34.778 71.655 34.792 71.915 34.807 72.152 34.822 72.366 34.844 72.551 34.859 72.722 34.881 72.869 34.903 73.01 34.917 73.127 34.94 73.232 34.955 73.328 34.969 73.416 34.984 73.498 34.992 72.964 37.389"></polyline>
            <polyline id="Stroke-117" stroke="#FFFFFF" stroke-width="0.215" points="72.964 37.389 72.964 37.389 72.817 37.382 72.669 37.367 72.535 37.344 72.403 37.331 72.27 37.307 72.137 37.285 71.996 37.263 71.848 37.241 71.693 37.225 71.529 37.211 71.344 37.196 71.144 37.188 70.923 37.188 70.679 37.196 70.405 37.211 70.11 37.233 69.895 37.263 69.695 37.307 69.511 37.367 69.348 37.434 69.199 37.514 69.066 37.604 68.955 37.707 68.867 37.81 68.8 37.929 68.756 38.054 68.733 38.18 68.733 38.313 68.764 38.454 68.815 38.594 68.896 38.735 68.999 38.876 69.214 39.069 69.465 39.224 69.762 39.357 70.08 39.467 70.413 39.578 70.761 39.69 71.115 39.815 71.456 39.964 71.774 40.141 72.078 40.356 72.343 40.63 72.565 40.955 72.735 41.354 72.847 41.828 72.885 42.39 72.847 43.056 72.765 43.551 72.631 43.995 72.462 44.395 72.246 44.749 71.996 45.06 71.722 45.327 71.418 45.556 71.094 45.756 70.752 45.919 70.398 46.051 70.035 46.163 69.672 46.244 69.311 46.303 68.955 46.34 68.616 46.363 68.282 46.371 67.822 46.371 67.409 46.363 67.032 46.355 66.685 46.348 66.366 46.334 66.085 46.318 65.819 46.297 65.582 46.266 65.36 46.237 65.153 46.199 64.959 46.163 64.769 46.111 64.591 46.059 64.413 46.008 64.236 45.941 64.051 45.874 64.509 43.551 64.613 43.574 64.738 43.61 64.894 43.647 65.064 43.691 65.263 43.729 65.485 43.781 65.722 43.824 65.974 43.869 66.24 43.906 66.521 43.944 66.811 43.973 67.113 44.002 67.417 44.017 67.728 44.024 68.039 44.024 68.356 44.009 68.652 43.958 68.896 43.877 69.081 43.759 69.228 43.626 69.34 43.469 69.421 43.308 69.488 43.145 69.532 42.982 69.554 42.812 69.547 42.663 69.511 42.523 69.45 42.405 69.37 42.286 69.266 42.183 69.14 42.086 68.999 41.997 68.844 41.917 68.674 41.835 68.49 41.754 68.296 41.68 68.104 41.606 67.898 41.524 67.69 41.443 67.476 41.354 67.269 41.265 67.062 41.169 66.854 41.058 66.654 40.94 66.462 40.814 66.284 40.673 66.115 40.51 65.96 40.341 65.819 40.148 65.693 39.941 65.589 39.711 65.501 39.467 65.441 39.194 65.404 38.898 65.396 38.572 65.419 38.224 65.441 38.01 65.471 37.802 65.501 37.604 65.544 37.411 65.589 37.225 65.641 37.041 65.708 36.871 65.774 36.701 65.855 36.545 65.937 36.39 66.033 36.249 66.137 36.109 66.248 35.976 66.366 35.849 66.491 35.731 66.631 35.62 66.779 35.517 66.936 35.421 67.105 35.332 67.284 35.243 67.467 35.169 67.667 35.095 67.876 35.036 68.096 34.976 68.334 34.925 68.578 34.881 68.83 34.844 69.096 34.814 69.376 34.792 69.672 34.778 69.977 34.763 70.686 34.763 71.042 34.769 71.36 34.778 71.655 34.792 71.915 34.807 72.152 34.822 72.366 34.844 72.551 34.859 72.722 34.881 72.869 34.903 73.01 34.917 73.127 34.94 73.232 34.955 73.328 34.969 73.416 34.984 73.498 34.992 72.964 37.389"></polyline>
            <polyline id="Fill-118" fill="#FFFFFF" points="75.398 32.439 78.373 32.439 77.914 35.03 79.742 35.03 79.327 37.389 77.456 37.351 76.472 43.248 76.457 43.373 76.457 43.484 76.472 43.581 76.502 43.67 76.546 43.744 76.596 43.818 76.664 43.877 76.738 43.92 76.827 43.966 76.917 44.002 77.019 44.032 77.123 44.048 77.242 44.07 77.36 44.076 77.485 44.084 77.848 44.084 78.055 44.07 78.247 44.04 78.411 44.002 78.536 43.966 78.633 43.928 78.691 43.898 78.713 43.892 78.411 45.911 78.337 45.956 78.255 45.993 78.174 46.03 78.091 46.067 78.011 46.096 77.92 46.126 77.833 46.155 77.73 46.185 77.625 46.214 77.514 46.237 77.389 46.259 77.256 46.28 77.115 46.303 76.968 46.325 76.797 46.348 76.62 46.371 75.82 46.371 75.398 46.34 75.021 46.297 74.689 46.237 74.4 46.155 74.155 46.067 73.949 45.956 73.779 45.831 73.639 45.689 73.527 45.533 73.445 45.363 73.394 45.178 73.365 44.972 73.357 44.758 73.365 44.521 73.386 44.276 73.424 44.009 75.398 32.439"></polyline>
            <polyline id="Stroke-119" stroke="#FFFFFF" stroke-width="0.215" points="75.398 32.439 78.373 32.439 77.914 35.03 79.742 35.03 79.327 37.389 77.456 37.351 76.472 43.248 76.457 43.373 76.457 43.484 76.472 43.581 76.502 43.67 76.546 43.744 76.596 43.818 76.664 43.877 76.738 43.92 76.827 43.966 76.917 44.002 77.019 44.032 77.123 44.048 77.242 44.07 77.36 44.076 77.485 44.084 77.848 44.084 78.055 44.07 78.247 44.04 78.411 44.002 78.536 43.966 78.633 43.928 78.691 43.898 78.713 43.892 78.411 45.911 78.337 45.956 78.255 45.993 78.174 46.03 78.091 46.067 78.011 46.096 77.92 46.126 77.833 46.155 77.73 46.185 77.625 46.214 77.514 46.237 77.389 46.259 77.256 46.28 77.115 46.303 76.968 46.325 76.797 46.348 76.62 46.371 75.82 46.371 75.398 46.34 75.021 46.297 74.689 46.237 74.4 46.155 74.155 46.067 73.949 45.956 73.779 45.831 73.639 45.689 73.527 45.533 73.445 45.363 73.394 45.178 73.365 44.972 73.357 44.758 73.365 44.521 73.386 44.276 73.424 44.009 75.398 32.439"></polyline>
            <polyline id="Fill-120" fill="#FFFFFF" points="57.318 41.42 57.28 41.606 57.274 41.791 57.289 41.99 57.333 42.183 57.392 42.383 57.481 42.582 57.584 42.774 57.71 42.959 57.851 43.137 58.014 43.308 58.183 43.456 58.369 43.596 58.567 43.714 58.775 43.811 58.998 43.884 59.218 43.936 59.486 43.973 59.752 44.009 60.025 44.04 60.299 44.054 60.581 44.061 60.854 44.061 61.144 44.048 61.424 44.024 61.712 43.981 62.008 43.928 62.304 43.854 62.6 43.759 62.896 43.647 63.208 43.515 63.51 43.352 63.822 43.174 63.363 45.801 63.192 45.889 63.021 45.97 62.866 46.038 62.704 46.096 62.541 46.155 62.378 46.199 62.208 46.237 62.023 46.274 61.832 46.297 61.623 46.318 61.395 46.34 61.151 46.348 60.884 46.363 60.587 46.363 60.262 46.371 59.649 46.371 59.382 46.355 59.123 46.34 58.857 46.311 58.584 46.274 58.317 46.229 58.05 46.171 57.785 46.111 57.525 46.03 57.267 45.948 57.015 45.852 56.763 45.742 56.52 45.615 56.282 45.482 56.061 45.334 55.838 45.172 55.632 44.994 55.432 44.802 55.239 44.594 55.069 44.372 54.906 44.128 54.759 43.877 54.625 43.604 54.507 43.314 54.403 43.005 54.322 42.678 54.255 42.338 54.211 41.968 54.183 41.583 54.183 41.184 54.196 40.756 54.233 40.31 54.255 40.156 54.277 39.978 54.308 39.8 54.344 39.609 54.38 39.408 54.433 39.201 54.493 38.987 54.551 38.765 54.625 38.535 54.706 38.313 54.803 38.084 54.906 37.855 55.024 37.625 55.15 37.396 55.291 37.168 55.438 36.945 55.609 36.731 55.786 36.516 55.979 36.308 56.193 36.116 56.415 35.924 56.66 35.747 56.919 35.583 57.2 35.428 57.495 35.295 57.813 35.169 58.146 35.058 58.5 34.969 58.879 34.896 59.278 34.844 59.693 34.814 60.137 34.799 60.345 34.799 60.551 34.814 60.766 34.829 60.98 34.851 61.193 34.881 61.417 34.925 61.631 34.976 61.846 35.036 62.059 35.102 62.275 35.184 62.482 35.272 62.682 35.377 62.875 35.495 63.067 35.62 63.243 35.769 63.422 35.924 63.584 36.094 63.739 36.28 63.88 36.486 64.006 36.701 64.125 36.937 64.228 37.188 64.316 37.463 64.382 37.752 64.442 38.063 64.479 38.386 64.495 38.735 64.495 39.105 64.472 39.497 64.436 39.911 64.369 40.348 64.279 40.807 64.162 41.458 56.476 41.458 56.934 39.401 61.543 39.401 61.565 39.12 61.565 38.861 61.55 38.617 61.506 38.394 61.447 38.196 61.372 38.01 61.276 37.847 61.165 37.699 61.039 37.566 60.898 37.456 60.75 37.367 60.595 37.292 60.425 37.233 60.248 37.188 60.063 37.168 59.87 37.159 59.663 37.159 59.471 37.188 59.278 37.225 59.101 37.285 58.931 37.367 58.768 37.463 58.613 37.573 58.472 37.699 58.339 37.847 58.221 38.003 58.109 38.173 58.006 38.358 57.918 38.55 57.844 38.757 57.785 38.98 57.732 39.209 57.318 41.42"></polyline>
            <polyline id="Stroke-121" stroke="#FFFFFF" stroke-width="0.215" points="57.318 41.42 57.318 41.42 57.28 41.606 57.274 41.791 57.289 41.99 57.333 42.183 57.392 42.383 57.481 42.582 57.584 42.774 57.71 42.959 57.851 43.137 58.014 43.308 58.183 43.456 58.369 43.596 58.567 43.714 58.775 43.811 58.998 43.884 59.218 43.936 59.486 43.973 59.752 44.009 60.025 44.04 60.299 44.054 60.581 44.061 60.854 44.061 61.144 44.048 61.424 44.024 61.712 43.981 62.008 43.928 62.304 43.854 62.6 43.759 62.896 43.647 63.208 43.515 63.51 43.352 63.822 43.174 63.363 45.801 63.192 45.889 63.021 45.97 62.866 46.038 62.704 46.096 62.541 46.155 62.378 46.199 62.208 46.237 62.023 46.274 61.832 46.297 61.623 46.318 61.395 46.34 61.151 46.348 60.884 46.363 60.587 46.363 60.262 46.371 59.649 46.371 59.382 46.355 59.123 46.34 58.857 46.311 58.584 46.274 58.317 46.229 58.05 46.171 57.785 46.111 57.525 46.03 57.267 45.948 57.015 45.852 56.763 45.742 56.52 45.615 56.282 45.482 56.061 45.334 55.838 45.172 55.632 44.994 55.432 44.802 55.239 44.594 55.069 44.372 54.906 44.128 54.759 43.877 54.625 43.604 54.507 43.314 54.403 43.005 54.322 42.678 54.255 42.338 54.211 41.968 54.183 41.583 54.183 41.184 54.196 40.756 54.233 40.31 54.255 40.156 54.277 39.978 54.308 39.8 54.344 39.609 54.38 39.408 54.433 39.201 54.493 38.987 54.551 38.765 54.625 38.535 54.706 38.313 54.803 38.084 54.906 37.855 55.024 37.625 55.15 37.396 55.291 37.168 55.438 36.945 55.609 36.731 55.786 36.516 55.979 36.308 56.193 36.116 56.415 35.924 56.66 35.747 56.919 35.583 57.2 35.428 57.495 35.295 57.813 35.169 58.146 35.058 58.5 34.969 58.879 34.896 59.278 34.844 59.693 34.814 60.137 34.799 60.345 34.799 60.551 34.814 60.766 34.829 60.98 34.851 61.193 34.881 61.417 34.925 61.631 34.976 61.846 35.036 62.059 35.102 62.275 35.184 62.482 35.272 62.682 35.377 62.875 35.495 63.067 35.62 63.243 35.769 63.422 35.924 63.584 36.094 63.739 36.28 63.88 36.486 64.006 36.701 64.125 36.937 64.228 37.188 64.316 37.463 64.382 37.752 64.442 38.063 64.479 38.386 64.495 38.735 64.495 39.105 64.472 39.497 64.436 39.911 64.369 40.348 64.279 40.807 64.162 41.458 56.476 41.458 56.934 39.401 61.543 39.401 61.565 39.12 61.565 38.861 61.55 38.617 61.506 38.394 61.447 38.196 61.372 38.01 61.276 37.847 61.165 37.699 61.039 37.566 60.898 37.456 60.75 37.367 60.595 37.292 60.425 37.233 60.248 37.188 60.063 37.168 59.87 37.159 59.663 37.159 59.471 37.188 59.278 37.225 59.101 37.285 58.931 37.367 58.768 37.463 58.613 37.573 58.472 37.699 58.339 37.847 58.221 38.003 58.109 38.173 58.006 38.358 57.918 38.55 57.844 38.757 57.785 38.98 57.732 39.209 57.318 41.42"></polyline>
            <polyline id="Fill-122" fill="#FFFFFF" points="53.206 44.009 52.783 46.371 50.113 46.371 50.143 46.148 50.171 45.926 50.201 45.727 50.23 45.541 50.26 45.385 50.282 45.253 50.312 45.164 50.342 45.113 50.201 45.275 50.023 45.437 49.825 45.594 49.595 45.742 49.351 45.882 49.084 46.015 48.803 46.134 48.514 46.244 48.211 46.34 47.901 46.423 47.589 46.48 47.28 46.525 46.968 46.548 46.665 46.555 46.369 46.534 46.081 46.488 45.703 46.4 45.371 46.28 45.068 46.14 44.801 45.985 44.565 45.815 44.364 45.623 44.187 45.423 44.039 45.202 43.913 44.98 43.81 44.749 43.728 44.512 43.661 44.269 43.618 44.032 43.586 43.788 43.573 43.551 43.564 43.322 43.595 42.908 43.661 42.516 43.758 42.137 43.898 41.783 44.068 41.451 44.26 41.14 44.49 40.851 44.734 40.577 45.009 40.333 45.296 40.119 45.607 39.92 45.933 39.748 46.273 39.601 46.621 39.482 46.975 39.394 47.338 39.327 47.353 39.327 47.405 39.32 47.486 39.311 47.596 39.297 47.723 39.282 47.871 39.268 48.035 39.245 48.211 39.232 48.389 39.216 48.567 39.194 48.751 39.178 48.929 39.164 49.091 39.149 49.246 39.142 49.388 39.135 49.884 39.135 50.017 39.142 50.143 39.142 50.26 39.149 50.497 39.149 50.601 39.157 50.697 39.157 50.779 39.164 50.853 39.164 50.911 39.172 50.993 39.172 51.016 39.098 51.066 38.921 51.105 38.712 51.105 38.529 51.089 38.394 51.066 38.269 51.029 38.15 50.978 38.04 50.919 37.936 50.845 37.841 50.771 37.752 50.682 37.662 50.586 37.589 50.489 37.529 50.377 37.47 50.268 37.418 50.15 37.382 50.023 37.351 49.897 37.331 49.771 37.315 49.469 37.307 49.15 37.315 48.816 37.322 48.478 37.344 48.137 37.367 47.797 37.396 47.457 37.434 47.124 37.47 46.806 37.521 46.503 37.566 46.229 37.618 45.97 37.677 45.74 37.736 45.547 37.795 45.391 37.855 45.282 37.921 46.043 35.406 46.265 35.303 46.503 35.207 46.738 35.125 46.99 35.058 47.25 35.006 47.516 34.962 47.797 34.925 48.085 34.896 48.382 34.881 48.685 34.866 48.995 34.859 50.001 34.859 50.357 34.866 50.727 34.874 51.029 34.903 51.349 34.947 51.68 35.03 52.013 35.125 52.347 35.25 52.681 35.406 52.99 35.583 53.286 35.791 53.56 36.027 53.804 36.286 54.012 36.575 54.174 36.892 54.292 37.241 54.359 37.618 54.367 38.017 54.308 38.454 53.206 44.009"></polyline>
            <polyline id="Stroke-123" stroke="#FFFFFF" stroke-width="0.215" points="53.206 44.009 52.783 46.371 50.113 46.371 50.143 46.148 50.171 45.926 50.201 45.727 50.23 45.541 50.26 45.385 50.282 45.253 50.312 45.164 50.342 45.113 50.201 45.275 50.023 45.437 49.825 45.594 49.595 45.742 49.351 45.882 49.084 46.015 48.803 46.134 48.514 46.244 48.211 46.34 47.901 46.423 47.589 46.48 47.28 46.525 46.968 46.548 46.665 46.555 46.369 46.534 46.081 46.488 45.703 46.4 45.371 46.28 45.068 46.14 44.801 45.985 44.565 45.815 44.364 45.623 44.187 45.423 44.039 45.202 43.913 44.98 43.81 44.749 43.728 44.512 43.661 44.269 43.618 44.032 43.586 43.788 43.573 43.551 43.564 43.322 43.595 42.908 43.661 42.516 43.758 42.137 43.898 41.783 44.068 41.451 44.26 41.14 44.49 40.851 44.734 40.577 45.009 40.333 45.296 40.119 45.607 39.92 45.933 39.748 46.273 39.601 46.621 39.482 46.975 39.394 47.338 39.327 47.353 39.327 47.405 39.32 47.486 39.311 47.596 39.297 47.723 39.282 47.871 39.268 48.035 39.245 48.211 39.232 48.389 39.216 48.567 39.194 48.751 39.178 48.929 39.164 49.091 39.149 49.246 39.142 49.388 39.135 49.884 39.135 50.017 39.142 50.143 39.142 50.26 39.149 50.497 39.149 50.601 39.157 50.697 39.157 50.779 39.164 50.853 39.164 50.911 39.172 50.993 39.172 51.016 39.098 51.066 38.921 51.105 38.712 51.105 38.529 51.089 38.394 51.066 38.269 51.029 38.15 50.978 38.04 50.919 37.936 50.845 37.841 50.771 37.752 50.682 37.662 50.586 37.589 50.489 37.529 50.377 37.47 50.268 37.418 50.15 37.382 50.023 37.351 49.897 37.331 49.771 37.315 49.469 37.307 49.15 37.315 48.816 37.322 48.478 37.344 48.137 37.367 47.797 37.396 47.457 37.434 47.124 37.47 46.806 37.521 46.503 37.566 46.229 37.618 45.97 37.677 45.74 37.736 45.547 37.795 45.391 37.855 45.282 37.921 46.043 35.406 46.265 35.303 46.503 35.207 46.738 35.125 46.99 35.058 47.25 35.006 47.516 34.962 47.797 34.925 48.085 34.896 48.382 34.881 48.685 34.866 48.995 34.859 50.001 34.859 50.357 34.866 50.727 34.874 51.029 34.903 51.349 34.947 51.68 35.03 52.013 35.125 52.347 35.25 52.681 35.406 52.99 35.583 53.286 35.791 53.56 36.027 53.804 36.286 54.012 36.575 54.174 36.892 54.292 37.241 54.359 37.618 54.367 38.017 54.308 38.454 53.206 44.009"></polyline>
            <polyline id="Fill-124" fill="#0084C4" points="50.652 41.228 50.645 41.169 50.601 41.124 50.526 41.088 50.431 41.066 50.305 41.051 50.171 41.043 49.854 41.043 49.684 41.058 49.506 41.08 49.336 41.102 49.166 41.133 49.003 41.161 48.847 41.191 48.715 41.228 48.596 41.265 48.529 41.28 48.44 41.309 48.331 41.347 48.211 41.398 48.085 41.451 47.944 41.517 47.804 41.598 47.664 41.68 47.523 41.783 47.39 41.895 47.263 42.012 47.154 42.147 47.049 42.286 46.975 42.443 46.917 42.612 46.879 42.789 46.865 43.152 46.917 43.433 47.005 43.655 47.138 43.818 47.301 43.928 47.471 44.002 47.656 44.04 47.834 44.048 48.16 44.04 48.449 44.009 48.722 43.958 48.966 43.892 49.188 43.818 49.388 43.729 49.564 43.626 49.72 43.515 49.86 43.404 49.979 43.278 50.083 43.159 50.171 43.034 50.246 42.908 50.305 42.789 50.35 42.672 50.386 42.56 50.424 42.397 50.46 42.226 50.497 42.049 50.535 41.864 50.563 41.687 50.594 41.524 50.623 41.369 50.652 41.228"></polyline>
            <polyline id="Fill-125" fill="#FFFFFF" points="30.878 46.371 27.984 46.371 30.418 32.439 35.449 32.439 35.945 40.733 39.37 32.439 44.594 32.439 42.153 46.371 39.26 46.371 41.086 35.938 40.975 35.938 36.67 46.371 33.43 46.371 33.4 45.933 33.333 44.772 33.126 41.244 33.016 39.341 32.92 37.662 32.852 36.449 32.823 35.938 32.675 35.938 32.705 35.938 30.878 46.371"></polyline>
            <polyline id="Stroke-126" stroke="#FFFFFF" stroke-width="0.215" points="30.878 46.371 27.984 46.371 30.418 32.439 35.449 32.439 35.945 40.733 39.37 32.439 44.594 32.439 42.153 46.371 39.26 46.371 41.086 35.938 40.975 35.938 36.67 46.371 33.43 46.371 33.4 45.933 33.333 44.772 33.126 41.244 33.016 39.341 32.92 37.662 32.852 36.449 32.823 35.938 32.675 35.938 32.705 35.938 30.878 46.371"></polyline>
            <polyline id="Fill-127" fill="#FFFFFF" points="79.21 46.371 82.221 46.371 83.249 40.356 83.293 40.119 83.345 39.889 83.404 39.66 83.478 39.446 83.559 39.232 83.663 39.031 83.788 38.839 83.929 38.655 84.1 38.49 84.291 38.342 84.521 38.21 84.772 38.091 85.069 37.995 85.401 37.921 85.771 37.877 86.185 37.847 86.222 37.847 86.267 37.855 86.327 37.862 86.385 37.862 86.438 37.869 86.481 37.877 86.511 37.884 86.526 37.884 86.534 37.841 86.563 37.714 86.601 37.521 86.659 37.278 86.733 37.005 86.814 36.708 86.911 36.412 87.021 36.132 87.103 35.924 87.199 35.724 87.295 35.525 87.399 35.34 87.488 35.184 87.562 35.058 87.613 34.976 87.629 34.947 87.613 34.947 87.576 34.932 87.525 34.925 87.45 34.91 87.376 34.896 87.287 34.888 87.207 34.874 87.133 34.874 86.807 34.896 86.511 34.932 86.238 34.992 85.985 35.058 85.749 35.146 85.535 35.243 85.328 35.361 85.143 35.488 84.957 35.629 84.787 35.783 84.632 35.946 84.468 36.123 84.314 36.308 84.166 36.509 84.01 36.716 83.856 36.93 84.203 35.03 81.192 34.992 79.21 46.371"></polyline>
            <polyline id="Stroke-128" stroke="#FFFFFF" stroke-width="0.215" points="79.21 46.371 82.221 46.371 83.249 40.356 83.293 40.119 83.345 39.889 83.404 39.66 83.478 39.446 83.559 39.232 83.663 39.031 83.788 38.839 83.929 38.655 84.1 38.49 84.291 38.342 84.521 38.21 84.772 38.091 85.069 37.995 85.401 37.921 85.771 37.877 86.185 37.847 86.222 37.847 86.267 37.855 86.327 37.862 86.385 37.862 86.438 37.869 86.481 37.877 86.511 37.884 86.526 37.884 86.534 37.841 86.563 37.714 86.601 37.521 86.659 37.278 86.733 37.005 86.814 36.708 86.911 36.412 87.021 36.132 87.103 35.924 87.199 35.724 87.295 35.525 87.399 35.34 87.488 35.184 87.562 35.058 87.613 34.976 87.629 34.947 87.613 34.947 87.576 34.932 87.525 34.925 87.45 34.91 87.376 34.896 87.287 34.888 87.207 34.874 87.133 34.874 86.807 34.896 86.511 34.932 86.238 34.992 85.985 35.058 85.749 35.146 85.535 35.243 85.328 35.361 85.143 35.488 84.957 35.629 84.787 35.783 84.632 35.946 84.468 36.123 84.314 36.308 84.166 36.509 84.01 36.716 83.856 36.93 84.203 35.03 81.192 34.992 79.21 46.371"></polyline>
            <polyline id="Fill-129" fill="#FFFFFF" points="92.237 34.874 92.57 34.881 92.896 34.903 93.214 34.932 93.525 34.976 93.821 35.036 94.108 35.11 94.383 35.192 94.655 35.287 94.915 35.398 95.159 35.517 95.403 35.643 95.625 35.783 95.848 35.938 96.054 36.101 96.248 36.272 96.432 36.457 96.609 36.649 96.771 36.856 96.921 37.064 97.061 37.285 97.193 37.514 97.305 37.759 97.415 38.003 97.505 38.261 97.586 38.521 97.652 38.795 97.711 39.076 97.757 39.364 97.785 39.652 97.801 39.956 97.808 40.267 97.801 40.577 97.778 40.955 97.734 41.318 97.682 41.665 97.615 42.005 97.542 42.331 97.445 42.641 97.342 42.945 97.231 43.232 97.097 43.507 96.965 43.773 96.808 44.024 96.654 44.261 96.483 44.491 96.298 44.705 96.106 44.905 95.907 45.098 95.699 45.275 95.485 45.446 95.256 45.6 95.026 45.742 94.782 45.874 94.529 45.993 94.279 46.104 94.012 46.199 93.747 46.288 93.465 46.363 93.184 46.423 92.902 46.474 92.607 46.511 92.312 46.54 92.008 46.555 91.704 46.562 91.4 46.555 91.097 46.54 90.809 46.511 90.521 46.466 90.24 46.414 89.958 46.355 89.692 46.28 89.434 46.193 89.174 46.096 88.93 45.985 88.694 45.867 88.464 45.734 88.243 45.594 88.035 45.437 87.828 45.275 87.636 45.098 87.458 44.912 87.28 44.713 87.124 44.506 86.97 44.284 86.836 44.054 86.703 43.811 86.593 43.558 86.488 43.3 86.4 43.026 86.318 42.738 86.252 42.443 86.201 42.137 86.164 41.821 86.142 41.494 86.135 41.155 86.142 40.807 86.164 40.452 86.201 40.111 86.252 39.778 86.318 39.46 86.393 39.149 86.481 38.845 86.577 38.557 86.688 38.277 86.807 38.003 86.939 37.744 87.087 37.499 87.244 37.256 87.407 37.034 87.583 36.812 87.769 36.611 87.961 36.412 88.168 36.227 88.383 36.057 88.604 35.895 88.834 35.747 89.077 35.613 89.33 35.481 89.588 35.369 89.848 35.265 90.122 35.178 90.401 35.095 90.691 35.03 90.987 34.969 91.29 34.932 91.6 34.896 91.919 34.881 92.237 34.874"></polyline>
            <polyline id="Stroke-130" stroke="#FFFFFF" stroke-width="0.215" points="92.237 34.874 92.237 34.874 92.57 34.881 92.896 34.903 93.214 34.932 93.525 34.976 93.821 35.036 94.108 35.11 94.383 35.192 94.655 35.287 94.915 35.398 95.159 35.517 95.403 35.643 95.625 35.783 95.848 35.938 96.054 36.101 96.248 36.272 96.432 36.457 96.609 36.649 96.771 36.856 96.921 37.064 97.061 37.285 97.193 37.514 97.305 37.759 97.415 38.003 97.505 38.261 97.586 38.521 97.652 38.795 97.711 39.076 97.757 39.364 97.785 39.652 97.801 39.956 97.808 40.267 97.801 40.577 97.778 40.955 97.734 41.318 97.682 41.665 97.615 42.005 97.542 42.331 97.445 42.641 97.342 42.945 97.231 43.232 97.097 43.507 96.965 43.773 96.808 44.024 96.654 44.261 96.483 44.491 96.298 44.705 96.106 44.905 95.907 45.098 95.699 45.275 95.485 45.446 95.256 45.6 95.026 45.742 94.782 45.874 94.529 45.993 94.279 46.104 94.012 46.199 93.747 46.288 93.465 46.363 93.184 46.423 92.902 46.474 92.607 46.511 92.312 46.54 92.008 46.555 91.704 46.562 91.4 46.555 91.097 46.54 90.809 46.511 90.521 46.466 90.24 46.414 89.958 46.355 89.692 46.28 89.434 46.193 89.174 46.096 88.93 45.985 88.694 45.867 88.464 45.734 88.243 45.594 88.035 45.437 87.828 45.275 87.636 45.098 87.458 44.912 87.28 44.713 87.124 44.506 86.97 44.284 86.836 44.054 86.703 43.811 86.593 43.558 86.488 43.3 86.4 43.026 86.318 42.738 86.252 42.443 86.201 42.137 86.164 41.821 86.142 41.494 86.135 41.155 86.142 40.807 86.164 40.452 86.201 40.111 86.252 39.778 86.318 39.46 86.393 39.149 86.481 38.845 86.577 38.557 86.688 38.277 86.807 38.003 86.939 37.744 87.087 37.499 87.244 37.256 87.407 37.034 87.583 36.812 87.769 36.611 87.961 36.412 88.168 36.227 88.383 36.057 88.604 35.895 88.834 35.747 89.077 35.613 89.33 35.481 89.588 35.369 89.848 35.265 90.122 35.178 90.401 35.095 90.691 35.03 90.987 34.969 91.29 34.932 91.6 34.896 91.919 34.881 92.237 34.874"></polyline>
            <polyline id="Fill-131" fill="#FFFFFF" points="96.662 45.801 97.535 45.801 97.535 45.911 97.193 45.911 97.193 46.636 97.002 46.636 97.002 45.911 96.662 45.911 96.662 45.801"></polyline>
            <polyline id="Stroke-132" stroke="#FFFFFF" stroke-width="0.215" points="96.662 45.801 97.535 45.801 97.535 45.911 97.193 45.911 97.193 46.636 97.002 46.636 97.002 45.911 96.662 45.911 96.662 45.801"></polyline>
            <polyline id="Fill-133" fill="#FFFFFF" points="97.646 45.801 97.911 45.801 98.223 46.444 98.525 45.801 98.792 45.801 98.792 46.636 98.599 46.636 98.599 45.993 98.296 46.636 98.141 46.636 97.836 45.993 97.836 46.636 97.646 46.636 97.646 45.801"></polyline>
            <polyline id="Stroke-134" stroke="#FFFFFF" stroke-width="0.215" points="97.646 45.801 97.911 45.801 98.223 46.444 98.525 45.801 98.792 45.801 98.792 46.636 98.599 46.636 98.599 45.993 98.296 46.636 98.141 46.636 97.836 45.993 97.836 46.636 97.646 46.636 97.646 45.801"></polyline>
            <polyline id="Fill-135" fill="#EC1C2E" points="89.877 40.31 89.833 40.725 89.81 41.11 89.81 41.458 89.833 41.783 89.877 42.079 89.942 42.338 90.026 42.575 90.128 42.789 90.254 42.973 90.395 43.129 90.55 43.262 90.721 43.367 90.905 43.447 91.113 43.507 91.326 43.536 91.557 43.551 91.808 43.544 92.053 43.515 92.282 43.462 92.503 43.382 92.711 43.278 92.91 43.145 93.095 42.988 93.273 42.803 93.428 42.597 93.577 42.359 93.716 42.093 93.835 41.805 93.946 41.488 94.042 41.14 94.117 40.762 94.183 40.356 94.22 40.037 94.242 39.734 94.242 39.438 94.22 39.157 94.183 38.898 94.124 38.646 94.042 38.417 93.946 38.203 93.828 38.01 93.694 37.847 93.539 37.699 93.369 37.581 93.177 37.484 92.969 37.425 92.748 37.389 92.503 37.389 92.2 37.411 91.919 37.463 91.66 37.551 91.415 37.662 91.194 37.81 90.987 37.973 90.802 38.157 90.638 38.366 90.484 38.587 90.351 38.824 90.231 39.06 90.136 39.311 90.047 39.563 89.974 39.815 89.921 40.067 89.877 40.31"></polyline>
        </g>
    </g>
</svg>