<svg viewBox="0 0 126 79" version="1.1" xmlns="http://www.w3.org/2000/svg" xmlns:xlink="http://www.w3.org/1999/xlink">
    <g id="Carrinho" stroke="none" stroke-width="1" fill="none" fill-rule="evenodd">
        <g id="icon-ebay-dark">
            <path d="M125.68,74.803 C125.68,77.112 123.807,78.985 121.498,78.985 L4.43,78.985 C2.121,78.985 0.25,77.112 0.25,74.803 L0.25,4.77 C0.25,2.462 2.121,0.591 4.43,0.591 L121.498,0.591 C123.807,0.591 125.68,2.462 125.68,4.77 L125.68,74.803" id="Fill-365" fill="#1D1E1E"></path>
            <path d="M29.158,38.723 C29.158,38.723 29.412,34.184 34.537,34.182 C39.639,34.18 39.639,38.723 39.639,38.723 L29.158,38.723 Z M34.623,31.813 C25.719,31.811 25.371,38.745 25.418,40.544 C25.418,40.544 24.98,48.649 34.404,48.649 C42.504,48.649 42.902,43.563 42.902,43.563 L39.176,43.571 C39.176,43.571 38.451,46.372 34.422,46.298 C29.24,46.202 29.039,41.18 29.039,41.18 L43.393,41.18 C43.393,41.18 44.482,31.815 34.623,31.813 L34.623,31.813 Z" id="Fill-366" fill="#EE3A3F"></path>
            <path d="M52.539,46.231 C46.883,46.301 46.977,40.231 46.977,40.231 C46.977,40.231 46.77,34.391 52.529,34.239 C58.291,34.089 58.102,40.356 58.102,40.356 C58.102,40.356 58.193,46.157 52.539,46.231 Z M53.361,31.813 C48.885,31.788 46.959,34.464 46.959,34.464 L46.959,25.509 L43.369,25.509 L43.428,44.438 C43.428,44.438 43.408,46.641 43.271,48.098 L46.758,48.098 L46.906,45.971 C46.906,45.971 48.533,48.649 53.287,48.649 C58.041,48.649 61.793,45.721 61.893,40.294 C61.994,34.864 57.842,31.839 53.361,31.813 L53.361,31.813 Z" id="Fill-367" fill="#0067B2"></path>
            <path d="M69.098,46.36 C69.098,46.36 65.5,46.364 65.289,43.489 C65.064,40.421 70.824,40.606 70.824,40.606 L74.893,40.602 C74.893,40.602 75.553,46.444 69.098,46.36 Z M78.48,44.362 C78.488,41.913 78.561,39.727 78.48,38.184 C78.385,36.397 78.555,32.081 70.824,31.762 C70.824,31.762 63.414,31.087 62.645,36.604 L66.434,36.604 C66.434,36.604 66.729,34.077 70.574,34.149 C74.215,34.217 74.877,36.003 74.857,38.198 C74.857,38.198 71.738,38.208 70.697,38.212 C68.82,38.221 62.256,38.43 61.643,42.428 C60.914,47.184 65.158,48.669 68.479,48.649 C71.799,48.63 73.693,47.635 75.102,45.852 L75.252,48.069 L78.555,48.05 C78.555,48.05 78.471,46.811 78.48,44.362 L78.48,44.362 Z" id="Fill-368" fill="#FAAC18"></path>
            <polyline id="Fill-369" fill="#6AB845" points="76.516 32.413 80.682 32.413 86.773 44.559 92.877 32.413 96.643 32.413 85.621 54.065 81.594 54.065 84.783 48.05 76.516 32.413"></polyline>
            <path d="M98.053,33.28 L98.053,32.831 L97.914,32.831 L97.914,32.665 L98.053,32.665 L98.053,32.43 L98.303,32.43 L98.303,32.665 L98.596,32.665 L98.596,32.831 L98.303,32.831 L98.303,33.249 C98.303,33.325 98.354,33.356 98.438,33.356 C98.492,33.356 98.543,33.346 98.592,33.327 L98.592,33.487 C98.529,33.514 98.461,33.53 98.367,33.53 C98.182,33.53 98.053,33.467 98.053,33.28" id="Fill-370" fill="#231F1F"></path>
            <path d="M98.852,32.665 L99.102,32.665 L99.102,32.792 C99.172,32.716 99.268,32.645 99.436,32.645 C99.594,32.645 99.705,32.706 99.762,32.796 C99.85,32.706 99.965,32.645 100.131,32.645 C100.367,32.645 100.516,32.764 100.516,32.971 L100.516,33.514 L100.264,33.514 L100.264,33.032 C100.264,32.897 100.184,32.823 100.043,32.823 C99.906,32.823 99.809,32.899 99.809,33.034 L99.809,33.514 L99.557,33.514 L99.557,33.03 C99.557,32.899 99.475,32.823 99.336,32.823 C99.197,32.823 99.102,32.905 99.102,33.034 L99.102,33.514 L98.852,33.514 L98.852,32.665" id="Fill-371" fill="#231F1F"></path>
        </g>
    </g>
</svg>