<svg viewBox="0 0 126 80" version="1.1" xmlns="http://www.w3.org/2000/svg" xmlns:xlink="http://www.w3.org/1999/xlink">
    <defs>
        <radialGradient cx="50%" cy="0%" fx="50%" fy="0%" r="98.8739636%" id="radialGradient-1">
            <stop stop-color="#FBB231" offset="0%"></stop>
            <stop stop-color="#F58220" offset="100%"></stop>
        </radialGradient>
    </defs>
    <g id="Carrinho" stroke="none" stroke-width="1" fill="none" fill-rule="evenodd">
        <g id="icon-discover-light">
            <path d="M125.735,74.938 C125.735,77.247 123.862,79.12 121.554,79.12 L4.486,79.12 C2.178,79.12 0.305,77.247 0.305,74.938 L0.305,4.907 C0.305,2.596 2.178,0.725 4.486,0.725 L121.554,0.725 C123.862,0.725 125.735,2.596 125.735,4.907 L125.735,74.938" id="Fill-326" fill="#F9F9F9"></path>
            <path d="M34.783,79.12 L121.554,79.12 C123.862,79.12 125.735,77.247 125.735,74.938 L125.735,45.585 C117.407,50.864 86.01,69.065 34.783,79.12" id="Fill-327" fill="#F6821F"></path>
            <path d="M64.552,33.817 C61.096,33.817 58.293,36.516 58.293,39.848 C58.293,43.391 60.974,46.038 64.552,46.038 C68.041,46.038 70.795,43.356 70.795,39.917 C70.795,36.501 68.058,33.817 64.552,33.817" id="Fill-328" fill="url(#radialGradient-1)"></path>
            <path d="M31.693,42.852 C30.97,43.505 30.039,43.786 28.558,43.786 L27.943,43.786 L27.943,36.024 L28.558,36.024 C30.039,36.024 30.934,36.288 31.693,36.973 C32.485,37.678 32.957,38.768 32.957,39.893 C32.957,41.022 32.485,42.151 31.693,42.852 Z M29.017,34.036 L25.652,34.036 L25.652,45.774 L29,45.774 C30.776,45.774 32.06,45.352 33.188,44.421 C34.523,43.309 35.317,41.637 35.317,39.911 C35.317,36.446 32.728,34.036 29.017,34.036 L29.017,34.036 Z" id="Fill-330" fill="#001722"></path>
            <polygon id="Fill-331" fill="#001722" points="36.374 45.774 38.661 45.774 38.661 34.036 36.374 34.036"></polygon>
            <path d="M44.26,38.538 C42.885,38.03 42.481,37.694 42.481,37.061 C42.481,36.323 43.199,35.76 44.188,35.76 C44.874,35.76 45.438,36.042 46.037,36.708 L47.232,35.145 C46.247,34.28 45.068,33.841 43.782,33.841 C41.707,33.841 40.122,35.284 40.122,37.202 C40.122,38.823 40.861,39.649 43.008,40.423 C43.906,40.739 44.363,40.95 44.592,41.092 C45.05,41.393 45.28,41.813 45.28,42.305 C45.28,43.259 44.522,43.96 43.5,43.96 C42.409,43.96 41.53,43.417 41.002,42.395 L39.525,43.823 C40.579,45.37 41.847,46.057 43.59,46.057 C45.966,46.057 47.638,44.471 47.638,42.202 C47.638,40.337 46.865,39.491 44.26,38.538" id="Fill-332" fill="#001722"></path>
            <path d="M48.358,39.911 C48.358,43.364 51.07,46.038 54.555,46.038 C55.542,46.038 56.385,45.844 57.425,45.352 L57.425,42.659 C56.508,43.575 55.698,43.942 54.66,43.942 C52.354,43.942 50.717,42.27 50.717,39.893 C50.717,37.643 52.406,35.864 54.555,35.864 C55.644,35.864 56.473,36.253 57.425,37.184 L57.425,34.491 C56.422,33.981 55.593,33.772 54.608,33.772 C51.14,33.772 48.358,36.501 48.358,39.911" id="Fill-333" fill="#001722"></path>
            <polyline id="Fill-334" fill="#001722" points="75.975 41.921 72.841 34.036 70.342 34.036 75.324 46.075 76.556 46.075 81.625 34.036 79.145 34.036 75.975 41.921"></polyline>
            <polyline id="Fill-335" fill="#001722" points="82.666 45.774 89.16 45.774 89.16 43.786 84.953 43.786 84.953 40.616 89 40.616 89 38.63 84.953 38.63 84.953 36.024 89.16 36.024 89.16 34.036 82.666 34.036 82.666 45.774"></polyline>
            <path d="M93.627,39.438 L92.96,39.438 L92.96,35.882 L93.664,35.882 C95.092,35.882 95.867,36.483 95.867,37.624 C95.867,38.803 95.092,39.438 93.627,39.438 Z M98.222,37.501 C98.222,35.301 96.709,34.036 94.068,34.036 L90.671,34.036 L90.671,45.774 L92.96,45.774 L92.96,41.057 L93.26,41.057 L96.427,45.774 L99.243,45.774 L95.545,40.829 C97.272,40.477 98.222,39.298 98.222,37.501 L98.222,37.501 Z" id="Fill-336" fill="#001722"></path>
            <path d="M99.404,35.051 L99.358,35.051 L99.358,34.784 L99.407,34.784 C99.528,34.784 99.59,34.827 99.59,34.915 C99.59,35.005 99.525,35.051 99.404,35.051 Z M99.837,34.911 C99.837,34.706 99.699,34.592 99.447,34.592 L99.113,34.592 L99.113,35.628 L99.358,35.628 L99.358,35.225 L99.647,35.628 L99.955,35.628 L99.61,35.2 C99.755,35.161 99.837,35.055 99.837,34.911 L99.837,34.911 Z" id="Fill-337" fill="#231F1F"></path>
            <path d="M99.494,35.848 C99.095,35.848 98.771,35.52 98.771,35.11 C98.771,34.696 99.093,34.368 99.494,34.368 C99.885,34.368 100.206,34.702 100.206,35.11 C100.206,35.516 99.885,35.848 99.494,35.848 Z M99.495,34.204 C98.995,34.204 98.594,34.606 98.594,35.108 C98.594,35.608 98.997,36.01 99.495,36.01 C99.986,36.01 100.388,35.604 100.388,35.108 C100.388,34.612 99.986,34.204 99.495,34.204 L99.495,34.204 Z" id="Fill-338" fill="#231F1F"></path>
        </g>
    </g>
</svg>