<svg viewBox="0 0 126 80" version="1.1" xmlns="http://www.w3.org/2000/svg" xmlns:xlink="http://www.w3.org/1999/xlink">
    <g id="Carrinho" stroke="none" stroke-width="1" fill="none" fill-rule="evenodd">
        <g id="icon-diners-light">
            <path d="M125.735,75.072 C125.735,77.382 123.862,79.254 121.554,79.254 L4.485,79.254 C2.177,79.254 0.304,77.382 0.304,75.072 L0.304,5.041 C0.304,2.732 2.177,0.861 4.485,0.861 L121.554,0.861 C123.862,0.861 125.735,2.732 125.735,5.041 L125.735,75.072" id="Fill-265" fill="#F9F9F9"></path>
            <path d="M66.02,43.619 C73.107,43.653 79.578,37.841 79.578,30.767 C79.578,23.034 73.107,17.688 66.02,17.692 L59.919,17.692 C52.749,17.688 46.844,23.035 46.844,30.767 C46.844,37.841 52.749,43.653 59.919,43.619 L66.02,43.619" id="Fill-266" fill="#004A97"></path>
            <path d="M59.95,18.762 C53.396,18.765 48.083,24.076 48.082,30.633 C48.083,37.187 53.396,42.497 59.95,42.5 C66.505,42.497 71.816,37.187 71.817,30.633 C71.816,24.076 66.505,18.765 59.95,18.762 M52.427,30.633 C52.434,27.428 54.435,24.697 57.257,23.611 L57.257,37.652 C54.435,36.566 52.434,33.836 52.427,30.633 M62.641,37.654 L62.641,23.611 C65.464,24.694 67.468,27.426 67.473,30.633 C67.468,33.838 65.464,36.569 62.641,37.654" id="Fill-267" fill="#FFFFFF"></path>
            <path d="M32.242,46.037 C32.242,44.804 31.598,44.886 30.982,44.873 L30.982,44.516 C31.516,44.543 32.064,44.543 32.601,44.543 C33.175,44.543 33.957,44.516 34.972,44.516 C38.521,44.516 40.455,46.886 40.455,49.315 C40.455,50.671 39.659,54.084 34.807,54.084 C34.108,54.084 33.462,54.057 32.819,54.057 C32.203,54.057 31.598,54.071 30.982,54.084 L30.982,53.729 C31.804,53.646 32.203,53.619 32.242,52.687 L32.242,46.037 Z M33.585,52.467 C33.585,53.523 34.341,53.646 35.011,53.646 C37.972,53.646 38.945,51.412 38.945,49.369 C38.945,46.806 37.3,44.956 34.655,44.956 C34.092,44.956 33.833,44.996 33.585,45.011 L33.585,52.467 L33.585,52.467 Z" id="Fill-268" fill="#004A97"></path>
            <path d="M40.934,53.729 L41.195,53.729 C41.578,53.729 41.853,53.729 41.853,53.275 L41.853,49.56 C41.853,48.958 41.648,48.875 41.139,48.601 L41.139,48.383 C41.783,48.189 42.553,47.93 42.605,47.89 C42.703,47.834 42.784,47.82 42.853,47.82 C42.921,47.82 42.949,47.903 42.949,48.012 L42.949,53.275 C42.949,53.729 43.251,53.729 43.635,53.729 L43.868,53.729 L43.868,54.084 C43.4,54.084 42.921,54.057 42.428,54.057 C41.934,54.057 41.441,54.071 40.934,54.084 L40.934,53.729 Z M42.402,45.71 C42.045,45.71 41.729,45.38 41.729,45.024 C41.729,44.679 42.059,44.364 42.402,44.364 C42.756,44.364 43.072,44.654 43.072,45.024 C43.072,45.394 42.77,45.71 42.402,45.71 L42.402,45.71 Z" id="Fill-269" fill="#004A97"></path>
            <path d="M45.17,49.642 C45.17,49.136 45.018,49 44.376,48.739 L44.376,48.478 C44.964,48.287 45.525,48.108 46.184,47.82 C46.225,47.82 46.265,47.848 46.265,47.957 L46.265,48.847 C47.047,48.287 47.719,47.82 48.639,47.82 C49.803,47.82 50.214,48.67 50.214,49.739 L50.214,53.275 C50.214,53.729 50.516,53.729 50.899,53.729 L51.146,53.729 L51.146,54.084 C50.666,54.084 50.187,54.057 49.693,54.057 C49.201,54.057 48.707,54.071 48.212,54.084 L48.212,53.729 L48.46,53.729 C48.844,53.729 49.116,53.729 49.116,53.275 L49.116,49.726 C49.116,48.944 48.639,48.56 47.857,48.56 C47.418,48.56 46.719,48.917 46.265,49.22 L46.265,53.275 C46.265,53.729 46.568,53.729 46.952,53.729 L47.199,53.729 L47.199,54.084 C46.719,54.084 46.239,54.057 45.745,54.057 C45.253,54.057 44.758,54.071 44.264,54.084 L44.264,53.729 L44.513,53.729 C44.895,53.729 45.17,53.729 45.17,53.275 L45.17,49.642" id="Fill-270" fill="#004A97"></path>
            <path d="M52.188,50.302 C52.161,50.426 52.161,50.63 52.188,51.096 C52.27,52.399 53.108,53.468 54.204,53.468 C54.958,53.468 55.548,53.056 56.055,52.551 L56.245,52.741 C55.615,53.578 54.833,54.289 53.711,54.289 C51.53,54.289 51.091,52.179 51.091,51.302 C51.091,48.614 52.9,47.82 53.859,47.82 C54.972,47.82 56.164,48.519 56.176,49.972 C56.176,50.055 56.176,50.136 56.164,50.219 L56.04,50.302 L52.188,50.302 Z M54.615,49.863 C54.958,49.863 54.998,49.684 54.998,49.52 C54.998,48.82 54.573,48.259 53.806,48.259 C52.97,48.259 52.395,48.875 52.23,49.863 L54.615,49.863 L54.615,49.863 Z" id="Fill-271" fill="#004A97"></path>
            <path d="M56.493,53.729 L56.863,53.729 C57.247,53.729 57.521,53.729 57.521,53.275 L57.521,49.425 C57.521,49 57.014,48.917 56.808,48.806 L56.808,48.601 C57.808,48.176 58.356,47.82 58.482,47.82 C58.563,47.82 58.603,47.862 58.603,48 L58.603,49.233 L58.632,49.233 C58.973,48.698 59.55,47.82 60.386,47.82 C60.729,47.82 61.167,48.052 61.167,48.546 C61.167,48.917 60.907,49.246 60.522,49.246 C60.097,49.246 60.097,48.917 59.618,48.917 C59.384,48.917 58.618,49.233 58.618,50.055 L58.618,53.275 C58.618,53.729 58.89,53.729 59.275,53.729 L60.042,53.729 L60.042,54.084 C59.288,54.071 58.714,54.057 58.124,54.057 C57.561,54.057 56.988,54.071 56.493,54.084 L56.493,53.729" id="Fill-272" fill="#004A97"></path>
            <path d="M61.771,52.179 C61.949,53.084 62.496,53.852 63.499,53.852 C64.307,53.852 64.606,53.358 64.606,52.878 C64.606,51.261 61.619,51.781 61.619,49.574 C61.619,48.806 62.237,47.82 63.744,47.82 C64.183,47.82 64.771,47.943 65.307,48.217 L65.403,49.614 L65.087,49.614 C64.951,48.753 64.471,48.259 63.593,48.259 C63.044,48.259 62.523,48.574 62.523,49.164 C62.523,50.768 65.704,50.273 65.704,52.425 C65.704,53.33 64.978,54.289 63.346,54.289 C62.798,54.289 62.153,54.098 61.675,53.825 L61.523,52.249 L61.771,52.179" id="Fill-273" fill="#004A97"></path>
            <path d="M78.083,46.996 L77.74,46.996 C77.479,45.394 76.341,44.749 74.807,44.749 C73.229,44.749 70.94,45.803 70.94,49.095 C70.94,51.864 72.915,53.852 75.024,53.852 C76.382,53.852 77.508,52.921 77.783,51.48 L78.097,51.562 L77.783,53.563 C77.206,53.921 75.656,54.289 74.751,54.289 C71.544,54.289 69.516,52.221 69.516,49.136 C69.516,46.325 72.024,44.31 74.709,44.31 C75.819,44.31 76.891,44.668 77.946,45.038 L78.083,46.996" id="Fill-274" fill="#004A97"></path>
            <path d="M78.577,53.729 L78.836,53.729 C79.222,53.729 79.495,53.729 79.495,53.275 L79.495,45.641 C79.495,44.749 79.29,44.722 78.769,44.572 L78.769,44.352 C79.317,44.175 79.893,43.928 80.18,43.762 C80.329,43.68 80.439,43.612 80.48,43.612 C80.565,43.612 80.592,43.694 80.592,43.804 L80.592,53.275 C80.592,53.729 80.893,53.729 81.278,53.729 L81.508,53.729 L81.508,54.084 C81.043,54.084 80.565,54.057 80.07,54.057 C79.578,54.057 79.083,54.071 78.577,54.084 L78.577,53.729" id="Fill-275" fill="#004A97"></path>
            <path d="M87.377,53.33 C87.377,53.578 87.527,53.591 87.762,53.591 C87.925,53.591 88.131,53.578 88.31,53.578 L88.31,53.866 C87.72,53.921 86.596,54.209 86.335,54.289 L86.267,54.249 L86.267,53.139 C85.445,53.811 84.814,54.289 83.839,54.289 C83.099,54.289 82.332,53.811 82.332,52.66 L82.332,49.15 C82.332,48.794 82.277,48.45 81.511,48.383 L81.511,48.122 C82.004,48.108 83.099,48.026 83.277,48.026 C83.43,48.026 83.43,48.122 83.43,48.423 L83.43,51.96 C83.43,52.371 83.43,53.55 84.622,53.55 C85.088,53.55 85.704,53.193 86.28,52.715 L86.28,49.026 C86.28,48.753 85.622,48.602 85.129,48.465 L85.129,48.217 C86.362,48.135 87.13,48.026 87.267,48.026 C87.377,48.026 87.377,48.122 87.377,48.274 L87.377,53.33" id="Fill-276" fill="#004A97"></path>
            <path d="M90.105,48.806 C90.652,48.341 91.394,47.82 92.148,47.82 C93.737,47.82 94.697,49.206 94.697,50.698 C94.697,52.494 93.38,54.289 91.42,54.289 C90.406,54.289 89.872,53.961 89.517,53.811 L89.104,54.126 L88.817,53.975 C88.939,53.166 89.009,52.371 89.009,51.535 L89.009,45.641 C89.009,44.749 88.803,44.722 88.281,44.572 L88.281,44.352 C88.831,44.175 89.406,43.928 89.693,43.762 C89.844,43.68 89.954,43.613 89.997,43.613 C90.078,43.613 90.105,43.694 90.105,43.804 L90.105,48.806 Z M90.105,52.535 C90.105,53.056 90.598,53.935 91.516,53.935 C92.984,53.935 93.6,52.494 93.6,51.273 C93.6,49.794 92.478,48.56 91.408,48.56 C90.9,48.56 90.476,48.89 90.105,49.206 L90.105,52.535 L90.105,52.535 Z" id="Fill-277" fill="#004A97"></path>
            <path d="M30.966,62.056 L31.072,62.056 C31.34,62.056 31.623,62.018 31.623,61.629 L31.623,57.723 C31.623,57.334 31.34,57.297 31.072,57.297 L30.966,57.297 L30.966,57.072 C31.257,57.072 31.705,57.102 32.072,57.102 C32.444,57.102 32.892,57.072 33.241,57.072 L33.241,57.297 L33.136,57.297 C32.87,57.297 32.585,57.334 32.585,57.723 L32.585,61.629 C32.585,62.018 32.87,62.056 33.136,62.056 L33.241,62.056 L33.241,62.28 C32.884,62.28 32.435,62.25 32.063,62.25 C31.698,62.25 31.257,62.28 30.966,62.28 L30.966,62.056" id="Fill-278" fill="#004A97"></path>
            <path d="M33.241,62.31 C32.882,62.31 32.435,62.281 32.063,62.281 C31.698,62.281 31.261,62.31 30.966,62.31 L30.935,62.31 L30.935,62.022 L31.071,62.022 C31.341,62.016 31.588,61.995 31.592,61.629 L31.592,57.723 C31.588,57.357 31.341,57.334 31.071,57.329 L30.935,57.329 L30.935,57.04 L30.966,57.04 C31.261,57.04 31.706,57.069 32.072,57.069 C32.443,57.069 32.89,57.04 33.241,57.04 L33.275,57.04 L33.275,57.329 L33.137,57.329 C32.867,57.334 32.619,57.357 32.619,57.723 L32.619,61.629 C32.619,61.995 32.867,62.016 33.137,62.022 L33.275,62.022 L33.275,62.31 L33.241,62.31 Z M33.209,62.247 L33.209,62.088 L33.137,62.088 C32.871,62.088 32.554,62.043 32.553,61.629 L32.553,57.723 C32.554,57.31 32.871,57.264 33.137,57.264 L33.209,57.264 L33.209,57.105 C32.865,57.105 32.433,57.135 32.072,57.135 C31.718,57.135 31.289,57.107 31,57.105 L31,57.264 L31.071,57.264 C31.337,57.264 31.655,57.31 31.655,57.723 L31.655,61.629 C31.655,62.043 31.337,62.088 31.071,62.088 L31,62.088 L31,62.247 C31.289,62.244 31.711,62.217 32.063,62.217 C32.427,62.217 32.857,62.246 33.209,62.247 L33.209,62.247 Z" id="Fill-279" fill="#004A97"></path>
            <path d="M38.366,60.81 L38.381,60.794 L38.381,57.998 C38.381,57.386 37.955,57.297 37.731,57.297 L37.567,57.297 L37.567,57.072 C37.918,57.072 38.261,57.102 38.611,57.102 C38.917,57.102 39.225,57.072 39.529,57.072 L39.529,57.297 L39.419,57.297 C39.104,57.297 38.753,57.356 38.753,58.244 L38.753,61.638 C38.753,61.9 38.761,62.159 38.798,62.391 L38.516,62.391 L34.674,58.11 L34.674,61.182 C34.674,61.833 34.799,62.056 35.374,62.056 L35.502,62.056 L35.502,62.28 C35.181,62.28 34.86,62.25 34.539,62.25 C34.204,62.25 33.861,62.28 33.525,62.28 L33.525,62.056 L33.629,62.056 C34.144,62.056 34.3,61.705 34.3,61.109 L34.3,57.967 C34.3,57.551 33.957,57.297 33.622,57.297 L33.525,57.297 L33.525,57.072 C33.809,57.072 34.099,57.102 34.382,57.102 C34.607,57.102 34.822,57.072 35.046,57.072 L38.366,60.81" id="Fill-280" fill="#004A97"></path>
            <path d="M38.799,62.423 L38.49,62.412 L34.706,58.193 L34.706,61.182 C34.714,61.833 34.813,62.015 35.374,62.022 L35.534,62.022 L35.534,62.31 L35.502,62.31 C35.179,62.31 34.857,62.281 34.539,62.281 C34.204,62.281 33.862,62.31 33.525,62.31 L33.492,62.31 L33.492,62.022 L33.629,62.022 C34.123,62.019 34.263,61.703 34.269,61.109 L34.269,57.967 C34.267,57.572 33.941,57.329 33.622,57.329 L33.492,57.329 L33.492,57.042 L33.525,57.042 C33.81,57.042 34.102,57.069 34.382,57.069 C34.603,57.069 34.82,57.042 35.07,57.052 L38.35,60.742 L38.35,57.999 C38.345,57.405 37.948,57.334 37.731,57.329 L37.535,57.329 L37.535,57.042 L37.567,57.042 C37.919,57.042 38.263,57.069 38.611,57.069 C38.915,57.069 39.222,57.042 39.529,57.042 L39.563,57.042 L39.563,57.329 L39.419,57.329 C39.109,57.338 38.794,57.364 38.786,58.243 L38.786,61.638 C38.786,61.899 38.793,62.158 38.829,62.384 L38.836,62.423 L38.799,62.423 Z M38.516,62.358 L38.762,62.358 C38.726,62.134 38.721,61.886 38.721,61.638 L38.721,58.243 C38.721,57.35 39.097,57.264 39.419,57.264 L39.497,57.264 L39.497,57.105 C39.202,57.107 38.909,57.135 38.611,57.135 C38.27,57.135 37.938,57.107 37.602,57.105 L37.602,57.264 L37.731,57.264 C37.961,57.264 38.413,57.366 38.413,57.999 L38.404,60.818 L38.389,60.832 L38.364,60.856 L35.046,57.105 C34.824,57.105 34.609,57.135 34.382,57.135 C34.108,57.135 33.828,57.107 33.556,57.105 L33.556,57.264 L33.622,57.264 C33.972,57.264 34.333,57.531 34.333,57.967 L34.333,61.109 C34.333,61.705 34.167,62.087 33.629,62.089 L33.556,62.087 L33.556,62.247 C33.88,62.244 34.213,62.217 34.539,62.217 C34.851,62.217 35.161,62.244 35.467,62.247 L35.467,62.089 L35.374,62.089 C34.787,62.087 34.642,61.833 34.641,61.182 L34.641,58.025 L38.516,62.358 Z M38.366,60.81 L38.39,60.788 L38.366,60.81 Z M38.35,60.794 L38.35,60.792 L38.342,60.786 L38.35,60.794 L38.35,60.794 Z" id="Fill-281" fill="#004A97"></path>
            <path d="M40.647,57.446 C40.087,57.446 40.065,57.579 39.953,58.124 L39.73,58.124 C39.758,57.915 39.797,57.707 39.82,57.49 C39.849,57.28 39.864,57.072 39.864,56.857 L40.042,56.857 C40.103,57.081 40.289,57.072 40.491,57.072 L44.34,57.072 C44.542,57.072 44.727,57.066 44.742,56.842 L44.921,56.872 C44.891,57.072 44.86,57.275 44.84,57.475 C44.824,57.677 44.824,57.879 44.824,58.079 L44.6,58.163 C44.585,57.887 44.547,57.446 44.048,57.446 L42.826,57.446 L42.826,61.415 C42.826,61.989 43.087,62.056 43.444,62.056 L43.586,62.056 L43.586,62.28 C43.295,62.28 42.772,62.25 42.371,62.25 C41.923,62.25 41.4,62.28 41.108,62.28 L41.108,62.056 L41.25,62.056 C41.664,62.056 41.869,62.018 41.869,61.429 L41.869,57.446 L40.647,57.446" id="Fill-282" fill="#004A97"></path>
            <path d="M43.587,62.31 C43.293,62.31 42.772,62.281 42.371,62.281 C41.924,62.281 41.402,62.31 41.108,62.31 L41.078,62.31 L41.078,62.022 L41.25,62.022 C41.664,62.014 41.829,62.008 41.836,61.429 L41.836,57.478 L40.647,57.478 L40.647,57.412 L41.902,57.412 L41.902,61.429 C41.902,62.028 41.661,62.088 41.25,62.089 L41.143,62.089 L41.143,62.246 C41.437,62.244 41.938,62.217 42.371,62.217 C42.76,62.217 43.258,62.244 43.553,62.246 L43.553,62.089 L43.444,62.089 C43.084,62.088 42.793,62 42.793,61.415 L42.793,57.412 L44.049,57.412 C44.549,57.414 44.615,57.84 44.631,58.116 L44.792,58.057 C44.792,57.863 44.793,57.668 44.807,57.471 C44.827,57.28 44.855,57.09 44.884,56.9 L44.77,56.881 C44.735,57.097 44.526,57.108 44.338,57.105 L40.454,57.105 C40.277,57.105 40.086,57.098 40.019,56.889 L39.896,56.889 C39.895,57.095 39.878,57.296 39.852,57.494 C39.83,57.699 39.795,57.895 39.769,58.093 L39.927,58.093 C40.026,57.573 40.09,57.405 40.647,57.412 L40.647,57.478 C40.095,57.488 40.106,57.58 39.984,58.132 L39.979,58.158 L39.691,58.158 L39.697,58.119 C39.726,57.91 39.764,57.702 39.787,57.485 C39.817,57.278 39.832,57.071 39.832,56.857 L39.832,56.825 L40.068,56.825 L40.073,56.847 C40.124,57.036 40.263,57.037 40.454,57.04 L44.338,57.04 C44.546,57.037 44.697,57.034 44.711,56.839 L44.713,56.804 L44.748,56.811 L44.956,56.844 L44.951,56.877 C44.922,57.077 44.893,57.278 44.872,57.478 C44.856,57.677 44.856,57.878 44.856,58.079 L44.856,58.102 L44.835,58.111 L44.572,58.206 L44.57,58.163 C44.549,57.884 44.521,57.478 44.049,57.478 L42.859,57.478 L42.859,61.415 C42.865,61.977 43.088,62.015 43.444,62.022 L43.618,62.022 L43.618,62.31 L43.587,62.31" id="Fill-283" fill="#004A97"></path>
            <path d="M45.159,62.056 L45.264,62.056 C45.532,62.056 45.816,62.018 45.816,61.629 L45.816,57.723 C45.816,57.334 45.532,57.297 45.264,57.297 L45.159,57.297 L45.159,57.072 C45.613,57.072 46.39,57.102 47.014,57.102 C47.643,57.102 48.417,57.072 48.924,57.072 C48.912,57.392 48.919,57.887 48.939,58.214 L48.716,58.274 C48.68,57.789 48.591,57.403 47.807,57.403 L46.771,57.403 L46.771,59.356 L47.657,59.356 C48.105,59.356 48.202,59.103 48.246,58.698 L48.47,58.698 C48.456,58.99 48.448,59.281 48.448,59.572 C48.448,59.856 48.456,60.139 48.47,60.423 L48.246,60.466 C48.202,60.02 48.18,59.729 47.665,59.729 L46.771,59.729 L46.771,61.465 C46.771,61.95 47.202,61.95 47.679,61.95 C48.575,61.95 48.97,61.891 49.194,61.042 L49.402,61.092 C49.305,61.489 49.216,61.884 49.15,62.28 C48.672,62.28 47.813,62.25 47.142,62.25 C46.472,62.25 45.585,62.28 45.159,62.28 L45.159,62.056" id="Fill-284" fill="#004A97"></path>
            <path d="M49.149,62.31 C48.67,62.31 47.813,62.281 47.142,62.281 C46.472,62.281 45.585,62.31 45.159,62.31 L45.127,62.31 L45.127,62.022 L45.264,62.022 C45.533,62.018 45.779,61.995 45.782,61.629 L45.782,57.723 C45.779,57.359 45.533,57.335 45.264,57.329 L45.127,57.329 L45.127,57.042 L45.159,57.042 C45.614,57.042 46.39,57.069 47.014,57.069 C47.643,57.069 48.417,57.042 48.924,57.042 L48.958,57.042 L48.957,57.074 C48.95,57.187 48.948,57.32 48.948,57.459 C48.948,57.718 48.957,57.999 48.972,58.211 L48.972,58.239 L48.947,58.246 L48.686,58.314 L48.683,58.276 C48.639,57.793 48.575,57.441 47.807,57.434 L46.801,57.434 L46.801,59.322 L47.657,59.322 C48.087,59.318 48.164,59.098 48.214,58.696 L48.217,58.666 L48.503,58.666 L48.501,58.7 C48.488,58.99 48.479,59.281 48.479,59.572 C48.479,59.854 48.488,60.137 48.501,60.42 L48.503,60.448 L48.476,60.453 L48.217,60.506 L48.214,60.47 C48.164,60.013 48.161,59.766 47.665,59.76 L46.801,59.76 L46.801,61.465 C46.802,61.919 47.194,61.916 47.68,61.919 C48.577,61.912 48.938,61.87 49.162,61.031 L49.17,61.002 L49.202,61.008 L49.44,61.069 L49.435,61.101 C49.336,61.494 49.247,61.89 49.182,62.286 L49.175,62.31 L49.149,62.31 Z M49.121,62.246 C49.186,61.87 49.272,61.492 49.363,61.117 L49.216,61.08 C48.992,61.915 48.561,61.989 47.68,61.983 C47.21,61.983 46.739,61.983 46.738,61.465 L46.738,59.697 L47.665,59.697 C48.186,59.691 48.238,60.005 48.275,60.429 L48.436,60.395 C48.422,60.121 48.415,59.846 48.415,59.572 C48.415,59.291 48.422,59.012 48.436,58.731 L48.275,58.731 C48.233,59.12 48.112,59.392 47.657,59.387 L46.738,59.387 L46.738,57.368 L47.807,57.368 C48.583,57.363 48.711,57.763 48.745,58.232 L48.907,58.189 C48.893,57.979 48.884,57.709 48.884,57.459 C48.884,57.332 48.886,57.211 48.891,57.105 C48.385,57.107 47.629,57.135 47.014,57.135 C46.403,57.135 45.648,57.107 45.19,57.105 L45.19,57.264 L45.264,57.264 C45.529,57.264 45.847,57.31 45.848,57.723 L45.848,61.629 C45.847,62.043 45.529,62.087 45.264,62.089 L45.19,62.089 L45.19,62.246 C45.625,62.246 46.487,62.217 47.142,62.217 C47.802,62.217 48.64,62.246 49.121,62.246 L49.121,62.246 Z" id="Fill-285" fill="#004A97"></path>
            <path d="M50.409,57.863 C50.409,57.32 50.11,57.297 49.879,57.297 L49.745,57.297 L49.745,57.072 C49.984,57.072 50.444,57.102 50.901,57.102 C51.349,57.102 51.707,57.072 52.103,57.072 C53.042,57.072 53.877,57.325 53.877,58.386 C53.877,59.056 53.431,59.467 52.841,59.699 L54.115,61.608 C54.326,61.923 54.473,62.011 54.84,62.056 L54.84,62.28 C54.593,62.28 54.353,62.25 54.107,62.25 C53.877,62.25 53.638,62.28 53.408,62.28 C52.834,61.527 52.34,60.721 51.856,59.862 L51.364,59.862 L51.364,61.459 C51.364,62.034 51.632,62.056 51.974,62.056 L52.109,62.056 L52.109,62.28 C51.684,62.28 51.252,62.25 50.826,62.25 C50.467,62.25 50.118,62.28 49.745,62.28 L49.745,62.056 L49.879,62.056 C50.156,62.056 50.409,61.928 50.409,61.653 L50.409,57.863 Z M51.364,59.592 L51.729,59.592 C52.476,59.592 52.876,59.311 52.876,58.43 C52.876,57.767 52.454,57.342 51.788,57.342 C51.563,57.342 51.468,57.364 51.364,57.371 L51.364,59.592 L51.364,59.592 Z" id="Fill-286" fill="#004A97"></path>
            <path d="M54.84,62.31 C54.59,62.31 54.352,62.281 54.107,62.281 C53.88,62.281 53.642,62.31 53.381,62.299 C52.81,61.549 52.318,60.747 51.837,59.895 L51.395,59.895 L51.395,61.458 C51.404,62.019 51.629,62.015 51.974,62.022 L52.142,62.022 L52.142,62.31 L52.108,62.31 C51.682,62.31 51.248,62.281 50.825,62.281 C50.47,62.281 50.119,62.31 49.745,62.31 L49.712,62.31 L49.712,62.022 L49.879,62.022 C50.148,62.02 50.375,61.905 50.376,61.653 L50.376,57.863 C50.37,57.335 50.111,57.337 49.879,57.329 L49.712,57.329 L49.712,57.04 L49.745,57.04 C49.987,57.04 50.445,57.069 50.901,57.069 C51.348,57.069 51.704,57.04 52.103,57.04 C53.042,57.043 53.908,57.302 53.91,58.386 C53.91,59.058 53.464,59.479 52.89,59.714 L54.143,61.59 C54.35,61.9 54.482,61.977 54.844,62.022 L54.871,62.027 L54.871,62.31 L54.84,62.31 Z M51.364,59.829 L51.874,59.829 L51.882,59.846 C52.368,60.703 52.858,61.509 53.408,62.247 C53.635,62.247 53.875,62.217 54.107,62.217 C54.345,62.217 54.576,62.242 54.806,62.246 L54.806,62.083 C54.457,62.04 54.295,61.935 54.089,61.625 L52.791,59.684 L52.828,59.668 C53.411,59.438 53.845,59.04 53.845,58.386 C53.845,57.351 53.04,57.11 52.103,57.105 C51.708,57.105 51.351,57.135 50.901,57.135 C50.463,57.135 50.021,57.107 49.777,57.105 L49.777,57.264 L49.879,57.264 C50.111,57.264 50.44,57.302 50.44,57.863 L50.44,61.653 C50.44,61.952 50.16,62.088 49.879,62.089 L49.777,62.089 L49.777,62.246 C50.136,62.246 50.476,62.217 50.825,62.217 C51.244,62.217 51.664,62.246 52.077,62.246 L52.077,62.089 L51.974,62.089 C51.634,62.088 51.331,62.047 51.331,61.458 L51.331,59.829 L51.364,59.829 Z M51.364,59.625 L51.331,59.625 L51.331,57.342 L51.359,57.339 C51.461,57.33 51.562,57.31 51.788,57.31 C52.468,57.31 52.909,57.752 52.91,58.431 C52.908,59.322 52.48,59.625 51.729,59.625 L51.364,59.625 Z M51.729,59.561 C52.468,59.554 52.84,59.298 52.846,58.431 C52.842,57.78 52.438,57.376 51.788,57.373 C51.587,57.373 51.491,57.391 51.395,57.4 L51.395,59.561 L51.729,59.561 L51.729,59.561 Z" id="Fill-287" fill="#004A97"></path>
            <path d="M59.904,60.81 L59.917,60.794 L59.917,57.998 C59.917,57.386 59.492,57.297 59.269,57.297 L59.105,57.297 L59.105,57.072 C59.455,57.072 59.798,57.102 60.149,57.102 C60.456,57.102 60.759,57.072 61.068,57.072 L61.068,57.297 L60.955,57.297 C60.644,57.297 60.29,57.356 60.29,58.244 L60.29,61.638 C60.29,61.9 60.3,62.159 60.336,62.391 L60.052,62.391 L56.212,58.11 L56.212,61.182 C56.212,61.833 56.338,62.056 56.912,62.056 L57.039,62.056 L57.039,62.28 C56.719,62.28 56.398,62.25 56.078,62.25 C55.741,62.25 55.398,62.28 55.064,62.28 L55.064,62.056 L55.166,62.056 C55.682,62.056 55.839,61.705 55.839,61.109 L55.839,57.967 C55.839,57.551 55.495,57.297 55.161,57.297 L55.064,57.297 L55.064,57.072 C55.346,57.072 55.638,57.102 55.919,57.102 C56.142,57.102 56.36,57.072 56.584,57.072 L59.904,60.81" id="Fill-288" fill="#004A97"></path>
            <path d="M60.336,62.423 L60.027,62.412 L56.243,58.193 L56.243,61.182 C56.252,61.833 56.351,62.015 56.912,62.022 L57.071,62.022 L57.071,62.31 L57.038,62.31 C56.716,62.31 56.395,62.281 56.075,62.281 C55.743,62.281 55.398,62.31 55.064,62.31 L55.028,62.31 L55.028,62.022 L55.166,62.022 C55.658,62.02 55.8,61.703 55.805,61.107 L55.805,57.967 C55.804,57.571 55.479,57.329 55.161,57.329 L55.028,57.329 L55.028,57.04 L55.064,57.04 C55.347,57.04 55.64,57.069 55.92,57.069 C56.139,57.069 56.355,57.04 56.604,57.05 L59.885,60.742 L59.885,57.998 C59.884,57.405 59.485,57.332 59.269,57.329 L59.072,57.329 L59.072,57.04 L59.104,57.04 C59.457,57.04 59.8,57.069 60.149,57.069 C60.452,57.069 60.759,57.04 61.066,57.04 L61.099,57.04 L61.099,57.329 L60.955,57.329 C60.648,57.337 60.331,57.364 60.323,58.243 L60.323,61.638 C60.323,61.899 60.33,62.157 60.367,62.386 L60.371,62.423 L60.336,62.423 Z M60.052,62.358 L60.297,62.358 C60.264,62.135 60.257,61.886 60.257,61.638 L60.257,58.243 C60.258,57.35 60.636,57.266 60.955,57.264 L61.033,57.264 L61.033,57.105 C60.74,57.107 60.446,57.135 60.149,57.135 C59.806,57.135 59.474,57.107 59.138,57.105 L59.138,57.264 L59.269,57.264 C59.499,57.266 59.951,57.366 59.951,57.998 L59.939,60.818 L59.926,60.832 L59.902,60.856 L56.584,57.105 C56.363,57.105 56.146,57.135 55.92,57.135 C55.643,57.135 55.365,57.107 55.092,57.105 L55.092,57.264 L55.161,57.264 C55.51,57.266 55.869,57.531 55.869,57.967 L55.869,61.107 C55.869,61.706 55.7,62.087 55.166,62.089 L55.092,62.088 L55.092,62.246 C55.416,62.244 55.748,62.217 56.075,62.217 C56.388,62.217 56.699,62.244 57.007,62.246 L57.007,62.089 L56.912,62.089 C56.325,62.088 56.179,61.833 56.176,61.182 L56.176,58.026 L60.052,62.358 Z M59.904,60.81 L59.926,60.788 L59.904,60.81 Z M59.885,60.794 L59.885,60.793 L59.879,60.787 L59.885,60.794 L59.885,60.794 Z" id="Fill-289" fill="#004A97"></path>
            <path d="M62.269,61.212 C62.191,61.465 62.102,61.66 62.102,61.794 C62.102,62.018 62.416,62.056 62.661,62.056 L62.744,62.056 L62.744,62.28 C62.445,62.263 62.14,62.25 61.84,62.25 C61.572,62.25 61.305,62.263 61.035,62.28 L61.035,62.056 L61.081,62.056 C61.371,62.056 61.616,61.884 61.728,61.57 L62.921,58.147 C63.02,57.871 63.154,57.498 63.2,57.221 C63.438,57.139 63.737,56.991 63.877,56.902 C63.901,56.895 63.914,56.886 63.936,56.886 C63.959,56.886 63.974,56.886 63.989,56.91 C64.012,56.968 64.034,57.036 64.057,57.095 L65.429,60.996 C65.519,61.258 65.607,61.532 65.704,61.758 C65.795,61.967 65.951,62.056 66.197,62.056 L66.241,62.056 L66.241,62.28 C65.906,62.263 65.571,62.25 65.214,62.25 C64.848,62.25 64.474,62.263 64.094,62.28 L64.094,62.056 L64.177,62.056 C64.346,62.056 64.639,62.026 64.639,61.84 C64.639,61.742 64.572,61.541 64.487,61.301 L64.199,60.436 L62.505,60.436 L62.269,61.212 Z M63.356,57.908 L63.34,57.908 L62.647,60.02 L64.04,60.02 L63.356,57.908 L63.356,57.908 Z" id="Fill-290" fill="#004A97"></path>
            <path d="M66.239,62.31 C65.904,62.298 65.569,62.281 65.214,62.281 C64.848,62.281 64.477,62.298 64.095,62.31 L64.061,62.313 L64.061,62.02 L64.176,62.02 C64.348,62.02 64.604,61.982 64.605,61.84 C64.606,61.755 64.54,61.55 64.458,61.313 L64.173,60.468 L62.527,60.468 L62.296,61.222 C62.221,61.477 62.132,61.674 62.132,61.795 C62.135,61.978 62.414,62.02 62.661,62.02 L62.776,62.02 L62.776,62.313 L62.742,62.31 C62.443,62.298 62.139,62.281 61.841,62.281 C61.575,62.281 61.305,62.298 61.038,62.31 L61.002,62.313 L61.002,62.02 L61.081,62.02 C61.358,62.02 61.59,61.863 61.697,61.56 L62.891,58.136 C62.99,57.86 63.122,57.488 63.189,57.191 C63.422,57.111 63.721,56.961 63.865,56.871 C63.888,56.863 63.907,56.853 63.936,56.853 C63.955,56.852 63.996,56.857 64.019,56.897 C64.04,56.958 64.064,57.025 64.086,57.085 L65.46,60.987 C65.548,61.247 65.638,61.524 65.735,61.743 C65.821,61.942 65.959,62.02 66.197,62.02 L66.274,62.02 L66.274,62.313 L66.239,62.31 Z M64.127,62.244 C64.495,62.232 64.857,62.217 65.214,62.217 C65.56,62.217 65.883,62.232 66.208,62.244 L66.208,62.088 L66.197,62.088 C65.942,62.09 65.767,61.99 65.674,61.77 C65.577,61.544 65.486,61.268 65.398,61.006 L64.025,57.105 C64.002,57.047 63.98,56.979 63.962,56.926 C63.955,56.919 63.959,56.919 63.952,56.919 L63.936,56.919 C63.921,56.919 63.913,56.923 63.894,56.928 C63.75,57.022 63.451,57.169 63.23,57.227 C63.184,57.509 63.048,57.881 62.952,58.158 L61.759,61.582 C61.646,61.906 61.385,62.089 61.081,62.088 L61.068,62.088 L61.068,62.244 C61.324,62.232 61.583,62.217 61.841,62.217 C62.13,62.217 62.425,62.232 62.709,62.244 L62.709,62.088 L62.661,62.088 C62.418,62.085 62.078,62.058 62.069,61.795 C62.07,61.646 62.162,61.456 62.235,61.203 L62.269,61.212 L62.235,61.202 L62.479,60.405 L64.22,60.405 L64.52,61.291 C64.602,61.531 64.67,61.729 64.67,61.84 C64.66,62.069 64.344,62.084 64.176,62.088 L64.127,62.088 L64.127,62.244 Z M62.601,60.051 L63.315,57.876 L63.356,57.876 L63.356,57.908 L63.348,57.91 L63.356,57.908 L63.356,57.876 L63.378,57.876 L64.086,60.051 L62.601,60.051 Z M62.69,59.986 L63.997,59.986 L63.348,57.988 L62.69,59.986 Z M63.324,57.918 L63.34,57.912 L63.324,57.918 L63.324,57.918 Z" id="Fill-291" fill="#004A97"></path>
            <path d="M66.57,57.446 C66.011,57.446 65.988,57.579 65.875,58.124 L65.651,58.124 C65.681,57.915 65.72,57.707 65.742,57.49 C65.771,57.28 65.786,57.072 65.786,56.857 L65.965,56.857 C66.024,57.081 66.213,57.072 66.413,57.072 L70.262,57.072 C70.463,57.072 70.649,57.066 70.665,56.842 L70.843,56.872 C70.814,57.072 70.784,57.275 70.762,57.475 C70.746,57.677 70.746,57.879 70.746,58.079 L70.522,58.163 C70.508,57.887 70.472,57.446 69.971,57.446 L68.749,57.446 L68.749,61.415 C68.749,61.989 69.01,62.056 69.367,62.056 L69.508,62.056 L69.508,62.28 C69.217,62.28 68.695,62.25 68.293,62.25 C67.847,62.25 67.323,62.28 67.032,62.28 L67.032,62.056 L67.173,62.056 C67.585,62.056 67.793,62.018 67.793,61.429 L67.793,57.446 L66.57,57.446" id="Fill-292" fill="#004A97"></path>
            <path d="M69.508,62.31 C69.215,62.31 68.693,62.281 68.293,62.281 C67.848,62.281 67.324,62.31 67.032,62.31 L66.999,62.31 L66.999,62.022 L67.173,62.022 C67.585,62.014 67.75,62.008 67.76,61.429 L67.759,57.478 L66.57,57.478 L66.57,57.412 L67.826,57.412 L67.826,61.429 C67.826,62.028 67.583,62.087 67.173,62.088 L67.063,62.088 L67.063,62.247 C67.358,62.244 67.859,62.217 68.293,62.217 C68.682,62.217 69.182,62.244 69.476,62.247 L69.476,62.088 L69.366,62.088 C69.007,62.087 68.717,62.001 68.715,61.415 L68.715,57.412 L69.971,57.412 C70.473,57.414 70.537,57.84 70.552,58.116 L70.714,58.057 C70.714,57.863 70.715,57.668 70.73,57.472 C70.75,57.28 70.778,57.09 70.806,56.9 L70.692,56.881 C70.659,57.097 70.448,57.108 70.262,57.105 L66.376,57.105 C66.2,57.107 66.009,57.098 65.941,56.888 L65.819,56.888 C65.818,57.095 65.804,57.296 65.773,57.494 C65.754,57.7 65.718,57.897 65.689,58.093 L65.849,58.093 C65.947,57.573 66.013,57.405 66.57,57.412 L66.57,57.478 C66.017,57.488 66.028,57.58 65.908,58.132 L65.902,58.158 L65.614,58.158 L65.619,58.121 C65.65,57.91 65.687,57.702 65.708,57.486 C65.739,57.278 65.754,57.071 65.754,56.857 L65.754,56.825 L65.99,56.825 L65.995,56.847 C66.049,57.036 66.185,57.037 66.376,57.04 C66.389,57.04 66.399,57.042 66.413,57.042 L70.262,57.042 C70.468,57.037 70.619,57.034 70.632,56.84 L70.633,56.804 L70.669,56.811 L70.881,56.844 L70.875,56.877 C70.843,57.077 70.816,57.278 70.793,57.478 C70.778,57.677 70.778,57.879 70.778,58.079 L70.778,58.102 L70.757,58.111 L70.493,58.206 L70.492,58.163 C70.473,57.884 70.442,57.478 69.971,57.478 L68.781,57.478 L68.781,61.415 C68.789,61.977 69.011,62.015 69.366,62.022 L69.542,62.022 L69.542,62.31 L69.508,62.31" id="Fill-293" fill="#004A97"></path>
            <path d="M71.119,62.056 L71.222,62.056 C71.492,62.056 71.773,62.018 71.773,61.629 L71.773,57.723 C71.773,57.334 71.492,57.297 71.222,57.297 L71.119,57.297 L71.119,57.072 C71.409,57.072 71.856,57.102 72.221,57.102 C72.596,57.102 73.043,57.072 73.394,57.072 L73.394,57.297 L73.291,57.297 C73.021,57.297 72.736,57.334 72.736,57.723 L72.736,61.629 C72.736,62.018 73.021,62.056 73.291,62.056 L73.394,62.056 L73.394,62.28 C73.035,62.28 72.588,62.25 72.215,62.25 C71.85,62.25 71.409,62.28 71.119,62.28 L71.119,62.056" id="Fill-294" fill="#004A97"></path>
            <path d="M73.394,62.31 C73.032,62.31 72.587,62.281 72.215,62.281 C71.85,62.281 71.41,62.31 71.119,62.31 L71.086,62.31 L71.086,62.022 L71.222,62.022 C71.492,62.018 71.741,61.995 71.741,61.629 L71.741,57.723 C71.741,57.359 71.492,57.334 71.222,57.329 L71.086,57.329 L71.086,57.042 L71.119,57.042 C71.41,57.042 71.858,57.069 72.221,57.069 C72.594,57.069 73.04,57.042 73.394,57.042 L73.425,57.042 L73.425,57.329 L73.291,57.329 C73.017,57.334 72.771,57.359 72.768,57.723 L72.768,61.629 C72.771,61.995 73.017,62.018 73.291,62.022 L73.425,62.022 L73.425,62.31 L73.394,62.31 Z M73.36,62.246 L73.36,62.088 L73.291,62.088 C73.023,62.088 72.705,62.043 72.705,61.629 L72.705,57.723 C72.705,57.31 73.023,57.264 73.291,57.264 L73.36,57.264 L73.36,57.105 C73.017,57.107 72.585,57.135 72.221,57.135 C71.868,57.135 71.44,57.107 71.151,57.105 L71.151,57.264 L71.222,57.264 C71.488,57.264 71.807,57.31 71.807,57.723 L71.807,61.629 C71.807,62.043 71.488,62.088 71.222,62.088 L71.151,62.088 L71.151,62.246 C71.439,62.242 71.86,62.217 72.215,62.217 C72.577,62.217 73.008,62.244 73.36,62.246 L73.36,62.246 Z" id="Fill-295" fill="#004A97"></path>
            <path d="M76.368,56.961 C77.958,56.961 79.226,57.947 79.226,59.535 C79.226,61.252 77.995,62.391 76.408,62.391 C74.826,62.391 73.616,61.318 73.616,59.714 C73.616,58.163 74.818,56.961 76.368,56.961 M76.482,62.063 C77.929,62.063 78.18,60.787 78.18,59.699 C78.18,58.609 77.594,57.29 76.354,57.29 C75.048,57.29 74.661,58.453 74.661,59.451 C74.661,60.787 75.272,62.063 76.482,62.063" id="Fill-296" fill="#004A97"></path>
            <path d="M73.584,59.714 C73.587,58.144 74.801,56.932 76.368,56.928 L76.368,56.994 C74.835,56.994 73.647,58.178 73.646,59.714 C73.649,61.3 74.84,62.357 76.406,62.358 C77.979,62.357 79.192,61.232 79.194,59.533 C79.193,57.965 77.946,56.995 76.368,56.994 L76.368,56.928 C77.97,56.931 79.253,57.926 79.257,59.533 C79.255,61.268 78.01,62.42 76.406,62.423 C74.811,62.42 73.587,61.335 73.584,59.714 M74.627,59.451 C74.63,58.447 75.021,57.257 76.354,57.257 C77.621,57.26 78.21,58.603 78.213,59.699 C78.21,60.787 77.956,62.093 76.482,62.093 L76.482,62.031 C77.899,62.029 78.146,60.787 78.148,59.699 C78.148,58.618 77.566,57.323 76.354,57.321 C75.074,57.323 74.696,58.458 74.693,59.451 C74.694,60.78 75.3,62.028 76.482,62.031 L76.482,62.093 C75.243,62.092 74.63,60.794 74.627,59.451" id="Fill-297" fill="#004A97"></path>
            <path d="M84.25,60.81 L84.267,60.794 L84.267,57.998 C84.267,57.386 83.841,57.297 83.616,57.297 L83.455,57.297 L83.455,57.072 C83.805,57.072 84.148,57.102 84.497,57.102 C84.804,57.102 85.109,57.072 85.416,57.072 L85.416,57.297 L85.304,57.297 C84.991,57.297 84.64,57.356 84.64,58.244 L84.64,61.638 C84.64,61.9 84.646,62.159 84.686,62.391 L84.402,62.391 L80.561,58.11 L80.561,61.182 C80.561,61.833 80.687,62.056 81.261,62.056 L81.388,62.056 L81.388,62.28 C81.066,62.28 80.747,62.25 80.426,62.25 C80.09,62.25 79.746,62.28 79.41,62.28 L79.41,62.056 L79.516,62.056 C80.032,62.056 80.188,61.705 80.188,61.109 L80.188,57.967 C80.188,57.551 79.844,57.297 79.509,57.297 L79.41,57.297 L79.41,57.072 C79.693,57.072 79.985,57.102 80.268,57.102 C80.492,57.102 80.708,57.072 80.932,57.072 L84.25,60.81" id="Fill-298" fill="#004A97"></path>
            <path d="M84.686,62.423 L84.376,62.412 L80.59,58.193 L80.59,61.182 C80.6,61.833 80.7,62.015 81.26,62.02 L81.421,62.02 L81.421,62.31 L81.388,62.31 C81.064,62.31 80.745,62.281 80.425,62.281 C80.092,62.281 79.748,62.31 79.41,62.31 L79.378,62.31 L79.378,62.02 L79.516,62.02 C80.007,62.019 80.149,61.703 80.155,61.109 L80.155,57.967 C80.154,57.571 79.829,57.329 79.509,57.329 L79.378,57.329 L79.378,57.042 L79.41,57.042 C79.697,57.042 79.987,57.069 80.268,57.069 C80.489,57.069 80.704,57.042 80.958,57.052 L84.234,60.742 L84.234,57.999 C84.232,57.405 83.835,57.334 83.616,57.329 L83.421,57.329 L83.421,57.042 L83.454,57.042 C83.805,57.042 84.149,57.069 84.496,57.069 C84.802,57.069 85.106,57.042 85.416,57.042 L85.448,57.042 L85.448,57.329 L85.304,57.329 C84.997,57.338 84.679,57.365 84.673,58.243 L84.673,61.638 C84.673,61.899 84.679,62.158 84.715,62.386 L84.721,62.423 L84.686,62.423 Z M84.402,62.358 L84.646,62.358 C84.614,62.134 84.607,61.886 84.607,61.638 L84.607,58.243 C84.607,57.347 84.984,57.266 85.304,57.264 L85.384,57.264 L85.384,57.105 C85.089,57.107 84.795,57.135 84.496,57.135 C84.156,57.135 83.824,57.107 83.487,57.105 L83.487,57.264 L83.616,57.264 C83.848,57.266 84.298,57.367 84.298,57.999 L84.291,60.818 L84.276,60.832 L84.25,60.856 L80.932,57.105 C80.712,57.105 80.494,57.135 80.268,57.135 C79.994,57.135 79.713,57.107 79.441,57.105 L79.441,57.264 L79.509,57.264 C79.858,57.266 80.219,57.531 80.219,57.967 L80.219,61.109 C80.219,61.705 80.052,62.087 79.516,62.089 L79.441,62.088 L79.441,62.246 C79.767,62.244 80.099,62.217 80.425,62.217 C80.738,62.217 81.046,62.244 81.355,62.246 L81.355,62.089 L81.26,62.089 C80.674,62.088 80.527,61.833 80.527,61.182 L80.527,58.025 L84.402,62.358 Z M84.25,60.81 L84.276,60.788 L84.25,60.81 Z M84.234,60.794 L84.234,60.793 L84.229,60.787 L84.234,60.794 L84.234,60.794 Z" id="Fill-299" fill="#004A97"></path>
            <path d="M86.615,61.212 C86.541,61.465 86.451,61.66 86.451,61.794 C86.451,62.018 86.765,62.056 87.011,62.056 L87.093,62.056 L87.093,62.28 C86.793,62.263 86.488,62.25 86.19,62.25 C85.921,62.25 85.652,62.263 85.386,62.28 L85.386,62.056 L85.427,62.056 C85.72,62.056 85.968,61.884 86.077,61.57 L87.271,58.147 C87.369,57.871 87.503,57.498 87.546,57.221 C87.787,57.139 88.083,56.991 88.227,56.902 C88.249,56.895 88.264,56.886 88.287,56.886 C88.308,56.886 88.323,56.886 88.338,56.91 C88.36,56.968 88.384,57.036 88.406,57.095 L89.776,60.996 C89.867,61.258 89.957,61.532 90.055,61.758 C90.143,61.967 90.3,62.056 90.546,62.056 L90.591,62.056 L90.591,62.28 C90.256,62.263 89.92,62.25 89.561,62.25 C89.195,62.25 88.822,62.263 88.442,62.28 L88.442,62.056 L88.525,62.056 C88.696,62.056 88.989,62.026 88.989,61.84 C88.989,61.742 88.921,61.541 88.836,61.301 L88.547,60.436 L86.854,60.436 L86.615,61.212 Z M87.704,57.908 L87.689,57.908 L86.994,60.02 L88.391,60.02 L87.704,57.908 L87.704,57.908 Z" id="Fill-300" fill="#004A97"></path>
            <path d="M90.589,62.31 C90.253,62.298 89.917,62.281 89.561,62.281 C89.198,62.281 88.825,62.298 88.443,62.31 L88.411,62.313 L88.411,62.022 L88.525,62.022 C88.699,62.022 88.955,61.982 88.955,61.84 C88.956,61.755 88.889,61.551 88.806,61.313 L88.522,60.468 L86.876,60.468 L86.646,61.222 C86.571,61.477 86.482,61.674 86.484,61.794 C86.484,61.978 86.762,62.022 87.01,62.022 L87.124,62.022 L87.124,62.313 L87.09,62.31 C86.792,62.298 86.487,62.281 86.19,62.281 C85.922,62.281 85.655,62.298 85.386,62.31 L85.354,62.313 L85.354,62.022 L85.427,62.022 C85.707,62.02 85.938,61.862 86.048,61.56 L87.242,58.136 C87.337,57.86 87.472,57.488 87.536,57.191 C87.772,57.11 88.071,56.961 88.216,56.871 C88.236,56.863 88.256,56.854 88.285,56.854 C88.306,56.852 88.345,56.857 88.368,56.9 C88.39,56.956 88.412,57.025 88.436,57.085 L89.809,60.987 C89.897,61.247 89.987,61.524 90.084,61.744 C90.172,61.942 90.306,62.02 90.545,62.022 L90.624,62.022 L90.624,62.313 L90.589,62.31 Z M88.474,62.246 C88.844,62.232 89.206,62.217 89.561,62.217 C89.908,62.217 90.232,62.232 90.558,62.244 L90.557,62.088 L90.545,62.088 C90.292,62.089 90.117,61.99 90.024,61.77 C89.925,61.544 89.837,61.268 89.748,61.007 L88.375,57.105 C88.354,57.047 88.329,56.979 88.313,56.927 C88.305,56.919 88.306,56.919 88.301,56.919 L88.285,56.919 C88.27,56.919 88.262,56.923 88.244,56.928 C88.099,57.021 87.8,57.17 87.579,57.227 C87.533,57.509 87.398,57.881 87.302,58.158 L86.108,61.582 C85.994,61.906 85.733,62.089 85.427,62.088 L85.417,62.088 L85.417,62.244 C85.675,62.232 85.931,62.217 86.19,62.217 C86.478,62.217 86.774,62.232 87.059,62.244 L87.059,62.088 L87.01,62.088 C86.768,62.085 86.428,62.059 86.417,61.794 C86.42,61.646 86.511,61.457 86.584,61.203 L86.615,61.212 L86.584,61.202 L86.83,60.405 L88.57,60.405 L88.868,61.291 C88.951,61.531 89.018,61.729 89.018,61.84 C89.006,62.069 88.694,62.084 88.525,62.088 L88.474,62.088 L88.474,62.246 Z M86.95,60.051 L87.667,57.876 L87.704,57.876 L87.704,57.908 L87.696,57.91 L87.704,57.908 L87.704,57.876 L87.729,57.876 L88.433,60.051 L86.95,60.051 Z M87.041,59.986 L88.346,59.986 L87.695,57.989 L87.041,59.986 Z M87.674,57.918 L87.688,57.912 L87.674,57.918 L87.674,57.918 Z" id="Fill-301" fill="#004A97"></path>
            <path d="M92.471,61.549 C92.471,61.848 92.678,61.936 92.917,61.967 C93.223,61.989 93.558,61.989 93.902,61.95 C94.216,61.913 94.483,61.735 94.618,61.549 C94.737,61.384 94.804,61.176 94.849,61.011 L95.064,61.011 C94.984,61.436 94.878,61.855 94.788,62.28 C94.134,62.28 93.477,62.25 92.82,62.25 C92.163,62.25 91.507,62.28 90.852,62.28 L90.852,62.056 L90.954,62.056 C91.223,62.056 91.515,62.018 91.515,61.556 L91.515,57.723 C91.515,57.334 91.223,57.297 90.954,57.297 L90.852,57.297 L90.852,57.072 C91.246,57.072 91.634,57.102 92.029,57.102 C92.411,57.102 92.783,57.072 93.163,57.072 L93.163,57.297 L92.977,57.297 C92.693,57.297 92.471,57.304 92.471,57.7 L92.471,61.549" id="Fill-302" fill="#004A97"></path>
            <path d="M94.788,62.31 C94.13,62.31 93.476,62.281 92.82,62.281 C92.165,62.281 91.507,62.31 90.85,62.31 L90.818,62.31 L90.818,62.022 L90.954,62.022 C91.224,62.016 91.479,61.998 91.483,61.556 L91.483,57.722 C91.479,57.359 91.225,57.334 90.954,57.329 L90.818,57.329 L90.818,57.042 L90.85,57.042 C91.246,57.042 91.636,57.069 92.029,57.069 C92.409,57.069 92.781,57.042 93.163,57.042 L93.194,57.042 L93.194,57.329 L92.977,57.329 C92.688,57.337 92.507,57.323 92.5,57.7 L92.5,61.549 C92.503,61.826 92.686,61.902 92.919,61.933 C93.051,61.942 93.188,61.948 93.332,61.948 C93.516,61.948 93.705,61.94 93.897,61.92 C94.2,61.884 94.462,61.708 94.592,61.529 C94.706,61.371 94.771,61.166 94.816,61.004 L94.823,60.979 L95.104,60.979 L95.098,61.018 C95.013,61.445 94.912,61.861 94.82,62.286 L94.814,62.31 L94.788,62.31 Z M94.762,62.246 C94.848,61.842 94.946,61.446 95.026,61.044 L94.873,61.044 C94.826,61.205 94.76,61.406 94.643,61.569 C94.505,61.761 94.229,61.943 93.903,61.983 C93.708,62.003 93.517,62.015 93.332,62.015 C93.188,62.015 93.048,62.008 92.914,61.998 C92.669,61.971 92.435,61.867 92.436,61.549 L92.436,57.7 C92.436,57.284 92.699,57.264 92.977,57.264 L93.129,57.264 L93.129,57.105 C92.764,57.107 92.401,57.135 92.029,57.135 C91.643,57.135 91.266,57.107 90.883,57.105 L90.883,57.264 L90.954,57.264 C91.22,57.264 91.547,57.31 91.547,57.722 L91.547,61.556 C91.547,62.038 91.223,62.088 90.954,62.088 L90.883,62.088 L90.883,62.246 C91.527,62.246 92.172,62.217 92.82,62.217 C93.47,62.217 94.116,62.246 94.762,62.246 L94.762,62.246 Z" id="Fill-303" fill="#004A97"></path>
        </g>
    </g>
</svg>