<?xml version="1.0" standalone="no"?>
<!DOCTYPE svg PUBLIC "-//W3C//DTD SVG 1.1//EN" "http://www.w3.org/Graphics/SVG/1.1/DTD/svg11.dtd" >
<svg xmlns="http://www.w3.org/2000/svg" xmlns:xlink="http://www.w3.org/1999/xlink" version="1.1">
<metadata>
Created by FontForge 20150824 at Wed Oct  5 05:18:06 2016
 By Everything Fonts
Copyright (c) 1988, 1990, 1993 Adobe Systems Incorporated.  All Rights Reserved.Helvetica is a trademark of Linotype-Hell AG and/or its subsidiaries.
</metadata>
<defs>
<font id="HelveticaNeueBlack" horiz-adv-x="668" >
  <font-face 
    font-family="HelveticaNeueBlack"
    font-weight="900"
    font-stretch="normal"
    units-per-em="1000"
    panose-1="2 11 10 0 0 0 0 0 0 0"
    ascent="768"
    descent="-232"
    x-height="519"
    cap-height="714"
    bbox="-165 -232 1101 953"
    underline-thickness="50"
    underline-position="-150"
    unicode-range="U+0020-FB02"
  />
<missing-glyph horiz-adv-x="334" 
 />
    <glyph glyph-name=".notdef" horiz-adv-x="334" 
 />
    <glyph glyph-name=".null" horiz-adv-x="0" 
 />
    <glyph glyph-name="nonmarkingreturn" horiz-adv-x="333" 
 />
    <glyph glyph-name="space" unicode=" " horiz-adv-x="334" 
 />
    <glyph glyph-name="space" unicode="&#xa0;" horiz-adv-x="334" 
 />
    <glyph glyph-name="exclam" unicode="!" horiz-adv-x="315" 
d="M53 0v198h208v-198h-208zM261 714v-168l-55 -289h-97l-56 289v168h208z" />
    <glyph glyph-name="quotedbl" unicode="&#x22;" horiz-adv-x="519" 
d="M290 335v379h153v-379h-153zM77 335v379h153v-379h-153z" />
    <glyph glyph-name="numbersign" unicode="#" 
d="M380 398h-71l-13 -96h71zM121 0l26 185h-86l16 117h86l13 96h-85l16 117h85l25 181h133l-25 -181h71l25 181h133l-25 -181h78l-16 -117h-78l-13 -96h77l-16 -117h-77l-26 -185h-133l26 185h-71l-26 -185h-133z" />
    <glyph glyph-name="dollar" unicode="$" 
d="M311 473v100q-71 0 -71 -46q0 -40 71 -54zM363 268v-127q83 7 83 61q0 24 -19.5 38t-63.5 28zM311 -116v99q-147 0 -220 73t-77 182h214q0 -17 3 -29.5t10.5 -29t25 -26.5t44.5 -12v141q-6 2 -37 10.5t-49 14.5q-46 16 -75.5 30t-56 35.5t-39 52t-12.5 72.5q0 59 24 105
t63.5 73.5t86 41.5t95.5 14v80h52v-80q114 -1 189 -59t75 -174h-191q-4 38 -19 52.5t-54 22.5v-112q95 -21 154.5 -46t88.5 -57.5t38.5 -64.5t9.5 -79q0 -43 -16 -82.5t-49 -73.5t-91.5 -54.5t-134.5 -20.5v-99h-52z" />
    <glyph glyph-name="percent" unicode="%" horiz-adv-x="1019" 
d="M245 -26l410 748h110l-410 -748h-110zM67 514q1 88 44 139t132 51t132 -51t44 -139q-1 -88 -44 -139t-132 -51t-132 51t-44 139zM197 514q0 -24 1 -36.5t4.5 -31t14 -27t26.5 -8.5t26.5 8.5t14 27t4.5 31t1 36.5t-1 36.5t-4.5 31t-14 27t-26.5 8.5t-26.5 -8.5t-14 -27
t-4.5 -31t-1 -36.5zM601 182q1 88 44 139t132 51t132 -51t44 -139q-1 -88 -44 -139t-132 -51t-132 51t-44 139zM731 182q0 -24 1 -36.5t4.5 -31t14 -27t26.5 -8.5t26.5 8.5t14 27t4.5 31t1 36.5t-1 36.5t-4.5 31t-14 27t-26.5 8.5t-26.5 -8.5t-14 -27t-4.5 -31t-1 -36.5z
" />
    <glyph glyph-name="ampersand" unicode="&#x26;" horiz-adv-x="741" 
d="M309 549q0 -22 44 -73q23 11 40 31t17 43q0 20 -13.5 34t-34.5 14q-20 0 -36.5 -13.5t-16.5 -35.5zM378 184l-83 101q-69 -36 -69 -77q0 -28 21 -47.5t47 -19.5q37 0 84 43zM523 0l-40 50q-85 -67 -204 -67q-104 0 -173.5 64.5t-69.5 167.5q0 119 159 201q-56 61 -56 130
q0 82 64 133.5t148 51.5q104 0 166.5 -46.5t62.5 -138.5q0 -57 -37.5 -105.5t-93.5 -78.5l55 -68q22 28 26 54h165q-17 -103 -84 -173l146 -175h-234z" />
    <glyph glyph-name="quotesingle" unicode="'" horiz-adv-x="296" 
d="M72 335v379h153v-379h-153z" />
    <glyph glyph-name="parenleft" unicode="(" horiz-adv-x="315" 
d="M150 731h171q-89 -219 -89 -453q0 -221 89 -446h-171q-108 222 -108 446q0 240 108 453z" />
    <glyph glyph-name="parenright" unicode=")" horiz-adv-x="315" 
d="M167 -168h-173q89 202 89 446q0 123 -21 227t-68 226h173q106 -211 106 -453q0 -123 -25 -224t-81 -222z" />
    <glyph glyph-name="asterisk" unicode="*" horiz-adv-x="463" 
d="M288 714v-132l121 43l38 -105l-128 -41l80 -105l-90 -71l-79 114l-80 -114l-90 71l85 105l-128 41l36 105l125 -43v132h110z" />
    <glyph glyph-name="plus" unicode="+" horiz-adv-x="600" 
d="M48 176v153h176v176h153v-176h176v-153h-176v-176h-153v176h-176z" />
    <glyph glyph-name="comma" unicode="," horiz-adv-x="334" 
d="M63 0v198h208v-157q0 -76 -29.5 -132.5t-92.5 -77.5q-36 -12 -86 -12v87q36 3 61.5 30t27.5 64h-89z" />
    <glyph glyph-name="hyphen" unicode="-" horiz-adv-x="407" 
d="M47 185v164h313v-164h-313z" />
    <glyph glyph-name="hyphen" unicode="&#xad;" horiz-adv-x="407" 
d="M47 185v164h313v-164h-313z" />
    <glyph glyph-name="period" unicode="." horiz-adv-x="334" 
d="M63 0v198h208v-198h-208z" />
    <glyph glyph-name="slash" unicode="/" horiz-adv-x="426" 
d="M-1 -17l280 748h152l-280 -748h-152z" />
    <glyph glyph-name="zero" unicode="0" 
d="M228 348q0 -23 1 -40.5t4 -44t10 -45t18 -36.5t29.5 -27.5t42.5 -9.5q36 0 59.5 20t32.5 55.5t12 63t3 64.5q0 203 -105 203q-36 0 -59.5 -19.5t-33 -55.5t-12 -63t-2.5 -65zM38 348q0 96 28 168.5t73.5 111.5t94 57.5t99.5 18.5q40 0 79.5 -11t79.5 -37.5t70 -66
t49 -102t19 -139.5q0 -96 -28 -168.5t-73.5 -111.5t-94.5 -57.5t-100 -18.5t-100 18.5t-94.5 57.5t-73.5 111.5t-28 168.5z" />
    <glyph glyph-name="one" unicode="1" 
d="M279 0v401h-163v144q85 -2 144 34.5t63 116.5h164v-696h-208z" />
    <glyph glyph-name="two" unicode="2" 
d="M237 403h-188q-8 141 72.5 221t222.5 80q131 0 207.5 -55.5t76.5 -163.5q0 -43 -14.5 -80t-34.5 -62.5t-55 -52t-62.5 -42t-71.5 -39.5t-67 -38v-1h315v-170h-603q-6 95 50 172q14 20 33.5 39.5t35 32.5t45 33t41.5 27.5t48.5 29.5t43.5 26q3 2 16 9.5t18.5 11.5t17 12
t17 14t12.5 15t10 18.5t3 20.5q0 85 -84 85q-108 0 -105 -143z" />
    <glyph glyph-name="three" unicode="3" 
d="M242 464h-188q1 117 87 182q79 58 203 58q71 0 126.5 -19.5t84.5 -48.5t43.5 -57.5t14.5 -53.5q0 -41 -9.5 -71t-23 -44t-27 -22t-23.5 -10l-9 -2v-2q0 -1 11.5 -4.5t28.5 -12t34 -24t28.5 -47.5t11.5 -75q0 -35 -14.5 -70.5t-45.5 -70.5t-91 -56.5t-141 -21.5
q-88 0 -152 24t-94 56t-46 74.5t-17.5 68.5t0.5 49h190q-2 -56 27 -83q26 -31 83 -31q93 0 93 78q0 72 -93 72q-20 0 -58 -5v136q5 0 15 -1.5t20.5 -2t22.5 -0.5q95 0 95 63q0 30 -27.5 45.5t-63.5 15.5q-43 0 -70 -22.5t-26 -64.5z" />
    <glyph glyph-name="four" unicode="4" 
d="M339 503l-170 -195h170v195zM339 0v138h-309v188l318 370h199v-388h94v-170h-94v-138h-208z" />
    <glyph glyph-name="five" unicode="5" 
d="M589 696v-170h-324l-20 -92l2 -2q55 41 152 41q99 0 163 -59.5t64 -176.5q0 -109 -82.5 -177t-229.5 -68q-73 0 -129.5 17t-88.5 42.5t-51.5 58t-25 59.5t-3.5 50h197q6 -29 28 -46q29 -23 79 -23q44 0 75 26t31 67q0 45 -27 71t-73 26q-71 0 -101 -45h-186l72 401h478z
" />
    <glyph glyph-name="six" unicode="6" 
d="M340 338q-40 0 -67.5 -26.5t-27.5 -65.5q0 -41 27 -68.5t68 -27.5q44 0 73 28t29 68q0 38 -28.5 65t-73.5 27zM619 510h-183q-7 22 -29 38q-19 12 -54 12q-53 0 -84 -42.5t-37 -100.5q59 54 161 54t167.5 -60.5t65.5 -161.5q0 -124 -78.5 -190.5t-207.5 -66.5
q-76 0 -135 27.5t-93.5 74.5t-51.5 105t-17 124q0 172 80 276.5t234 104.5q231 0 262 -194z" />
    <glyph glyph-name="seven" unicode="7" 
d="M601 696v-162q-214 -198 -210 -534h-221q-1 0 0.5 24t9.5 67.5t22 94.5t43 114t67 117q18 27 34 48.5t25 32.5t15.5 18t8.5 8l2 2h-333v170h537z" />
    <glyph glyph-name="eight" unicode="8" 
d="M222 213q0 -41 33 -59t78 -18t78.5 18t33.5 59q0 90 -110 90q-113 0 -113 -90zM55 513q0 54 26.5 93.5t70 59.5t88.5 29t93 9q136 0 209 -55t73 -136q0 -54 -30 -94.5t-79 -51.5v-2q59 -6 98 -48t39 -105q0 -59 -28 -103.5t-74.5 -69t-99 -36t-108.5 -11.5q-60 0 -112 11
t-98 35t-72.5 68.5t-26.5 105.5q0 128 139 153v2q-108 29 -108 146zM233 493q0 -38 29 -55.5t70 -17.5q44 0 74.5 16.5t30.5 56.5q0 78 -104 78q-100 0 -100 -78z" />
    <glyph glyph-name="nine" unicode="9" 
d="M327 546q-41 0 -71.5 -28t-30.5 -68t30 -67t70 -27q42 0 71 26t29 67t-28.5 69t-69.5 28zM48 183h183q6 -24 31 -37q20 -10 48 -10q98 0 125 140l-2 2q-64 -55 -156 -55q-105 0 -170.5 58t-65.5 163q0 122 84 191t209 69q74 0 131.5 -27t92 -73.5t52 -105t17.5 -125.5
q0 -172 -81 -276.5t-236 -104.5q-104 0 -175 47t-87 144z" />
    <glyph glyph-name="colon" unicode=":" horiz-adv-x="334" 
d="M63 321v198h208v-198h-208zM63 0v198h208v-198h-208z" />
    <glyph glyph-name="semicolon" unicode=";" horiz-adv-x="334" 
d="M63 0v198h208v-157q0 -76 -29.5 -132.5t-92.5 -77.5q-36 -12 -86 -12v87q37 3 62 30.5t27 63.5h-89zM271 519v-198h-208v198h208z" />
    <glyph glyph-name="less" unicode="&#x3c;" horiz-adv-x="600" 
d="M553 513v-161l-272 -99l272 -100v-161l-505 197v126z" />
    <glyph glyph-name="equal" unicode="=" horiz-adv-x="600" 
d="M553 450v-153h-505v153h505zM553 209v-153h-505v153h505z" />
    <glyph glyph-name="greater" unicode="&#x3e;" horiz-adv-x="600" 
d="M48 -8v161l272 99l-272 100v161l505 -197v-126z" />
    <glyph glyph-name="question" unicode="?" horiz-adv-x="574" 
d="M224 476h-209q3 49 19.5 93t48 81t86 59t124.5 22q69 0 122 -19t82.5 -51t44.5 -66t17 -70q0 -26 -3.5 -46.5t-12.5 -37t-16 -27t-23.5 -22t-24 -16.5t-29 -16t-27.5 -14q-33 -19 -44.5 -37t-11.5 -53h-185q-7 133 70 176q6 3 26.5 12.5t32.5 16t23 20t11 29.5
q0 51 -58 51q-34 0 -50 -24.5t-13 -60.5zM170 0v198h208v-198h-208z" />
    <glyph glyph-name="at" unicode="@" horiz-adv-x="800" 
d="M320 334q0 -30 18.5 -52.5t47.5 -22.5q40 0 67.5 30t27.5 68q0 33 -20.5 54.5t-51.5 21.5q-36 0 -62.5 -30t-26.5 -69zM622 537l-47 -239q-4 -16 -4 -32q0 -24 14 -24q32 0 59.5 41t27.5 119q0 113 -71 169.5t-187 56.5q-123 0 -205 -77.5t-82 -194.5q0 -122 82.5 -196
t200.5 -74q127 0 204 57h114q-107 -160 -318 -160q-165 0 -275.5 105.5t-110.5 267.5q0 175 111 275t282 100q164 0 261 -84t97 -214q0 -66 -21.5 -120t-52.5 -85.5t-68.5 -53t-67.5 -29.5t-52 -8q-54 0 -57 50h-2q-31 -50 -101 -50q-75 0 -120.5 52t-45.5 129
q0 100 59.5 168.5t148.5 68.5q80 0 122 -59l10 41h95z" />
    <glyph glyph-name="A" unicode="A" horiz-adv-x="722" 
d="M293 255h135l-64 220h-2zM-8 0l263 714h215l260 -714h-228l-30 102h-227l-32 -102h-221z" />
    <glyph glyph-name="B" unicode="B" horiz-adv-x="741" 
d="M277 303v-133h129q86 0 86 68q0 65 -77 65h-138zM57 0v714h391q67 0 114.5 -17t70.5 -45.5t33 -57t10 -59.5q0 -92 -88 -140q124 -43 124 -178q0 -102 -74 -159.5t-176 -57.5h-405zM277 544v-108h116q37 0 56 13t19 46q0 49 -75 49h-116z" />
    <glyph glyph-name="C" unicode="C" horiz-adv-x="759" 
d="M721 448h-214q-2 14 -7.5 28t-17 33.5t-35 31.5t-55.5 12q-71 0 -103.5 -56.5t-32.5 -139.5t32.5 -139.5t103.5 -56.5q93 0 116 119h216q0 -117 -89 -207t-237 -90q-169 0 -265.5 105.5t-96.5 268.5q0 169 98.5 271.5t263.5 102.5q145 -1 227 -74t96 -209z" />
    <glyph glyph-name="D" unicode="D" horiz-adv-x="778" 
d="M57 0v714h361q86 0 150 -30t100.5 -81.5t54 -112.5t17.5 -132q0 -169 -91.5 -263.5t-273.5 -94.5h-318zM277 531v-348h86q48 0 81.5 17.5t48.5 47t21 56.5t6 57q0 18 -2.5 35.5t-13 43.5t-28 44.5t-51 32.5t-78.5 14h-70z" />
    <glyph glyph-name="E" unicode="E" horiz-adv-x="704" 
d="M57 0v714h591v-183h-371v-89h337v-170h-337v-89h382v-183h-602z" />
    <glyph glyph-name="F" unicode="F" horiz-adv-x="630" 
d="M57 0v714h552v-183h-332v-89h285v-170h-285v-272h-220z" />
    <glyph glyph-name="G" unicode="G" horiz-adv-x="778" 
d="M587 0l-7 73q-70 -90 -203 -90q-154 0 -247.5 105t-93.5 262q0 79 21 144t56 108t81.5 73t95 43t98.5 13q135 0 220 -70t109 -197h-211q-6 39 -35.5 64t-68.5 25q-31 0 -55.5 -9.5t-39.5 -22t-25.5 -35.5t-15.5 -37.5t-7.5 -41.5t-2.5 -34.5v-27.5q0 -29 7 -57.5t23 -59
t50 -49t81 -18.5q41 0 73.5 20.5t40.5 58.5h-97v153h292v-393h-139z" />
    <glyph glyph-name="H" unicode="H" horiz-adv-x="759" 
d="M57 0v714h220v-248h206v248h220v-714h-220v283h-206v-283h-220z" />
    <glyph glyph-name="I" unicode="I" horiz-adv-x="333" 
d="M57 0v714h220v-714h-220z" />
    <glyph glyph-name="J" unicode="J" horiz-adv-x="611" 
d="M555 714v-457q0 -145 -65.5 -209.5t-202.5 -64.5q-132 0 -197 68t-65 189v60h198v-41q0 -22 0.5 -33t3.5 -27.5t9 -24.5t17.5 -14.5t28.5 -6.5q19 0 31 9t16 27t5 29t1 30v6v460h220z" />
    <glyph glyph-name="K" unicode="K" horiz-adv-x="778" 
d="M63 0v714h220v-246h2l196 246h271l-259 -279l301 -435h-274l-176 278l-61 -67v-211h-220z" />
    <glyph glyph-name="L" unicode="L" horiz-adv-x="630" 
d="M57 0v714h220v-531h316v-183h-536z" />
    <glyph glyph-name="M" unicode="M" horiz-adv-x="944" 
d="M56 0v714h313l102 -420h2l102 420h313v-714h-208v458h-2l-124 -458h-164l-124 458h-2v-458h-208z" />
    <glyph glyph-name="N" unicode="N" horiz-adv-x="759" 
d="M58 0v714h225l208 -382h2v382h208v-714h-214l-219 390h-2v-390h-208z" />
    <glyph glyph-name="O" unicode="O" horiz-adv-x="796" 
d="M36 357q0 165 100 269.5t262 104.5t262 -104.5t100 -269.5t-100 -269.5t-262 -104.5t-262 104.5t-100 269.5zM256 357q0 -56 14 -97t36.5 -61t45 -29t46.5 -9t46.5 9t45 29t36.5 61t14 97t-14 97t-36.5 61t-45 29t-46.5 9t-46.5 -9t-45 -29t-36.5 -61t-14 -97z" />
    <glyph glyph-name="P" unicode="P" horiz-adv-x="704" 
d="M57 0v714h368q69 0 122 -23.5t82 -61t43.5 -78t14.5 -81.5q0 -125 -76 -189.5t-204 -64.5h-130v-216h-220zM277 531v-145h85q26 0 43 2t36 9t28.5 23t9.5 42q0 31 -16.5 47t-35.5 19t-52 3h-98z" />
    <glyph glyph-name="Q" unicode="Q" horiz-adv-x="796" 
d="M367 227l99 96l60 -61q14 39 14 95t-14 97t-36.5 61t-45 29t-46.5 9t-46.5 -9t-45 -29t-36.5 -61t-14 -97t14 -97t36.5 -61t45 -29t46.5 -9q14 0 29 4zM762 20l-99 -98l-96 99q-61 -38 -169 -38q-162 0 -262 104.5t-100 269.5t100 269.5t262 104.5t262 -104.5t100 -269.5
q0 -148 -83 -250z" />
    <glyph glyph-name="R" unicode="R" horiz-adv-x="741" 
d="M57 0v714h419q99 0 166 -53.5t67 -150.5q0 -60 -27.5 -110t-79.5 -69q45 -17 72 -64t33 -114q0 -4 2 -32.5t3.5 -46t6.5 -40.5t12 -34h-220q-12 40 -18 110q-2 28 -4 41.5t-8.5 36t-16 33t-27.5 19.5t-43 9h-117v-249h-220zM277 544v-142h115q97 0 97 71q0 36 -24.5 53.5
t-84.5 17.5h-103z" />
    <glyph glyph-name="S" unicode="S" horiz-adv-x="667" 
d="M12 240h220q0 -26 8 -47q19 -52 105 -52q35 0 63 15t28 50q0 26 -27.5 40t-126.5 42q-113 32 -154 56q-88 51 -88 151q0 116 83.5 176t204.5 60q61 0 111.5 -12.5t93 -38.5t67 -72.5t26.5 -109.5h-208q5 36 -26 57q-25 18 -65 18q-30 0 -54.5 -10.5t-24.5 -37.5
q1 -15 12 -26t34.5 -20t44 -14.5t58 -14.5t58.5 -15q43 -12 75 -26t62.5 -37.5t47 -59.5t16.5 -83q0 -67 -28.5 -116.5t-77.5 -76.5t-105 -40t-119 -13q-30 0 -64 4.5t-80.5 20.5t-82 42.5t-61 75.5t-26.5 114z" />
    <glyph glyph-name="T" unicode="T" 
d="M224 0v531h-200v183h620v-183h-200v-531h-220z" />
    <glyph glyph-name="U" unicode="U" horiz-adv-x="759" 
d="M705 714v-438q0 -148 -80.5 -220.5t-244.5 -72.5q-326 0 -326 293v438h220v-389q0 -30 0.5 -46t6 -42t16.5 -40t32 -25t52 -11q30 0 50.5 11t31 25t16 40t6 42t0.5 46v389h220z" />
    <glyph glyph-name="V" unicode="V" horiz-adv-x="648" 
d="M665 714l-223 -714h-246l-213 714h222l117 -433h2l115 433h226z" />
    <glyph glyph-name="W" unicode="W" horiz-adv-x="963" 
d="M970 714l-200 -714h-214l-77 435h-2l-75 -435h-215l-194 714h216l87 -441h2l86 441h194l84 -447h2l89 447h217z" />
    <glyph glyph-name="X" unicode="X" horiz-adv-x="741" 
d="M-12 0l258 380l-235 334h258l108 -194l106 194h244l-229 -336l255 -378h-265l-122 213l-126 -213h-252z" />
    <glyph glyph-name="Y" unicode="Y" horiz-adv-x="667" 
d="M221 0v263l-251 451h243l119 -263l124 263h241l-256 -451v-263h-220z" />
    <glyph glyph-name="Z" unicode="Z" horiz-adv-x="685" 
d="M24 0v172l332 359h-313v183h603v-160l-335 -371h351v-183h-638z" />
    <glyph glyph-name="bracketleft" unicode="[" horiz-adv-x="407" 
d="M38 -168v899h332v-153h-154v-593h154v-153h-332z" />
    <glyph glyph-name="backslash" unicode="\" horiz-adv-x="426" 
d="M147 731l280 -748h-152l-280 748h152z" />
    <glyph glyph-name="bracketright" unicode="]" horiz-adv-x="407" 
d="M370 731v-899h-332v153h154v593h-154v153h332z" />
    <glyph glyph-name="asciicircum" unicode="^" horiz-adv-x="600" 
d="M65 331l174 365h122l174 -365h-153l-82 189l-82 -189h-153z" />
    <glyph glyph-name="underscore" unicode="_" horiz-adv-x="500" 
d="M0 -125v50h500v-50h-500z" />
    <glyph glyph-name="grave" unicode="`" horiz-adv-x="278" 
d="M105 569l-171 149h208l100 -149h-137z" />
    <glyph glyph-name="a" unicode="a" horiz-adv-x="611" 
d="M370 185v48q-28 -14 -78 -25q-36 -8 -51.5 -19.5t-15.5 -36.5q0 -19 18 -33.5t44 -14.5q35 0 58 21t25 60zM560 329v-213q0 -80 24 -116h-202q-9 24 -7 49h-2q-54 -62 -167 -62q-80 0 -131.5 39.5t-51.5 117.5q0 39 15.5 68.5t37 46t57 28.5t61.5 16t66 9.5t56 8.5
t26.5 7t19 14t8.5 25q0 24 -19 36t-46 12q-72 0 -74 -53h-184q2 52 26 87.5t65 52.5t82.5 23.5t93.5 6.5t92 -6.5t65.5 -15.5t43.5 -27t26.5 -31.5t13 -39.5t5 -39.5t0.5 -43.5z" />
    <glyph glyph-name="b" unicode="b" horiz-adv-x="648" 
d="M419 260q0 128 -87 128t-87 -128q0 -129 87 -129t87 129zM54 0v714h198v-252h2q48 70 142 70q62 0 107.5 -24.5t69 -65.5t34 -85.5t10.5 -94.5q0 -68 -23 -129t-74 -103.5t-121 -42.5q-45 0 -77.5 12t-45 24t-29.5 34h-2v-57h-191z" />
    <glyph glyph-name="c" unicode="c" horiz-adv-x="611" 
d="M577 322h-188q-3 33 -22 49q-19 17 -50 17q-51 0 -69 -35.5t-18 -93.5t18 -93t69 -35q31 0 52.5 22t24.5 54h189q-14 -103 -88 -161.5t-182 -58.5q-119 0 -200 75.5t-81 196.5t81 197t200 76q108 0 181.5 -53.5t82.5 -156.5z" />
    <glyph glyph-name="d" unicode="d" horiz-adv-x="648" 
d="M594 714v-714h-191v57h-2q-17 -22 -29.5 -34t-45 -24t-77.5 -12q-70 0 -121 42.5t-74 103.5t-23 129q0 50 10.5 94.5t34 85.5t69 65.5t107.5 24.5q94 0 142 -70h2v252h198zM403 260q0 128 -87 128t-87 -128q0 -129 87 -129t87 129z" />
    <glyph glyph-name="e" unicode="e" horiz-adv-x="630" 
d="M222 318h189q0 37 -24.5 62t-62.5 25q-88 0 -102 -87zM601 215h-380q4 -46 30 -73.5t71 -27.5q59 0 83 37h185q-29 -81 -101.5 -122.5t-165.5 -41.5q-128 0 -209.5 72t-81.5 199q0 116 76.5 195t197.5 79q295 0 295 -317z" />
    <glyph glyph-name="f" unicode="f" horiz-adv-x="389" 
d="M87 0v397h-81v122h81q-4 101 41 146q30 30 68.5 39.5t104.5 9.5q17 0 48 -2t41 -2v-136q-4 0 -21.5 3.5t-26.5 3.5q-36 0 -49.5 -13t-11.5 -49h104v-122h-100v-397h-198z" />
    <glyph glyph-name="g" unicode="g" horiz-adv-x="630" 
d="M220 285q0 -53 20.5 -90t68.5 -37q26 0 43 11t25 32t10.5 40t2.5 45q0 45 -22 73.5t-64 28.5q-40 0 -62 -29.5t-22 -73.5zM583 519v-452q0 -36 -4.5 -66t-21 -65.5t-44.5 -59.5t-79 -40.5t-121 -16.5q-249 0 -271 173h196q2 -4 11 -18q25 -38 58 -38q30 0 48.5 22
t24 46.5t5.5 50.5v48h-2q-50 -72 -139 -72q-109 0 -165.5 71t-56.5 182q0 106 59 177t166 71q46 0 83 -19t53 -57h2v63h198z" />
    <glyph glyph-name="h" unicode="h" horiz-adv-x="648" 
d="M54 0v714h198v-251h2q59 69 162 69q75 0 126.5 -45.5t51.5 -130.5v-356h-198v272q0 52 -12.5 77t-52.5 25q-32 0 -55.5 -22t-23.5 -78v-274h-198z" />
    <glyph glyph-name="i" unicode="i" horiz-adv-x="315" 
d="M58 0v519h198v-519h-198zM256 714v-139h-198v139h198z" />
    <glyph glyph-name="j" unicode="j" horiz-adv-x="315" 
d="M-30 -168v158h33q31 0 43 13.5t12 50.5v465h198v-484q0 -69 -8.5 -106.5t-37.5 -61.5q-38 -33 -147 -35h-93zM256 714v-139h-198v139h198z" />
    <glyph glyph-name="k" unicode="k" horiz-adv-x="611" 
d="M58 0v714h198v-345l126 150h224l-185 -196l214 -323h-238l-106 188l-35 -38v-150h-198z" />
    <glyph glyph-name="l" unicode="l" horiz-adv-x="315" 
d="M58 0v714h198v-714h-198z" />
    <glyph glyph-name="m" unicode="m" horiz-adv-x="963" 
d="M53 0v519h191v-69h2q55 82 170 82q44 0 83.5 -21.5t56.5 -59.5q1 0 9 10.5t20.5 21t31.5 22.5t49.5 19.5t66.5 7.5q92 0 135 -52t43 -124v-356h-198v281q0 45 -12 69t-53 24q-67 0 -67 -93v-281h-198v281q0 45 -12 69t-53 24q-67 0 -67 -93v-281h-198z" />
    <glyph glyph-name="n" unicode="n" horiz-adv-x="648" 
d="M54 0v519h191v-66h2q56 79 169 79q75 0 126.5 -45.5t51.5 -130.5v-356h-198v272q0 52 -12.5 77t-52.5 25q-32 0 -55.5 -22t-23.5 -78v-274h-198z" />
    <glyph glyph-name="o" unicode="o" horiz-adv-x="630" 
d="M598 260q0 -116 -72.5 -194.5t-210.5 -78.5t-210.5 78.5t-72.5 194.5t72 194t211 78t211 -78t72 -194zM400 260q0 128 -85 128t-85 -128q0 -129 85 -129t85 129z" />
    <glyph glyph-name="p" unicode="p" horiz-adv-x="648" 
d="M245 259q0 -128 87 -128t87 128q0 129 -87 129t-87 -129zM54 -168v687h191v-57h2q17 22 29.5 34t45 24t77.5 12q70 0 121 -42.5t74 -103.5t23 -129q0 -50 -10.5 -94.5t-34 -85.5t-69 -65.5t-107.5 -24.5q-94 0 -142 70h-2v-225h-198z" />
    <glyph glyph-name="q" unicode="q" horiz-adv-x="648" 
d="M594 519v-687h-198v225h-2q-48 -70 -142 -70q-62 0 -107.5 24.5t-69 65.5t-34 85.5t-10.5 94.5q0 68 23 129t74 103.5t121 42.5q45 0 77.5 -12t45 -24t29.5 -34h2v57h191zM403 259q2 129 -87 129q-87 0 -87 -129q0 -128 87 -128t87 128z" />
    <glyph glyph-name="r" unicode="r" horiz-adv-x="444" 
d="M54 0v519h190v-83h2q25 48 59.5 72t86.5 24q28 0 58 -8v-175q-37 13 -78 13q-120 0 -120 -157v-205h-198z" />
    <glyph glyph-name="s" unicode="s" horiz-adv-x="574" 
d="M534 368h-180q-1 24 -23 39q-18 15 -44 15q-60 0 -60 -40q0 -17 23 -27q15 -7 77 -17.5t97 -22.5q124 -39 124 -145q0 -52 -23 -89t-62.5 -57t-83.5 -28.5t-95 -8.5q-66 0 -121.5 17t-96 60t-41.5 106h189q1 -26 24 -46q17 -15 53 -15q24 0 45.5 10t21.5 30q0 23 -20 33
t-89 22q-113 19 -162.5 57.5t-49.5 105.5q0 47 23 81t61 51t78 25t83 8q46 0 86.5 -7.5t79 -24.5t61.5 -51t25 -81z" />
    <glyph glyph-name="t" unicode="t" horiz-adv-x="407" 
d="M292 677v-158h106v-122h-106v-181q0 -38 12.5 -53.5t48.5 -15.5q23 0 45 3v-150q-20 0 -63 -3t-64 -3q-38 0 -64.5 4.5t-54.5 19t-43 47.5t-15 84v248h-88v122h88v158h198z" />
    <glyph glyph-name="u" unicode="u" horiz-adv-x="648" 
d="M594 519v-519h-191v66h-2q-56 -79 -169 -79q-75 0 -126.5 45.5t-51.5 130.5v356h198v-272q0 -52 12.5 -77t52.5 -25q32 0 55.5 22t23.5 78v274h198z" />
    <glyph glyph-name="v" unicode="v" horiz-adv-x="556" 
d="M566 519l-172 -519h-234l-170 519h209l81 -316h2l82 316h202z" />
    <glyph glyph-name="w" unicode="w" horiz-adv-x="870" 
d="M878 519l-165 -519h-203l-75 319h-2l-77 -319h-203l-162 519h206l77 -321h2l66 321h185l69 -321h4l72 321h206z" />
    <glyph glyph-name="x" unicode="x" horiz-adv-x="556" 
d="M-14 0l181 273l-163 246h218l57 -103l58 103h212l-163 -246l184 -273h-218l-76 127l-73 -127h-217z" />
    <glyph glyph-name="y" unicode="y" horiz-adv-x="556" 
d="M571 519l-172 -479q-38 -111 -65 -144q-19 -23 -42 -37t-55 -19.5t-52 -6.5t-60 -1h-90v158h46q50 0 60 5q19 9 19 39q0 9 -12.5 46t-26.5 74.5t-30 79t-18 46.5l-88 239h212l83 -298h2l84 298h205z" />
    <glyph glyph-name="z" unicode="z" horiz-adv-x="556" 
d="M17 0v153l243 222h-221v144h475v-152l-237 -223h258v-144h-518z" />
    <glyph glyph-name="braceleft" unicode="{" horiz-adv-x="407" 
d="M369 731v-153h-35q-51 0 -51 -61v-145q0 -48 -36.5 -68t-82.5 -22v-2q19 -1 30.5 -2.5t30.5 -7.5t30 -15.5t19.5 -28.5t8.5 -44v-136q0 -61 58 -61h28v-153h-114q-53 0 -97.5 33.5t-44.5 94.5v180q0 26 -17 42t-33.5 19.5t-33.5 3.5v153q84 0 84 57v188q0 61 44.5 94.5
t97.5 33.5h114z" />
    <glyph glyph-name="bar" unicode="|" horiz-adv-x="222" 
d="M35 -214v1000h153v-1000h-153z" />
    <glyph glyph-name="braceright" unicode="}" horiz-adv-x="407" 
d="M38 -168v153h28q58 0 58 61v145q0 48 36.5 68t82.5 22v2q-19 1 -30.5 2.5t-30.5 7.5t-30 15.5t-19.5 28.5t-8.5 44v136q0 61 -58 61h-28v153h114q53 0 97.5 -33.5t44.5 -94.5v-180q0 -26 17 -42t33.5 -19.5t33.5 -3.5v-153q-84 0 -84 -57v-188q0 -61 -44.5 -94.5
t-97.5 -33.5h-114z" />
    <glyph glyph-name="asciitilde" unicode="~" horiz-adv-x="600" 
d="M495 367l36 -138q-20 -27 -33 -42t-38 -29.5t-54 -14.5q-42 0 -102 33q-60 34 -115 34q-52 0 -84 -71l-36 138q45 86 125 86q39 0 111 -32q81 -35 102 -35q19 0 36 11.5t27 24t25 35.5z" />
    <glyph glyph-name="exclamdown" unicode="&#xa1;" horiz-adv-x="315" 
d="M54 -166v168l56 289h97l55 -289v-168h-208zM262 548v-198h-208v198h208z" />
    <glyph glyph-name="cent" unicode="&#xa2;" 
d="M317 135v252q-74 -14 -72 -123q-2 -111 72 -129zM317 -109v96q-116 0 -189 77.5t-73 198.5q0 115 73.5 192t188.5 77v80h52v-80q209 0 234 -210h-181q-3 55 -53 65v-252q53 27 57 72h182q-13 -97 -80 -158.5t-159 -61.5v-96h-52z" />
    <glyph glyph-name="sterling" unicode="&#xa3;" 
d="M619 484h-193q0 31 -14 55q-21 34 -54 34q-64 0 -64 -60q0 -14 6.5 -32t17 -39t13.5 -30h109v-127h-75q8 -34 -7.5 -69.5t-46.5 -56.5l2 -2q31 16 90 3q10 -2 30.5 -7.5t35 -8.5t27.5 -3q18 0 34.5 13.5t22 22.5t16.5 29l79 -142q-73 -81 -174 -81q-45 0 -120 23
q-70 16 -112 16q-49 0 -105 -39l-79 112q53 36 81.5 69.5t28.5 83.5q0 22 -6 37h-117v127h71q-30 41 -30 95q0 40 15.5 78.5t46 72t83.5 53.5t121 20q124 0 192.5 -62.5t74.5 -184.5z" />
    <glyph glyph-name="currency" unicode="&#xa4;" 
d="M528 79l-59 60q-47 -42 -133 -42q-88 0 -136 40l-60 -58l-75 75l60 58q-16 21 -28 59.5t-12 76.5q-1 80 40 135l-60 57l78 76l57 -56q19 16 57.5 27.5t78.5 11.5q39 0 76 -11.5t57 -27.5l58 56l76 -75l-58 -58q17 -20 29.5 -57.5t12.5 -77.5q0 -39 -12 -77.5t-30 -58.5
l58 -58zM336 455q-41 0 -74 -28.5t-33 -78.5t33 -78.5t74 -28.5t74 28.5t33 78.5t-33 78.5t-74 28.5z" />
    <glyph glyph-name="yen" unicode="&#xa5;" 
d="M235 0v107h-161v122h161v43l-21 43h-140v122h73l-150 277h225l112 -277l112 277h225l-150 -277h73v-122h-140l-21 -43v-43h161v-122h-161v-107h-198z" />
    <glyph glyph-name="brokenbar" unicode="&#xa6;" horiz-adv-x="222" 
d="M35 -89v250h153v-250h-153zM35 411v250h153v-250h-153z" />
    <glyph glyph-name="section" unicode="&#xa7;" horiz-adv-x="667" 
d="M201 326q0 -12 11 -24t31.5 -22.5t39.5 -18t45.5 -17t38.5 -14.5q4 -1 31 -11t32 -11q14 1 25 10t11 23q0 6 -1 10.5t-1.5 7.5t-3.5 6.5t-4 5t-6 5t-6 4l-8 4l-9 4.5q-25 11 -158 64q-26 10 -34 11q-12 -1 -23 -12t-11 -25zM583 530h-172q-6 57 -65 57q-21 0 -37 -11
t-16 -31q0 -11 9.5 -21.5t29 -20t33.5 -15.5t40 -15.5t32 -11.5q1 -1 26.5 -10t33 -12.5t31.5 -14.5t34 -19t27.5 -22.5t25.5 -28.5t14.5 -34t6.5 -42q0 -39 -11 -68.5t-28.5 -46t-33.5 -24.5t-33 -12q52 -41 52 -107q0 -98 -73 -149t-176 -51q-111 0 -181 52t-68 160h170
q8 -68 77 -68q22 0 41.5 11.5t19.5 32.5q0 26 -14.5 39t-43.5 24q-63 25 -146 59q-35 15 -57 27t-48 32.5t-39 47.5t-13 60q0 59 27.5 96.5t84.5 59.5q-40 38 -40 95q0 60 36 103t87.5 61.5t110.5 18.5q105 0 173.5 -51t72.5 -150z" />
    <glyph glyph-name="dieresis" unicode="&#xa8;" horiz-adv-x="278" 
d="M168 574v130h170v-130h-170zM-59 574v130h170v-130h-170z" />
    <glyph glyph-name="copyright" unicode="&#xa9;" horiz-adv-x="800" 
d="M483 309h100q-12 -79 -60.5 -120t-117.5 -41q-89 0 -145 59.5t-56 148.5q0 92 54 150.5t145 58.5q70 0 117 -39.5t59 -115.5h-96q-12 52 -77 52q-43 0 -67.5 -28t-24.5 -76q0 -47 26 -77t65 -30q71 0 78 58zM26 357q0 155 109.5 264.5t264.5 109.5t264.5 -109.5
t109.5 -264.5t-109.5 -264.5t-264.5 -109.5t-264.5 109.5t-109.5 264.5zM150 357q0 -106 72.5 -181.5t177.5 -75.5t177.5 75.5t72.5 181.5t-72.5 181.5t-177.5 75.5t-177.5 -75.5t-72.5 -181.5z" />
    <glyph glyph-name="ordfeminine" unicode="&#xaa;" horiz-adv-x="367" 
d="M233 492v33q-23 -10 -51 -15q-43 -8 -43 -34q0 -15 10 -23t26 -8q52 0 58 47zM357 583v-145q0 -30 14 -55h-131q-5 25 -5 31h-1q-35 -39 -108 -39q-51 0 -84 24.5t-33 71.5q0 24 9.5 41.5t22 27.5t35 17t38.5 9.5t43.5 6t39.5 5.5q36 6 36 27q0 29 -43 29q-19 0 -33 -9
t-14 -24h-120q3 103 173 103q66 0 113.5 -27t47.5 -94z" />
    <glyph glyph-name="guillemotleft" unicode="&#xab;" horiz-adv-x="444" 
d="M205 48l-163 129v177l163 129v-154l-78 -64l78 -60v-157zM402 48l-163 129v177l163 129v-154l-78 -64l78 -60v-157z" />
    <glyph glyph-name="logicalnot" unicode="&#xac;" horiz-adv-x="600" 
d="M553 450v-342h-153v189h-352v153h505z" />
    <glyph glyph-name="registered" unicode="&#xae;" horiz-adv-x="800" 
d="M26 357q0 155 109.5 264.5t264.5 109.5t264.5 -109.5t109.5 -264.5t-109.5 -264.5t-264.5 -109.5t-264.5 109.5t-109.5 264.5zM150 357q0 -106 72.5 -181.5t177.5 -75.5t177.5 75.5t72.5 181.5t-72.5 181.5t-177.5 75.5t-177.5 -75.5t-72.5 -181.5zM252 167v379h147
q85 0 126 -26t41 -93q0 -98 -100 -103l85 -157h-97l-76 151h-36v-151h-90zM342 476v-88h75q53 -2 53 49q0 39 -73 39h-55z" />
    <glyph glyph-name="macron" unicode="&#xaf;" horiz-adv-x="278" 
d="M-30 598v91h339v-91h-339z" />
    <glyph glyph-name="macron" unicode="&#x2c9;" horiz-adv-x="278" 
d="M-30 598v91h339v-91h-339z" />
    <glyph glyph-name="degree" unicode="&#xb0;" horiz-adv-x="400" 
d="M51 555q0 65 42.5 107t106.5 42t106.5 -42t42.5 -107t-42.5 -107t-106.5 -42t-106.5 42t-42.5 107zM129 555q0 -30 20.5 -50.5t50.5 -20.5t50.5 20.5t20.5 50.5t-20.5 50.5t-50.5 20.5t-50.5 -20.5t-20.5 -50.5z" />
    <glyph glyph-name="plusminus" unicode="&#xb1;" horiz-adv-x="600" 
d="M48 271v153h176v81h153v-81h176v-153h-176v-81h-153v81h-176zM48 0v153h505v-153h-505z" />
    <glyph glyph-name="twosuperior" unicode="&#xb2;" horiz-adv-x="400" 
d="M135 523h-122q-4 86 48 134q50 47 144 47q186 0 186 -131q0 -47 -31.5 -83.5t-68.5 -53.5t-68.5 -30.5t-31.5 -20.5h205v-103h-392q-1 21 3.5 40.5t10.5 34t21 31t25 26t31.5 24t32 21t36 20.5t33.5 19q14 8 20 11.5t17 11.5t16 17t5 19q0 23 -14.5 38t-36.5 15
q-36 0 -53 -25.5t-16 -61.5z" />
    <glyph glyph-name="threesuperior" unicode="&#xb3;" horiz-adv-x="400" 
d="M147 559h-124q1 70 56 109q50 36 128 36q83 0 132.5 -32.5t49.5 -85.5q0 -61 -55 -81q-2 -1 -3 -1v-2q34 -12 52 -36t18 -70q0 -51 -48 -86.5t-148 -35.5q-195 0 -195 164h124q0 -30 14 -47q16 -23 55 -23q25 0 43.5 12.5t18.5 36.5q0 41 -62 41q-26 0 -36 -1v80
q10 -1 32 -1q25 0 45.5 8.5t20.5 24.5q0 19 -16 30t-42 11t-43 -14.5t-17 -36.5z" />
    <glyph glyph-name="acute" unicode="&#xb4;" horiz-adv-x="278" 
d="M344 718l-172 -149h-136l99 149h209z" />
    <glyph glyph-name="mu" unicode="&#xb5;" horiz-adv-x="648" 
d="M594 519v-519h-191v66h-2q-55 -76 -149 -79v-155h-198v687h198v-272q0 -52 12.5 -77t52.5 -25q32 0 55.5 22t23.5 78v274h198z" />
    <glyph glyph-name="mu" unicode="&#x3bc;" horiz-adv-x="648" 
d="M594 519v-519h-191v66h-2q-55 -76 -149 -79v-155h-198v687h198v-272q0 -52 12.5 -77t52.5 -25q32 0 55.5 22t23.5 78v274h198z" />
    <glyph glyph-name="paragraph" unicode="&#xb6;" horiz-adv-x="620" 
d="M241 -174v539q-108 0 -165.5 45t-57.5 126q0 100 64.5 139t181.5 39h314v-888h-136v785h-65v-785h-136z" />
    <glyph glyph-name="periodcentered" unicode="&#xb7;" horiz-adv-x="334" 
d="M47 237q0 49 35.5 84.5t84.5 35.5t84.5 -35.5t35.5 -84.5t-35.5 -84.5t-84.5 -35.5t-84.5 35.5t-35.5 84.5z" />
    <glyph glyph-name="periodcentered" unicode="&#x2219;" horiz-adv-x="334" 
d="M47 237q0 49 35.5 84.5t84.5 35.5t84.5 -35.5t35.5 -84.5t-35.5 -84.5t-84.5 -35.5t-84.5 35.5t-35.5 84.5z" />
    <glyph glyph-name="cedilla" unicode="&#xb8;" horiz-adv-x="278" 
d="M1 -204l21 46q6 -2 26 -8t33 -9t27 -3q52 0 52 37q0 15 -12.5 25t-30.5 10q-19 0 -39 -10l-26 24l56 92h58l-40 -62l2 -2q11 5 42 5q42 0 72.5 -22.5t27.5 -66.5q-3 -39 -38.5 -61.5t-92.5 -22.5t-138 28z" />
    <glyph glyph-name="onesuperior" unicode="&#xb9;" horiz-adv-x="400" 
d="M157 282v234h-106v87q56 1 94 23t41 70h107v-414h-136z" />
    <glyph glyph-name="ordmasculine" unicode="&#xba;" horiz-adv-x="378" 
d="M10 541q0 69 47.5 116t137.5 47t137.5 -47t47.5 -116q0 -71 -47.5 -118.5t-137.5 -47.5t-137.5 47.5t-47.5 118.5zM146 541q0 -79 49 -79t49 79q0 76 -49 76t-49 -76z" />
    <glyph glyph-name="guillemotright" unicode="&#xbb;" horiz-adv-x="444" 
d="M42 483l163 -129v-177l-163 -129v157l78 60l-78 61v157zM239 483l163 -129v-177l-163 -129v157l78 60l-78 61v157z" />
    <glyph glyph-name="onequarter" unicode="&#xbc;" horiz-adv-x="1000" 
d="M205 -26l388 748h110l-388 -748h-110zM174 282v234h-106v87q56 1 94 23t41 70h107v-414h-136zM700 0v83h-200v113l206 218h130v-228h61v-103h-61v-83h-136zM700 186v116l-110 -116h110z" />
    <glyph glyph-name="onehalf" unicode="&#xbd;" horiz-adv-x="1000" 
d="M205 -26l388 748h110l-389 -748h-109zM932 0h-392q-1 21 3.5 40.5t10.5 34t21 31t25 26t31.5 24t32 21t36 20.5t33.5 19q14 8 20 11.5t17 11.5t16 17t5 19q0 23 -14.5 38t-36.5 15q-36 0 -53 -25.5t-16 -61.5h-122q-4 86 48 134q50 47 144 47q186 0 186 -131
q0 -47 -31.5 -83.5t-68.5 -53.5t-68.5 -30.5t-31.5 -20.5h205v-103zM174 282v234h-106v87q54 0 93 22t42 71h107v-414h-136z" />
    <glyph glyph-name="threequarters" unicode="&#xbe;" horiz-adv-x="1000" 
d="M773 0v83h-200v113l206 218h130v-228h61v-103h-61v-83h-136zM663 186h110v116zM281 -26l388 748h110l-389 -748h-109zM166 559h-124q1 70 56 109q49 36 128 36q83 0 132.5 -32.5t49.5 -85.5q0 -61 -55 -81q-2 -1 -3 -1v-2q34 -12 52 -36t18 -70q0 -51 -48 -86.5
t-148 -35.5q-195 0 -195 164h124q0 -30 14 -47q16 -23 55 -23q25 0 43.5 12.5t18.5 36.5q0 41 -62 41q-26 0 -36 -1v80q10 -1 32 -1q25 0 45.5 8.5t20.5 24.5q0 19 -16 30t-42 11t-43 -14.5t-17 -36.5z" />
    <glyph glyph-name="questiondown" unicode="&#xbf;" horiz-adv-x="574" 
d="M351 74h208q-5 -123 -79.5 -189t-197.5 -66q-106 0 -186.5 54t-80.5 155q0 44 15.5 75t33 44.5t47.5 28.5l14 7t14.5 7.5t13 7.5t13.5 9t11 9t10.5 11t7.5 12.5t7 14.5t3.5 16.5t1.5 19.5h186q0 -83 -22 -122.5t-60 -58.5q-9 -5 -23.5 -11.5t-23.5 -10.5t-18 -11t-13 -17
t-4 -24q0 -21 15 -33.5t37 -12.5q41 0 55.5 21.5t14.5 63.5zM404 548v-198h-208v198h208z" />
    <glyph glyph-name="Agrave" unicode="&#xc0;" horiz-adv-x="722" 
d="M293 255h135l-64 220h-2zM-8 0l263 714h215l260 -714h-228l-30 102h-227l-32 -102h-221zM327 764l-171 149h208l100 -149h-137z" />
    <glyph glyph-name="Aacute" unicode="&#xc1;" horiz-adv-x="722" 
d="M293 255h135l-64 220h-2zM-8 0l263 714h215l260 -714h-228l-30 102h-227l-32 -102h-221zM566 913l-172 -149h-136l99 149h209z" />
    <glyph glyph-name="Acircumflex" unicode="&#xc2;" horiz-adv-x="722" 
d="M293 255h135l-64 220h-2zM-8 0l263 714h215l260 -714h-228l-30 102h-227l-32 -102h-221zM158 764l121 149h164l122 -149h-147l-57 76l-56 -76h-147z" />
    <glyph glyph-name="Atilde" unicode="&#xc3;" horiz-adv-x="722" 
d="M293 255h135l-64 220h-2zM-8 0l263 714h215l260 -714h-228l-30 102h-227l-32 -102h-221zM165 764q-1 54 26.5 98t85.5 44q39 0 93 -20t59 -20q36 0 45 43h82q-2 -60 -32.5 -99.5t-83.5 -39.5q-40 0 -89 19q-50 18 -66 18q-15 0 -26.5 -13.5t-14.5 -29.5h-79z" />
    <glyph glyph-name="Adieresis" unicode="&#xc4;" horiz-adv-x="722" 
d="M293 255h135l-64 220h-2zM-8 0l263 714h215l260 -714h-228l-30 102h-227l-32 -102h-221zM390 769v130h170v-130h-170zM163 769v130h170v-130h-170z" />
    <glyph glyph-name="Aring" unicode="&#xc5;" horiz-adv-x="722" 
d="M293 255h135l-64 220h-2zM-8 0l263 714h215l260 -714h-228l-30 102h-227l-32 -102h-221zM248 841q0 46 33.5 79t79.5 33t79 -33t33 -79t-33 -79.5t-79 -33.5q-47 0 -80 33t-33 80zM308 841q0 -21 16 -37t37 -16t36.5 16t15.5 37q0 20 -16 36t-36 16q-21 0 -37 -15.5
t-16 -36.5z" />
    <glyph glyph-name="AE" unicode="&#xc6;" horiz-adv-x="1056" 
d="M467 249v282h-29l-123 -282h152zM-16 0l325 714h690v-183h-324v-89h302v-170h-302v-89h336v-183h-544v105h-211l-43 -105h-229z" />
    <glyph glyph-name="Ccedilla" unicode="&#xc7;" horiz-adv-x="759" 
d="M508 280h216q0 -117 -89 -207t-237 -90h-3l-29 -45l2 -2q11 5 42 5q42 0 72.5 -22.5t27.5 -66.5q-3 -39 -38.5 -61.5t-92.5 -22.5t-138 28l21 46q6 -2 26 -8t33 -9t27 -3q52 0 52 37q0 15 -12.5 25t-30.5 10q-19 0 -39 -10l-26 24l48 79q-143 18 -223.5 120t-80.5 250
q0 169 98.5 271.5t263.5 102.5q145 -1 227 -74t96 -209h-214q-2 14 -7.5 28t-17 33.5t-35 31.5t-55.5 12q-71 0 -103.5 -56.5t-32.5 -139.5t32.5 -139.5t103.5 -56.5q93 0 116 119z" />
    <glyph glyph-name="Egrave" unicode="&#xc8;" horiz-adv-x="704" 
d="M57 0v714h591v-183h-371v-89h337v-170h-337v-89h382v-183h-602zM318 764l-171 149h208l100 -149h-137z" />
    <glyph glyph-name="Eacute" unicode="&#xc9;" horiz-adv-x="704" 
d="M57 0v714h591v-183h-371v-89h337v-170h-337v-89h382v-183h-602zM557 913l-172 -149h-136l99 149h209z" />
    <glyph glyph-name="Ecircumflex" unicode="&#xca;" horiz-adv-x="704" 
d="M57 0v714h591v-183h-371v-89h337v-170h-337v-89h382v-183h-602zM149 764l121 149h164l122 -149h-147l-57 76l-56 -76h-147z" />
    <glyph glyph-name="Edieresis" unicode="&#xcb;" horiz-adv-x="704" 
d="M57 0v714h591v-183h-371v-89h337v-170h-337v-89h382v-183h-602zM381 769v130h170v-130h-170zM154 769v130h170v-130h-170z" />
    <glyph glyph-name="Igrave" unicode="&#xcc;" horiz-adv-x="333" 
d="M57 0v714h220v-714h-220zM133 764l-171 149h208l100 -149h-137z" />
    <glyph glyph-name="Iacute" unicode="&#xcd;" horiz-adv-x="333" 
d="M57 0v714h220v-714h-220zM372 913l-172 -149h-136l99 149h209z" />
    <glyph glyph-name="Icircumflex" unicode="&#xce;" horiz-adv-x="333" 
d="M57 0v714h220v-714h-220zM-36 764l121 149h164l122 -149h-147l-57 76l-56 -76h-147z" />
    <glyph glyph-name="Idieresis" unicode="&#xcf;" horiz-adv-x="333" 
d="M57 0v714h220v-714h-220zM196 769v130h170v-130h-170zM-31 769v130h170v-130h-170z" />
    <glyph glyph-name="Eth" unicode="&#xd0;" horiz-adv-x="778" 
d="M57 0v310h-56v122h56v282h361q86 0 150 -30t100.5 -81.5t54 -113t17.5 -132.5q0 -168 -91.5 -262.5t-273.5 -94.5h-318zM277 531v-99h136v-122h-136v-127h86q48 0 81.5 17.5t48.5 47t21 56.5t6 57q0 18 -2.5 35.5t-13 43.5t-28 44.5t-51 32.5t-78.5 14h-70z" />
    <glyph glyph-name="Ntilde" unicode="&#xd1;" horiz-adv-x="759" 
d="M58 0v714h225l208 -382h2v382h208v-714h-214l-219 390h-2v-390h-208zM184 764q-1 54 26.5 98t85.5 44q39 0 93 -20t59 -20q36 0 45 43h82q-2 -60 -32.5 -99.5t-83.5 -39.5q-40 0 -89 19q-50 18 -66 18q-15 0 -26.5 -13.5t-14.5 -29.5h-79z" />
    <glyph glyph-name="Ograve" unicode="&#xd2;" horiz-adv-x="796" 
d="M36 357q0 165 100 269.5t262 104.5t262 -104.5t100 -269.5t-100 -269.5t-262 -104.5t-262 104.5t-100 269.5zM256 357q0 -56 14 -97t36.5 -61t45 -29t46.5 -9t46.5 9t45 29t36.5 61t14 97t-14 97t-36.5 61t-45 29t-46.5 9t-46.5 -9t-45 -29t-36.5 -61t-14 -97zM364 764
l-171 149h208l100 -149h-137z" />
    <glyph glyph-name="Oacute" unicode="&#xd3;" horiz-adv-x="796" 
d="M36 357q0 165 100 269.5t262 104.5t262 -104.5t100 -269.5t-100 -269.5t-262 -104.5t-262 104.5t-100 269.5zM256 357q0 -56 14 -97t36.5 -61t45 -29t46.5 -9t46.5 9t45 29t36.5 61t14 97t-14 97t-36.5 61t-45 29t-46.5 9t-46.5 -9t-45 -29t-36.5 -61t-14 -97zM603 913
l-172 -149h-136l99 149h209z" />
    <glyph glyph-name="Ocircumflex" unicode="&#xd4;" horiz-adv-x="796" 
d="M36 357q0 165 100 269.5t262 104.5t262 -104.5t100 -269.5t-100 -269.5t-262 -104.5t-262 104.5t-100 269.5zM256 357q0 -56 14 -97t36.5 -61t45 -29t46.5 -9t46.5 9t45 29t36.5 61t14 97t-14 97t-36.5 61t-45 29t-46.5 9t-46.5 -9t-45 -29t-36.5 -61t-14 -97zM195 764
l121 149h164l122 -149h-147l-57 76l-56 -76h-147z" />
    <glyph glyph-name="Otilde" unicode="&#xd5;" horiz-adv-x="796" 
d="M36 357q0 165 100 269.5t262 104.5t262 -104.5t100 -269.5t-100 -269.5t-262 -104.5t-262 104.5t-100 269.5zM256 357q0 -56 14 -97t36.5 -61t45 -29t46.5 -9t46.5 9t45 29t36.5 61t14 97t-14 97t-36.5 61t-45 29t-46.5 9t-46.5 -9t-45 -29t-36.5 -61t-14 -97zM202 764
q-1 54 26.5 98t85.5 44q39 0 93 -20t59 -20q36 0 45 43h82q-2 -60 -32.5 -99.5t-83.5 -39.5q-40 0 -89 19q-50 18 -66 18q-15 0 -26.5 -13.5t-14.5 -29.5h-79z" />
    <glyph glyph-name="Odieresis" unicode="&#xd6;" horiz-adv-x="796" 
d="M36 357q0 165 100 269.5t262 104.5t262 -104.5t100 -269.5t-100 -269.5t-262 -104.5t-262 104.5t-100 269.5zM256 357q0 -56 14 -97t36.5 -61t45 -29t46.5 -9t46.5 9t45 29t36.5 61t14 97t-14 97t-36.5 61t-45 29t-46.5 9t-46.5 -9t-45 -29t-36.5 -61t-14 -97zM427 769
v130h170v-130h-170zM200 769v130h170v-130h-170z" />
    <glyph glyph-name="multiply" unicode="&#xd7;" horiz-adv-x="600" 
d="M159 4l-108 108l141 141l-141 141l108 108l141 -141l141 142l108 -108l-141 -142l141 -141l-109 -108l-140 141z" />
    <glyph glyph-name="Oslash" unicode="&#xd8;" horiz-adv-x="796" 
d="M271 258l226 249q-41 46 -99 46q-24 0 -46.5 -9t-45 -29t-36.5 -61t-14 -97t15 -99zM527 450l-224 -247q38 -42 95 -42q24 0 46.5 9t45 29t36.5 61t14 97q0 51 -13 93zM714 745l46 -39l-87 -95q87 -101 87 -254q0 -165 -100 -269.5t-262 -104.5q-134 0 -227 74l-85 -94
l-45 42l86 94q-91 104 -91 258q0 165 100 269.5t262 104.5q137 0 232 -78z" />
    <glyph glyph-name="Ugrave" unicode="&#xd9;" horiz-adv-x="759" 
d="M705 714v-438q0 -148 -80.5 -220.5t-244.5 -72.5q-326 0 -326 293v438h220v-389q0 -30 0.5 -46t6 -42t16.5 -40t32 -25t52 -11q30 0 50.5 11t31 25t16 40t6 42t0.5 46v389h220zM346 764l-171 149h208l100 -149h-137z" />
    <glyph glyph-name="Uacute" unicode="&#xda;" horiz-adv-x="759" 
d="M705 714v-438q0 -148 -80.5 -220.5t-244.5 -72.5q-326 0 -326 293v438h220v-389q0 -30 0.5 -46t6 -42t16.5 -40t32 -25t52 -11q30 0 50.5 11t31 25t16 40t6 42t0.5 46v389h220zM585 913l-172 -149h-136l99 149h209z" />
    <glyph glyph-name="Ucircumflex" unicode="&#xdb;" horiz-adv-x="759" 
d="M705 714v-438q0 -148 -80.5 -220.5t-244.5 -72.5q-326 0 -326 293v438h220v-389q0 -30 0.5 -46t6 -42t16.5 -40t32 -25t52 -11q30 0 50.5 11t31 25t16 40t6 42t0.5 46v389h220zM177 764l121 149h164l122 -149h-147l-57 76l-56 -76h-147z" />
    <glyph glyph-name="Udieresis" unicode="&#xdc;" horiz-adv-x="759" 
d="M705 714v-438q0 -148 -80.5 -220.5t-244.5 -72.5q-326 0 -326 293v438h220v-389q0 -30 0.5 -46t6 -42t16.5 -40t32 -25t52 -11q30 0 50.5 11t31 25t16 40t6 42t0.5 46v389h220zM409 769v130h170v-130h-170zM182 769v130h170v-130h-170z" />
    <glyph glyph-name="Yacute" unicode="&#xdd;" horiz-adv-x="667" 
d="M221 0v263l-251 451h243l119 -263l124 263h241l-256 -451v-263h-220zM539 913l-172 -149h-136l99 149h209z" />
    <glyph glyph-name="Thorn" unicode="&#xde;" horiz-adv-x="704" 
d="M277 447v-145h85q26 0 43 2t36 9t28.5 23t9.5 42q0 31 -16.5 47t-35.5 19t-52 3h-98zM57 0v714h220v-84h148q69 0 122 -23.5t82 -61t43.5 -78t14.5 -81.5q0 -125 -76 -189.5t-204 -64.5h-130v-132h-220z" />
    <glyph glyph-name="germandbls" unicode="&#xdf;" horiz-adv-x="648" 
d="M58 0v466q0 123 69 194t195 71q118 0 187.5 -54.5t69.5 -138.5q0 -14 -2 -27.5t-5 -24t-8 -21t-9 -17.5t-11 -14.5t-11 -11.5t-11.5 -9.5t-10.5 -7.5l-9 -6l-7 -4v-2q6 -1 16.5 -4t30.5 -15t36 -30t28.5 -51.5t12.5 -75.5q0 -100 -64.5 -161.5t-164.5 -61.5q-53 0 -94 7
v152q21 -6 41 -6q38 0 61 26t23 64q0 54 -33.5 74t-91.5 20v110q23 0 37.5 2t30.5 8t23.5 20.5t7.5 36.5q0 65 -68 65q-71 0 -71 -90v-483h-198z" />
    <glyph glyph-name="agrave" unicode="&#xe0;" horiz-adv-x="611" 
d="M370 185v48q-28 -14 -78 -25q-36 -8 -51.5 -19.5t-15.5 -36.5q0 -19 18 -33.5t44 -14.5q35 0 58 21t25 60zM560 329v-213q0 -80 24 -116h-202q-9 24 -7 49h-2q-54 -62 -167 -62q-80 0 -131.5 39.5t-51.5 117.5q0 39 15.5 68.5t37 46t57 28.5t61.5 16t66 9.5t56 8.5
t26.5 7t19 14t8.5 25q0 24 -19 36t-46 12q-72 0 -74 -53h-184q2 52 26 87.5t65 52.5t82.5 23.5t93.5 6.5t92 -6.5t65.5 -15.5t43.5 -27t26.5 -31.5t13 -39.5t5 -39.5t0.5 -43.5zM272 569l-171 149h208l100 -149h-137z" />
    <glyph glyph-name="aacute" unicode="&#xe1;" horiz-adv-x="611" 
d="M370 185v48q-28 -14 -78 -25q-36 -8 -51.5 -19.5t-15.5 -36.5q0 -19 18 -33.5t44 -14.5q35 0 58 21t25 60zM560 329v-213q0 -80 24 -116h-202q-9 24 -7 49h-2q-54 -62 -167 -62q-80 0 -131.5 39.5t-51.5 117.5q0 39 15.5 68.5t37 46t57 28.5t61.5 16t66 9.5t56 8.5
t26.5 7t19 14t8.5 25q0 24 -19 36t-46 12q-72 0 -74 -53h-184q2 52 26 87.5t65 52.5t82.5 23.5t93.5 6.5t92 -6.5t65.5 -15.5t43.5 -27t26.5 -31.5t13 -39.5t5 -39.5t0.5 -43.5zM511 718l-172 -149h-136l99 149h209z" />
    <glyph glyph-name="acircumflex" unicode="&#xe2;" horiz-adv-x="611" 
d="M370 185v48q-28 -14 -78 -25q-36 -8 -51.5 -19.5t-15.5 -36.5q0 -19 18 -33.5t44 -14.5q35 0 58 21t25 60zM560 329v-213q0 -80 24 -116h-202q-9 24 -7 49h-2q-54 -62 -167 -62q-80 0 -131.5 39.5t-51.5 117.5q0 39 15.5 68.5t37 46t57 28.5t61.5 16t66 9.5t56 8.5
t26.5 7t19 14t8.5 25q0 24 -19 36t-46 12q-72 0 -74 -53h-184q2 52 26 87.5t65 52.5t82.5 23.5t93.5 6.5t92 -6.5t65.5 -15.5t43.5 -27t26.5 -31.5t13 -39.5t5 -39.5t0.5 -43.5zM103 569l121 149h164l122 -149h-147l-57 76l-56 -76h-147z" />
    <glyph glyph-name="atilde" unicode="&#xe3;" horiz-adv-x="611" 
d="M370 185v48q-28 -14 -78 -25q-36 -8 -51.5 -19.5t-15.5 -36.5q0 -19 18 -33.5t44 -14.5q35 0 58 21t25 60zM560 329v-213q0 -80 24 -116h-202q-9 24 -7 49h-2q-54 -62 -167 -62q-80 0 -131.5 39.5t-51.5 117.5q0 39 15.5 68.5t37 46t57 28.5t61.5 16t66 9.5t56 8.5
t26.5 7t19 14t8.5 25q0 24 -19 36t-46 12q-72 0 -74 -53h-184q2 52 26 87.5t65 52.5t82.5 23.5t93.5 6.5t92 -6.5t65.5 -15.5t43.5 -27t26.5 -31.5t13 -39.5t5 -39.5t0.5 -43.5zM110 569q-1 54 26.5 98t85.5 44q39 0 93 -20t59 -20q36 0 45 43h82q-2 -60 -32.5 -99.5
t-83.5 -39.5q-40 0 -89 19q-50 18 -66 18q-15 0 -26.5 -13.5t-14.5 -29.5h-79z" />
    <glyph glyph-name="adieresis" unicode="&#xe4;" horiz-adv-x="611" 
d="M370 185v48q-28 -14 -78 -25q-36 -8 -51.5 -19.5t-15.5 -36.5q0 -19 18 -33.5t44 -14.5q35 0 58 21t25 60zM560 329v-213q0 -80 24 -116h-202q-9 24 -7 49h-2q-54 -62 -167 -62q-80 0 -131.5 39.5t-51.5 117.5q0 39 15.5 68.5t37 46t57 28.5t61.5 16t66 9.5t56 8.5
t26.5 7t19 14t8.5 25q0 24 -19 36t-46 12q-72 0 -74 -53h-184q2 52 26 87.5t65 52.5t82.5 23.5t93.5 6.5t92 -6.5t65.5 -15.5t43.5 -27t26.5 -31.5t13 -39.5t5 -39.5t0.5 -43.5zM335 574v130h170v-130h-170zM108 574v130h170v-130h-170z" />
    <glyph glyph-name="aring" unicode="&#xe5;" horiz-adv-x="611" 
d="M370 185v48q-28 -14 -78 -25q-36 -8 -51.5 -19.5t-15.5 -36.5q0 -19 18 -33.5t44 -14.5q35 0 58 21t25 60zM560 329v-213q0 -80 24 -116h-202q-9 24 -7 49h-2q-54 -62 -167 -62q-80 0 -131.5 39.5t-51.5 117.5q0 39 15.5 68.5t37 46t57 28.5t61.5 16t66 9.5t56 8.5
t26.5 7t19 14t8.5 25q0 24 -19 36t-46 12q-72 0 -74 -53h-184q2 52 26 87.5t65 52.5t82.5 23.5t93.5 6.5t92 -6.5t65.5 -15.5t43.5 -27t26.5 -31.5t13 -39.5t5 -39.5t0.5 -43.5zM193 666q0 46 33.5 79t79.5 33t79 -33t33 -79t-33 -79.5t-79 -33.5t-79.5 33.5t-33.5 79.5z
M253 666q0 -21 16 -37t37 -16t36.5 16t15.5 37q0 20 -16 36t-36 16q-21 0 -37 -15.5t-16 -36.5z" />
    <glyph glyph-name="ae" unicode="&#xe6;" horiz-adv-x="962" 
d="M559 318h176q1 39 -23.5 63t-64.5 24q-47 0 -67.5 -26.5t-20.5 -60.5zM389 195v42q-23 -13 -88 -29q-32 -5 -49.5 -18t-17.5 -42q0 -18 19 -31t50 -13q41 0 63.5 26t22.5 65zM931 215h-372q5 -101 99 -101q22 0 43 11.5t32 25.5h186q-20 -74 -94.5 -119t-163.5 -45
q-78 0 -119 15t-79 54q-84 -69 -248 -69q-36 0 -67 8t-58 25.5t-42.5 49.5t-15.5 77q0 34 10.5 60t30.5 43t42 28.5t53 18.5t54 10.5t55.5 7t47.5 6.5q64 11 64 46q0 48 -69 48q-72 0 -79 -53h-186q5 170 259 170q119 0 182 -56q57 56 166 56q72 0 126.5 -26t85.5 -71
t45.5 -100.5t11.5 -119.5z" />
    <glyph glyph-name="ccedilla" unicode="&#xe7;" horiz-adv-x="611" 
d="M394 207h189q-13 -100 -84 -158t-175 -61l-32 -50l2 -2q11 5 42 5q42 0 72.5 -22.5t27.5 -66.5q-3 -39 -38.5 -61.5t-92.5 -22.5t-138 28l21 46q6 -2 26 -8t33 -9t27 -3q52 0 52 37q0 15 -12.5 25t-30.5 10q-19 0 -39 -10l-26 24l51 83q-104 14 -170.5 86.5t-66.5 181.5
q0 121 81 197t200 76q108 0 181.5 -53.5t82.5 -156.5h-188q-3 33 -22 49q-19 17 -50 17q-51 0 -69 -35.5t-18 -93.5t18 -93t69 -35q31 0 52.5 22t24.5 54z" />
    <glyph glyph-name="egrave" unicode="&#xe8;" horiz-adv-x="630" 
d="M222 318h189q0 37 -24.5 62t-62.5 25q-88 0 -102 -87zM601 215h-380q4 -46 30 -73.5t71 -27.5q59 0 83 37h185q-29 -81 -101.5 -122.5t-165.5 -41.5q-128 0 -209.5 72t-81.5 199q0 116 76.5 195t197.5 79q295 0 295 -317zM281 569l-171 149h208l100 -149h-137z" />
    <glyph glyph-name="eacute" unicode="&#xe9;" horiz-adv-x="630" 
d="M222 318h189q0 37 -24.5 62t-62.5 25q-88 0 -102 -87zM601 215h-380q4 -46 30 -73.5t71 -27.5q59 0 83 37h185q-29 -81 -101.5 -122.5t-165.5 -41.5q-128 0 -209.5 72t-81.5 199q0 116 76.5 195t197.5 79q295 0 295 -317zM520 718l-172 -149h-136l99 149h209z" />
    <glyph glyph-name="ecircumflex" unicode="&#xea;" horiz-adv-x="630" 
d="M222 318h189q0 37 -24.5 62t-62.5 25q-88 0 -102 -87zM601 215h-380q4 -46 30 -73.5t71 -27.5q59 0 83 37h185q-29 -81 -101.5 -122.5t-165.5 -41.5q-128 0 -209.5 72t-81.5 199q0 116 76.5 195t197.5 79q295 0 295 -317zM112 569l121 149h164l122 -149h-147l-57 76
l-56 -76h-147z" />
    <glyph glyph-name="edieresis" unicode="&#xeb;" horiz-adv-x="630" 
d="M222 318h189q0 37 -24.5 62t-62.5 25q-88 0 -102 -87zM601 215h-380q4 -46 30 -73.5t71 -27.5q59 0 83 37h185q-29 -81 -101.5 -122.5t-165.5 -41.5q-128 0 -209.5 72t-81.5 199q0 116 76.5 195t197.5 79q295 0 295 -317zM344 574v130h170v-130h-170zM117 574v130h170
v-130h-170z" />
    <glyph glyph-name="igrave" unicode="&#xec;" horiz-adv-x="315" 
d="M256 0h-198v519h198v-519zM124 569l-171 149h208l100 -149h-137z" />
    <glyph glyph-name="iacute" unicode="&#xed;" horiz-adv-x="315" 
d="M256 0h-198v519h198v-519zM363 718l-172 -149h-136l99 149h209z" />
    <glyph glyph-name="icircumflex" unicode="&#xee;" horiz-adv-x="315" 
d="M256 0h-198v519h198v-519zM-45 569l121 149h164l122 -149h-147l-57 76l-56 -76h-147z" />
    <glyph glyph-name="idieresis" unicode="&#xef;" horiz-adv-x="315" 
d="M256 0h-198v519h198v-519zM187 574v130h170v-130h-170zM-40 574v130h170v-130h-170z" />
    <glyph glyph-name="eth" unicode="&#xf0;" horiz-adv-x="630" 
d="M314 131q86 0 86 121q0 116 -86 116q-84 0 -84 -116q0 -121 84 -121zM450 779l76 -77l-99 -53q171 -158 171 -351q0 -45 -7.5 -86t-27.5 -83t-51 -72.5t-82 -50t-116 -19.5q-135 0 -208.5 69t-73.5 192q0 68 25 119.5t63.5 77.5t76 38t72.5 12q59 0 95 -15l2 2
q-45 63 -88 89l-100 -53l-72 78l81 44q-16 20 -57 44l142 82q60 -42 70 -46z" />
    <glyph glyph-name="ntilde" unicode="&#xf1;" horiz-adv-x="648" 
d="M54 0v519h191v-66h2q56 79 169 79q75 0 126.5 -45.5t51.5 -130.5v-356h-198v272q0 52 -12.5 77t-52.5 25q-32 0 -55.5 -22t-23.5 -78v-274h-198zM128 569q-1 54 26.5 98t85.5 44q39 0 93 -20t59 -20q36 0 45 43h82q-2 -60 -32.5 -99.5t-83.5 -39.5q-40 0 -89 19
q-50 18 -66 18q-15 0 -26.5 -13.5t-14.5 -29.5h-79z" />
    <glyph glyph-name="ograve" unicode="&#xf2;" horiz-adv-x="630" 
d="M598 260q0 -116 -72.5 -194.5t-210.5 -78.5t-210.5 78.5t-72.5 194.5t72 194t211 78t211 -78t72 -194zM400 260q0 128 -85 128t-85 -128q0 -129 85 -129t85 129zM281 569l-171 149h208l100 -149h-137z" />
    <glyph glyph-name="oacute" unicode="&#xf3;" horiz-adv-x="630" 
d="M598 260q0 -116 -72.5 -194.5t-210.5 -78.5t-210.5 78.5t-72.5 194.5t72 194t211 78t211 -78t72 -194zM400 260q0 128 -85 128t-85 -128q0 -129 85 -129t85 129zM520 718l-172 -149h-136l99 149h209z" />
    <glyph glyph-name="ocircumflex" unicode="&#xf4;" horiz-adv-x="630" 
d="M598 260q0 -116 -72.5 -194.5t-210.5 -78.5t-210.5 78.5t-72.5 194.5t72 194t211 78t211 -78t72 -194zM400 260q0 128 -85 128t-85 -128q0 -129 85 -129t85 129zM112 569l121 149h164l122 -149h-147l-57 76l-56 -76h-147z" />
    <glyph glyph-name="otilde" unicode="&#xf5;" horiz-adv-x="630" 
d="M598 260q0 -116 -72.5 -194.5t-210.5 -78.5t-210.5 78.5t-72.5 194.5t72 194t211 78t211 -78t72 -194zM400 260q0 128 -85 128t-85 -128q0 -129 85 -129t85 129zM119 569q-1 54 26.5 98t85.5 44q39 0 93 -20t59 -20q36 0 45 43h82q-2 -60 -32.5 -99.5t-83.5 -39.5
q-40 0 -89 19q-50 18 -66 18q-15 0 -26.5 -13.5t-14.5 -29.5h-79z" />
    <glyph glyph-name="odieresis" unicode="&#xf6;" horiz-adv-x="630" 
d="M598 260q0 -116 -72.5 -194.5t-210.5 -78.5t-210.5 78.5t-72.5 194.5t72 194t211 78t211 -78t72 -194zM400 260q0 128 -85 128t-85 -128q0 -129 85 -129t85 129zM344 574v130h170v-130h-170zM117 574v130h170v-130h-170z" />
    <glyph glyph-name="divide" unicode="&#xf7;" horiz-adv-x="600" 
d="M48 176v153h505v-153h-505zM301 358q-42 0 -71.5 29.5t-29.5 71.5t29.5 71.5t71.5 30.5q42 -1 71.5 -30.5t29.5 -71.5t-29.5 -71.5t-71.5 -29.5zM301 147q42 0 71.5 -29.5t29.5 -71.5t-29.5 -71.5t-71.5 -30.5q-42 1 -71.5 30.5t-29.5 71.5t29.5 71.5t71.5 29.5z" />
    <glyph glyph-name="oslash" unicode="&#xf8;" horiz-adv-x="630" 
d="M395 314l-137 -159q19 -24 57 -24q85 0 85 129q0 30 -5 54zM236 202l138 160q-20 26 -59 26q-85 0 -85 -128q0 -36 6 -58zM534 546l35 -31l-48 -56q77 -76 77 -199q0 -116 -72.5 -194.5t-210.5 -78.5q-97 0 -166 42l-55 -64l-36 33l53 61q-79 75 -79 201q0 116 72 194
t211 78q100 0 169 -44z" />
    <glyph glyph-name="ugrave" unicode="&#xf9;" horiz-adv-x="648" 
d="M594 519v-519h-191v66h-2q-56 -79 -169 -79q-75 0 -126.5 45.5t-51.5 130.5v356h198v-272q0 -52 12.5 -77t52.5 -25q32 0 55.5 22t23.5 78v274h198zM290 569l-171 149h208l100 -149h-137z" />
    <glyph glyph-name="uacute" unicode="&#xfa;" horiz-adv-x="648" 
d="M594 519v-519h-191v66h-2q-56 -79 -169 -79q-75 0 -126.5 45.5t-51.5 130.5v356h198v-272q0 -52 12.5 -77t52.5 -25q32 0 55.5 22t23.5 78v274h198zM529 718l-172 -149h-136l99 149h209z" />
    <glyph glyph-name="ucircumflex" unicode="&#xfb;" horiz-adv-x="648" 
d="M594 519v-519h-191v66h-2q-56 -79 -169 -79q-75 0 -126.5 45.5t-51.5 130.5v356h198v-272q0 -52 12.5 -77t52.5 -25q32 0 55.5 22t23.5 78v274h198zM121 569l121 149h164l122 -149h-147l-57 76l-56 -76h-147z" />
    <glyph glyph-name="udieresis" unicode="&#xfc;" horiz-adv-x="648" 
d="M594 519v-519h-191v66h-2q-56 -79 -169 -79q-75 0 -126.5 45.5t-51.5 130.5v356h198v-272q0 -52 12.5 -77t52.5 -25q32 0 55.5 22t23.5 78v274h198zM353 574v130h170v-130h-170zM126 574v130h170v-130h-170z" />
    <glyph glyph-name="yacute" unicode="&#xfd;" horiz-adv-x="556" 
d="M571 519l-172 -479q-38 -111 -65 -144q-19 -23 -42 -37t-55 -19.5t-52 -6.5t-60 -1h-90v158h46q50 0 60 5q19 9 19 39q0 9 -12.5 46t-26.5 74.5t-30 79t-18 46.5l-88 239h212l83 -298h2l84 298h205zM483 718l-172 -149h-136l99 149h209z" />
    <glyph glyph-name="thorn" unicode="&#xfe;" horiz-adv-x="648" 
d="M245 259q0 -128 87 -128t87 128q0 129 -87 129t-87 -129zM54 -168v882h198v-252h2q48 70 142 70q62 0 107.5 -24.5t69 -65.5t34 -85.5t10.5 -94.5q0 -41 -6 -78t-22 -73.5t-40 -63.5t-63.5 -43.5t-89.5 -16.5q-94 0 -142 70h-2v-225h-198z" />
    <glyph glyph-name="ydieresis" unicode="&#xff;" horiz-adv-x="556" 
d="M571 519l-172 -479q-38 -111 -65 -144q-19 -23 -42 -37t-55 -19.5t-52 -6.5t-60 -1h-90v158h46q50 0 60 5q19 9 19 39q0 9 -12.5 46t-26.5 74.5t-30 79t-18 46.5l-88 239h212l83 -298h2l84 298h205zM307 574v130h170v-130h-170zM80 574v130h170v-130h-170z" />
    <glyph glyph-name="dotlessi" unicode="&#x131;" horiz-adv-x="315" 
d="M256 0h-198v519h198v-519z" />
    <glyph glyph-name="Lslash" unicode="&#x141;" horiz-adv-x="630" 
d="M57 0v201l-82 -57v130l82 57v383h220v-232l183 126v-130l-183 -126v-169h316v-183h-536z" />
    <glyph glyph-name="lslash" unicode="&#x142;" horiz-adv-x="315" 
d="M58 0v265l-60 -46v102l60 46v347h198v-194l60 46v-102l-60 -46v-418h-198z" />
    <glyph glyph-name="OE" unicode="&#x152;" horiz-adv-x="1130" 
d="M535 0v35q-24 -26 -72 -39t-92 -13q-149 0 -242 107.5t-93 259.5q0 158 94.5 269.5t249.5 111.5q100 0 155 -55v38h540v-183h-339v-89h310v-170h-310v-89h349v-183h-550zM534 362q0 54 -13.5 93.5t-30 57.5t-40 28t-33.5 11t-22 1q-11 0 -21 -1t-34 -11t-40.5 -28
t-30 -57.5t-13.5 -93.5q0 -56 13 -96.5t29 -60t39 -30.5t34.5 -12.5t23.5 -1.5t24 1.5t34.5 12.5t38.5 30.5t29 60t13 96.5z" />
    <glyph glyph-name="oe" unicode="&#x153;" horiz-adv-x="981" 
d="M576 318h187q-6 87 -91 87q-40 0 -67.5 -22.5t-28.5 -64.5zM406 259q0 129 -87 129q-89 0 -89 -129q0 -128 89 -128q87 0 87 128zM766 151h191q-31 -83 -103.5 -123.5t-172.5 -40.5q-120 0 -190 66q-63 -66 -187 -66t-198 71.5t-74 200.5q0 63 20 112.5t50 78.5t70 48.5
t75.5 26.5t70.5 7q121 0 183 -63q74 63 179 63q139 0 212 -88t68 -229h-384q0 -47 28.5 -74t76.5 -27q51 0 85 37z" />
    <glyph glyph-name="Scaron" unicode="&#x160;" horiz-adv-x="667" 
d="M12 240h220q0 -26 8 -47q19 -52 105 -52q35 0 63 15t28 50q0 26 -27.5 40t-126.5 42q-113 32 -154 56q-88 51 -88 151q0 116 83.5 176t204.5 60q61 0 111.5 -12.5t93 -38.5t67 -72.5t26.5 -109.5h-208q5 36 -26 57q-25 18 -65 18q-30 0 -54.5 -10.5t-24.5 -37.5
q1 -15 12 -26t34.5 -20t44 -14.5t58 -14.5t58.5 -15q43 -12 75 -26t62.5 -37.5t47 -59.5t16.5 -83q0 -67 -28.5 -116.5t-77.5 -76.5t-105 -40t-119 -13q-30 0 -64 4.5t-80.5 20.5t-82 42.5t-61 75.5t-26.5 114zM538 913l-122 -149h-164l-121 149h147l56 -76l57 76h147z" />
    <glyph glyph-name="scaron" unicode="&#x161;" horiz-adv-x="574" 
d="M534 368h-180q-1 24 -23 39q-18 15 -44 15q-60 0 -60 -40q0 -17 23 -27q15 -7 77 -17.5t97 -22.5q124 -39 124 -145q0 -52 -23 -89t-62.5 -57t-83.5 -28.5t-95 -8.5q-66 0 -121.5 17t-96 60t-41.5 106h189q1 -26 24 -46q17 -15 53 -15q24 0 45.5 10t21.5 30q0 23 -20 33
t-89 22q-113 19 -162.5 57.5t-49.5 105.5q0 47 23 81t61 51t78 25t83 8q46 0 86.5 -7.5t79 -24.5t61.5 -51t25 -81zM491 718l-122 -149h-164l-121 149h147l56 -76l57 76h147z" />
    <glyph glyph-name="Ydieresis" unicode="&#x178;" horiz-adv-x="667" 
d="M221 0v263l-251 451h243l119 -263l124 263h241l-256 -451v-263h-220zM363 769v130h170v-130h-170zM136 769v130h170v-130h-170z" />
    <glyph glyph-name="Zcaron" unicode="&#x17d;" horiz-adv-x="685" 
d="M24 0v172l332 359h-313v183h603v-160l-335 -371h351v-183h-638zM547 913l-122 -149h-164l-121 149h147l56 -76l57 76h147z" />
    <glyph glyph-name="zcaron" unicode="&#x17e;" horiz-adv-x="556" 
d="M17 0v153l243 222h-221v144h475v-152l-237 -223h258v-144h-518zM482 718l-122 -149h-164l-121 149h147l56 -76l57 76h147z" />
    <glyph glyph-name="florin" unicode="&#x192;" 
d="M3 -176l39 142q12 -3 22 -3q39 0 55.5 18t28.5 61l64 237h-95l34 122h95l32 119q28 104 82 157.5t153 53.5q55 0 112 -6l-38 -141q-21 3 -41 3q-49 0 -63 -47l-34 -139h95l-34 -122h-94l-73 -268q-30 -111 -87 -151.5t-175 -40.5q-13 0 -78 5z" />
    <glyph glyph-name="circumflex" unicode="&#x2c6;" horiz-adv-x="278" 
d="M-64 569l121 149h164l122 -149h-147l-57 76l-56 -76h-147z" />
    <glyph glyph-name="caron" unicode="&#x2c7;" horiz-adv-x="278" 
d="M343 718l-122 -149h-164l-121 149h147l56 -76l57 76h147z" />
    <glyph glyph-name="breve" unicode="&#x2d8;" horiz-adv-x="278" 
d="M243 722h78q-4 -74 -55.5 -113.5t-127.5 -39.5q-82 0 -130 39t-50 114h78q4 -32 37 -49t69 -17t65.5 16.5t35.5 49.5z" />
    <glyph glyph-name="dotaccent" unicode="&#x2d9;" horiz-adv-x="278" 
d="M54 574v130h170v-130h-170z" />
    <glyph glyph-name="ring" unicode="&#x2da;" horiz-adv-x="278" 
d="M26 666q0 46 33.5 79t79.5 33t79 -33t33 -79t-33 -79.5t-79 -33.5q-47 0 -80 33.5t-33 79.5zM86 666q0 -21 16 -37t37 -16t36.5 16t15.5 37q0 20 -16 36t-36 16q-21 0 -37 -15.5t-16 -36.5z" />
    <glyph glyph-name="ogonek" unicode="&#x2db;" horiz-adv-x="278" 
d="M164 -146h58q-20 -74 -113 -74q-51 0 -86 18.5t-35 57.5q0 32 30 65q37 41 88 79h73q-86 -74 -86 -127q0 -39 36 -39q28 0 35 20z" />
    <glyph glyph-name="tilde" unicode="&#x2dc;" horiz-adv-x="278" 
d="M-57 569q-1 54 26.5 98t85.5 44q39 0 93 -20t59 -20q36 0 45 43h82q-2 -60 -32.5 -99.5t-83.5 -39.5q-40 0 -89 19q-50 18 -66 18q-15 0 -26.5 -13.5t-14.5 -29.5h-79z" />
    <glyph glyph-name="hungarumlaut" unicode="&#x2dd;" horiz-adv-x="278" 
d="M-70 569l99 149h169l-158 -149h-110zM155 569l99 149h169l-158 -149h-110z" />
    <glyph glyph-name="endash" unicode="&#x2013;" horiz-adv-x="500" 
d="M0 188v158h500v-158h-500z" />
    <glyph glyph-name="emdash" unicode="&#x2014;" horiz-adv-x="1000" 
d="M130 188v158h740v-158h-740z" />
    <glyph glyph-name="quoteleft" unicode="&#x2018;" horiz-adv-x="296" 
d="M56 335v164q0 44 6.5 75.5t25 62t56.5 50t96 27.5v-87q-80 -10 -82 -94h82v-198h-184z" />
    <glyph glyph-name="quoteright" unicode="&#x2019;" horiz-adv-x="296" 
d="M240 714v-164q0 -44 -6.5 -75.5t-25 -62t-56.5 -50t-96 -27.5v87q80 10 82 94h-82v198h184z" />
    <glyph glyph-name="quotesinglbase" unicode="&#x201a;" horiz-adv-x="296" 
d="M240 198v-164q0 -44 -6.5 -75.5t-25 -62t-56.5 -50t-96 -27.5v87q80 10 82 94h-82v198h184z" />
    <glyph glyph-name="quotedblleft" unicode="&#x201c;" horiz-adv-x="519" 
d="M290 335v164q0 44 6.5 75.5t25 62t56.5 50t96 27.5v-87q-80 -10 -82 -94h82v-198h-184zM46 335v164q0 44 6.5 75.5t25 62t56.5 50t96 27.5v-87q-80 -10 -82 -94h82v-198h-184z" />
    <glyph glyph-name="quotedblright" unicode="&#x201d;" horiz-adv-x="519" 
d="M474 714v-164q0 -44 -6.5 -75.5t-25 -62t-56.5 -50t-96 -27.5v87q80 10 82 94h-82v198h184zM230 714v-164q0 -44 -6.5 -75.5t-25 -62t-56.5 -50t-96 -27.5v87q80 10 82 94h-82v198h184z" />
    <glyph glyph-name="quotedblbase" unicode="&#x201e;" horiz-adv-x="519" 
d="M474 198v-164q0 -44 -6.5 -75.5t-25 -62t-56.5 -50t-96 -27.5v87q80 10 82 94h-82v198h184zM230 198v-164q0 -44 -6.5 -75.5t-25 -62t-56.5 -50t-96 -27.5v87q80 10 82 94h-82v198h184z" />
    <glyph glyph-name="dagger" unicode="&#x2020;" horiz-adv-x="667" 
d="M235 -174v545h-175v158h175v185h198v-185h175v-158h-175v-545h-198z" />
    <glyph glyph-name="daggerdbl" unicode="&#x2021;" horiz-adv-x="667" 
d="M235 -174v187h-175v158h175v200h-175v158h175v185h198v-185h175v-158h-175v-200h175v-158h-175v-187h-198z" />
    <glyph glyph-name="bullet" unicode="&#x2022;" horiz-adv-x="500" 
d="M72 357q0 74 52 126t126 52t126.5 -52t52.5 -126t-52.5 -126.5t-126.5 -52.5t-126 52.5t-52 126.5z" />
    <glyph glyph-name="ellipsis" unicode="&#x2026;" horiz-adv-x="1000" 
d="M271 0h-208v198h208v-198zM937 0h-208v198h208v-198zM604 0h-208v198h208v-198z" />
    <glyph glyph-name="perthousand" unicode="&#x2030;" horiz-adv-x="1167" 
d="M149 -26l410 748h110l-410 -748h-110zM466 166q0 77 36.5 125t108.5 48t108.5 -48t36.5 -125q0 -78 -36.5 -126t-108.5 -48t-108.5 48t-36.5 126zM570 165q0 -19 0.5 -28.5t4 -26t12.5 -24t24 -7.5t24 7.5t12.5 24t4 26t0.5 28.5t-0.5 28.5t-4 26t-12.5 24.5t-24 8
t-24 -8t-12.5 -24.5t-4 -26t-0.5 -28.5zM915 165q0 -19 0.5 -28.5t4 -26t12.5 -24t24 -7.5t24 7.5t12.5 24t4 26t0.5 28.5t-0.5 28.5t-4 26t-12.5 24.5t-24 8t-24 -8t-12.5 -24.5t-4 -26t-0.5 -28.5zM811 166q0 77 36.5 125t108.5 48t108.5 -48t36.5 -125q0 -78 -36.5 -126
t-108.5 -48t-108.5 48t-36.5 126zM65 531q0 77 36.5 125t108.5 48t108.5 -48t36.5 -125q0 -78 -36.5 -126t-108.5 -48t-108.5 48t-36.5 126zM169 530q0 -19 0.5 -28.5t4 -26t12.5 -24t24 -7.5t24 7.5t12.5 24t4 26t0.5 28.5t-0.5 28.5t-4 26t-12.5 24.5t-24 8t-24 -8
t-12.5 -24.5t-4 -26t-0.5 -28.5z" />
    <glyph glyph-name="guilsinglleft" unicode="&#x2039;" horiz-adv-x="241" 
d="M202 48l-163 129v177l163 129v-157l-77 -61l77 -60v-157z" />
    <glyph glyph-name="guilsinglright" unicode="&#x203a;" horiz-adv-x="241" 
d="M39 483l163 -129v-177l-163 -129v157l77 60l-77 61v157z" />
    <glyph glyph-name="fraction" unicode="&#x2044;" horiz-adv-x="167" 
d="M-165 -26l388 748h110l-388 -748h-110z" />
    <glyph glyph-name="fraction" unicode="&#x2215;" horiz-adv-x="167" 
d="M-165 -26l388 748h110l-388 -748h-110z" />
    <glyph glyph-name="Euro" unicode="&#x20ac;" 
d="M610 662v-145q-49 49 -159 49q-141 0 -168 -109h285l-36 -88h-260q-2 -12 -2 -24q0 -15 2 -29h238l-36 -88h-187q27 -98 164 -98q51 0 93.5 14t65.5 34v-146q-58 -39 -181 -39q-275 0 -322 235h-90l36 88h45q-1 8 -1 28q0 17 1 25h-81l36 88h53q55 247 323 247
q62 0 110.5 -13t70.5 -29z" />
    <glyph glyph-name="trademark" unicode="&#x2122;" horiz-adv-x="1000" 
d="M376 714v-94h-104v-318h-136v318h-104v94h344zM968 714v-412h-124v230h-2l-75 -230h-104l-75 230h-2v-230h-124v412h172l80 -239h2l80 239h172z" />
    <glyph glyph-name="minus" unicode="&#x2212;" horiz-adv-x="600" 
d="M48 176v153h505v-153h-505z" />
    <glyph glyph-name="fi" unicode="&#xfb01;" horiz-adv-x="704" 
d="M447 0v519h198v-519h-198zM645 714v-139h-198v139h198zM87 0v397h-81v122h81q-4 101 41 146q30 30 68.5 39.5t104.5 9.5q17 0 48 -2t41 -2v-136q-4 0 -21.5 3.5t-26.5 3.5q-36 0 -49.5 -13t-11.5 -49h104v-122h-100v-397h-198z" />
    <glyph glyph-name="fl" unicode="&#xfb02;" horiz-adv-x="704" 
d="M447 0v714h198v-714h-198zM87 0v397h-81v122h81q-4 101 41 146q30 30 68.5 39.5t104.5 9.5q17 0 48 -2t41 -2v-136q-22 7 -48 7q-36 0 -49.5 -13t-11.5 -49h104v-122h-100v-397h-198z" />
    <hkern u1="A" u2="&#x2019;" k="74" />
    <hkern u1="A" u2="y" k="18" />
    <hkern u1="A" u2="w" k="18" />
    <hkern u1="A" u2="v" k="18" />
    <hkern u1="A" u2="Y" k="74" />
    <hkern u1="A" u2="W" k="37" />
    <hkern u1="A" u2="V" k="30" />
    <hkern u1="A" u2="T" k="68" />
    <hkern u1="F" u2="A" k="55" />
    <hkern u1="F" u2="&#x2e;" k="129" />
    <hkern u1="F" u2="&#x2c;" k="129" />
    <hkern u1="L" u2="&#x2019;" k="111" />
    <hkern u1="L" u2="y" k="37" />
    <hkern u1="L" u2="Y" k="111" />
    <hkern u1="L" u2="W" k="55" />
    <hkern u1="L" u2="V" k="92" />
    <hkern u1="L" u2="T" k="129" />
    <hkern u1="P" u2="A" k="74" />
    <hkern u1="P" u2="&#x2e;" k="129" />
    <hkern u1="P" u2="&#x2c;" k="129" />
    <hkern u1="R" u2="Y" k="37" />
    <hkern u1="R" u2="W" k="18" />
    <hkern u1="R" u2="V" k="4" />
    <hkern u1="R" u2="T" k="18" />
    <hkern u1="T" u2="y" k="111" />
    <hkern u1="T" u2="w" k="111" />
    <hkern u1="T" u2="u" k="92" />
    <hkern u1="T" u2="s" k="111" />
    <hkern u1="T" u2="r" k="92" />
    <hkern u1="T" u2="o" k="111" />
    <hkern u1="T" u2="e" k="111" />
    <hkern u1="T" u2="c" k="111" />
    <hkern u1="T" u2="a" k="111" />
    <hkern u1="T" u2="A" k="74" />
    <hkern u1="T" u2="&#x3b;" k="87" />
    <hkern u1="T" u2="&#x3a;" k="87" />
    <hkern u1="T" u2="&#x2e;" k="111" />
    <hkern u1="T" u2="&#x2d;" k="129" />
    <hkern u1="T" u2="&#x2c;" k="111" />
    <hkern u1="V" u2="y" k="18" />
    <hkern u1="V" u2="u" k="37" />
    <hkern u1="V" u2="r" k="37" />
    <hkern u1="V" u2="o" k="55" />
    <hkern u1="V" u2="i" k="18" />
    <hkern u1="V" u2="e" k="55" />
    <hkern u1="V" u2="a" k="55" />
    <hkern u1="V" u2="A" k="55" />
    <hkern u1="V" u2="&#x3b;" k="50" />
    <hkern u1="V" u2="&#x3a;" k="50" />
    <hkern u1="V" u2="&#x2e;" k="105" />
    <hkern u1="V" u2="&#x2d;" k="55" />
    <hkern u1="V" u2="&#x2c;" k="129" />
    <hkern u1="W" u2="u" k="18" />
    <hkern u1="W" u2="r" k="18" />
    <hkern u1="W" u2="o" k="37" />
    <hkern u1="W" u2="e" k="37" />
    <hkern u1="W" u2="a" k="37" />
    <hkern u1="W" u2="A" k="55" />
    <hkern u1="W" u2="&#x3b;" k="18" />
    <hkern u1="W" u2="&#x3a;" k="18" />
    <hkern u1="W" u2="&#x2e;" k="74" />
    <hkern u1="W" u2="&#x2c;" k="74" />
    <hkern u1="Y" u2="v" k="55" />
    <hkern u1="Y" u2="u" k="74" />
    <hkern u1="Y" u2="q" k="92" />
    <hkern u1="Y" u2="p" k="74" />
    <hkern u1="Y" u2="o" k="92" />
    <hkern u1="Y" u2="i" k="13" />
    <hkern u1="Y" u2="e" k="92" />
    <hkern u1="Y" u2="a" k="92" />
    <hkern u1="Y" u2="A" k="74" />
    <hkern u1="Y" u2="&#x3b;" k="80" />
    <hkern u1="Y" u2="&#x3a;" k="92" />
    <hkern u1="Y" u2="&#x2e;" k="111" />
    <hkern u1="Y" u2="&#x2d;" k="111" />
    <hkern u1="Y" u2="&#x2c;" k="111" />
    <hkern u1="f" u2="&#x2019;" k="-18" />
    <hkern u1="f" u2="f" k="18" />
    <hkern u1="r" u2="y" k="-10" />
    <hkern u1="r" u2="w" k="-10" />
    <hkern u1="r" u2="v" k="-10" />
    <hkern u1="r" u2="q" k="18" />
    <hkern u1="r" u2="o" k="18" />
    <hkern u1="r" u2="n" k="-18" />
    <hkern u1="r" u2="e" k="18" />
    <hkern u1="r" u2="d" k="18" />
    <hkern u1="r" u2="c" k="18" />
    <hkern u1="r" u2="&#x2e;" k="92" />
    <hkern u1="r" u2="&#x2d;" k="55" />
    <hkern u1="r" u2="&#x2c;" k="92" />
    <hkern u1="v" u2="&#x2e;" k="60" />
    <hkern u1="v" u2="&#x2c;" k="60" />
    <hkern u1="w" u2="&#x2e;" k="55" />
    <hkern u1="w" u2="&#x2c;" k="55" />
    <hkern u1="y" u2="&#x2e;" k="92" />
    <hkern u1="y" u2="&#x2c;" k="92" />
    <hkern u1="&#x2018;" u2="&#x2018;" k="52" />
    <hkern u1="&#x2019;" u2="&#x2019;" k="52" />
    <hkern u1="&#x2019;" u2="t" k="18" />
    <hkern u1="&#x2019;" u2="s" k="74" />
  </font>
</defs></svg>
