<svg width="27px" height="26px" viewBox="-1 0 27 26" version="1.1" xmlns="http://www.w3.org/2000/svg" xmlns:xlink="http://www.w3.org/1999/xlink">
    <g id="Group-5" stroke="none" stroke-width="1" fill="none" fill-rule="evenodd">
        <path d="M25.2523478,9.1681681 C25.2512609,9.16385776 25.2508261,9.15976293 25.2497391,9.15545259 C25.2477826,9.14747845 25.2466957,9.1405819 25.2447391,9.13260776 C23.4812609,4.39101293 18.8723478,1.00006466 13.4786522,1.00006466 C6.568,1.00006466 0.999956522,6.56644397 0.999956522,13.4086853 C0.999956522,20.2507112 6.568,25.8170905 13.4786522,25.8170905 C18.8049565,25.8170905 23.3656087,22.5108405 25.1771304,17.8623491 C25.1771304,17.8623491 25.383,17.1774353 24.7151739,16.9134267 C24.088,16.6653664 23.7784348,17.154806 23.6843043,17.348125 C22.0884348,21.3849784 18.1156087,24.2520043 13.4786522,24.2520043 C7.43865217,24.2520043 2.57886957,19.3875647 2.57886957,13.4086853 C2.57886957,7.42959052 7.43865217,2.56536638 13.4786522,2.56536638 C18.7771304,2.56536638 23.2086522,6.30825431 24.2173478,11.2634267 C24.2464783,11.448125 24.2638696,11.5629957 24.2847391,11.7181681 C24.4366957,12.8390733 23.4451739,12.7886422 23.4451739,12.7886422 C23.4451739,12.7886422 21.6095217,12.7744181 21.4897391,12.7744181 C19.4577826,12.7744181 19.1608261,14.5554526 19.1608261,14.5554526 L18.8932174,16.0718319 L18.8962609,16.0737716 L18.6510435,17.3629957 L18.6473478,17.3834698 C18.6399565,17.4261422 18.5084348,18.4270043 17.7286522,18.4323922 C17.0362609,18.429806 16.8932174,17.729375 16.8084348,17.3890733 L16.1310435,14.123125 L16.129087,14.123556 L15.9912609,13.4582543 C15.969087,13.3308836 15.8727826,12.861056 15.586913,12.386056 C15.1232174,11.6153664 14.3834348,11.1899353 13.5032174,11.1867026 L13.5032174,11.1864871 L13.498,11.1864871 L13.4932174,11.1864871 L13.4932174,11.1867026 C11.8123478,11.1925216 11.1323478,12.6580388 11.0023478,13.4552371 L10.9012609,13.9401509 L10.8986522,13.9397198 L10.199087,17.3050216 L10.1923478,17.342306 C10.1847391,17.3867026 10.0766957,18.4384267 9.26995652,18.4319612 C8.54908696,18.4183836 8.44343478,17.6701078 8.3656087,17.3890733 L7.688,14.123125 L7.68604348,14.123556 L7.54843478,13.4582543 C7.52626087,13.3308836 7.42973913,12.861056 7.14386957,12.386056 C6.67865217,11.6123491 5.93517391,11.2313147 5.0503913,11.2313147 L5.0503913,11.2315302 L5.0453913,11.2313147 C4.60952174,11.2313147 4.25604348,11.5817457 4.25604348,12.0138578 C4.25604348,12.4459698 4.60952174,12.7964009 5.0453913,12.7964009 L5.0503913,12.7961853 L5.0503913,12.7970474 C5.75365217,12.7970474 5.92082609,13.5748491 5.94604348,13.7239871 L6.4506087,16.1655819 L6.45365217,16.1649353 L6.76365217,17.6573922 C6.90169565,18.4916595 7.5953913,20.029375 9.268,20.0427371 L9.268,20.0427371 L9.26886957,20.0427371 C9.27582609,20.0427371 9.28256522,20.0431681 9.28952174,20.0431681 L9.28952174,20.0420905 C10.9634348,20.0285129 11.6562609,18.4623491 11.794087,17.6112716 L11.9553913,16.835625 L11.9575652,16.836056 L12.5973478,13.7619181 L12.6049565,13.7192457 C12.6106087,13.6817457 12.7534348,12.8009267 13.4984348,12.7970474 C14.1971304,12.8009267 14.3638696,13.5752802 14.389087,13.7239871 L14.8934348,16.1655819 L14.8964783,16.1649353 L15.2064783,17.6573922 C15.3449565,18.4935991 16.0414783,20.0369181 17.7225652,20.0429526 L17.7225652,20.0431681 L17.7258261,20.0431681 L17.7325652,20.0431681 L17.7325652,20.0429526 C19.4182174,20.0369181 20.1138696,18.4847629 20.2495217,17.6500647 L20.5843043,15.8920905 C20.5862609,15.8821767 20.588,15.8718319 20.5899565,15.8617026 L20.6799565,15.3888578 C20.9825652,14.3392888 21.8988696,14.3722629 21.8988696,14.3722629 L22.454087,14.3722629 L23.3947391,14.3722629 C25.5723478,14.3722629 25.8599565,12.385194 25.8599565,12.385194 C25.963,11.129806 25.4295217,9.62635776 25.2523478,9.1681681" id="Fill-1" fill="#328555"></path>
        <path d="M24.2523478,8.1681681 C24.2512609,8.16385776 24.2508261,8.15976293 24.2497391,8.15545259 C24.2477826,8.14747845 24.2466957,8.1405819 24.2447391,8.13260776 C22.4812609,3.39101293 17.8723478,6.46551725e-05 12.4786522,6.46551725e-05 C5.568,6.46551725e-05 -4.34782609e-05,5.56644397 -4.34782609e-05,12.4086853 C-4.34782609e-05,19.2507112 5.568,24.8170905 12.4786522,24.8170905 C17.8049565,24.8170905 22.3656087,21.5108405 24.1771304,16.8623491 C24.1771304,16.8623491 24.383,16.1774353 23.7151739,15.9134267 C23.088,15.6653664 22.7784348,16.154806 22.6843043,16.348125 C21.0884348,20.3849784 17.1156087,23.2520043 12.4786522,23.2520043 C6.43865217,23.2520043 1.57886957,18.3875647 1.57886957,12.4086853 C1.57886957,6.42959052 6.43865217,1.56536638 12.4786522,1.56536638 C17.7771304,1.56536638 22.2086522,5.30825431 23.2173478,10.2634267 C23.2464783,10.448125 23.2638696,10.5629957 23.2847391,10.7181681 C23.4366957,11.8390733 22.4451739,11.7886422 22.4451739,11.7886422 C22.4451739,11.7886422 20.6095217,11.7744181 20.4897391,11.7744181 C18.4577826,11.7744181 18.1608261,13.5554526 18.1608261,13.5554526 L17.8932174,15.0718319 L17.8962609,15.0737716 L17.6510435,16.3629957 L17.6473478,16.3834698 C17.6399565,16.4261422 17.5084348,17.4270043 16.7286522,17.4323922 C16.0362609,17.429806 15.8932174,16.729375 15.8084348,16.3890733 L15.1310435,13.123125 L15.129087,13.123556 L14.9912609,12.4582543 C14.969087,12.3308836 14.8727826,11.861056 14.586913,11.386056 C14.1232174,10.6153664 13.3834348,10.1899353 12.5032174,10.1867026 L12.5032174,10.1864871 L12.498,10.1864871 L12.4932174,10.1864871 L12.4932174,10.1867026 C10.8123478,10.1925216 10.1323478,11.6580388 10.0023478,12.4552371 L9.90126087,12.9401509 L9.89865217,12.9397198 L9.19908696,16.3050216 L9.19234783,16.342306 C9.18473913,16.3867026 9.07669565,17.4384267 8.26995652,17.4319612 C7.54908696,17.4183836 7.44343478,16.6701078 7.3656087,16.3890733 L6.688,13.123125 L6.68604348,13.123556 L6.54843478,12.4582543 C6.52626087,12.3308836 6.42973913,11.861056 6.14386957,11.386056 C5.67865217,10.6123491 4.93517391,10.2313147 4.0503913,10.2313147 L4.0503913,10.2315302 L4.0453913,10.2313147 C3.60952174,10.2313147 3.25604348,10.5817457 3.25604348,11.0138578 C3.25604348,11.4459698 3.60952174,11.7964009 4.0453913,11.7964009 L4.0503913,11.7961853 L4.0503913,11.7970474 C4.75365217,11.7970474 4.92082609,12.5748491 4.94604348,12.7239871 L5.4506087,15.1655819 L5.45365217,15.1649353 L5.76365217,16.6573922 C5.90169565,17.4916595 6.5953913,19.029375 8.268,19.0427371 L8.268,19.0427371 L8.26886957,19.0427371 C8.27582609,19.0427371 8.28256522,19.0431681 8.28952174,19.0431681 L8.28952174,19.0420905 C9.96343478,19.0285129 10.6562609,17.4623491 10.794087,16.6112716 L10.9553913,15.835625 L10.9575652,15.836056 L11.5973478,12.7619181 L11.6049565,12.7192457 C11.6106087,12.6817457 11.7534348,11.8009267 12.4984348,11.7970474 C13.1971304,11.8009267 13.3638696,12.5752802 13.389087,12.7239871 L13.8934348,15.1655819 L13.8964783,15.1649353 L14.2064783,16.6573922 C14.3449565,17.4935991 15.0414783,19.0369181 16.7225652,19.0429526 L16.7225652,19.0431681 L16.7258261,19.0431681 L16.7325652,19.0431681 L16.7325652,19.0429526 C18.4182174,19.0369181 19.1138696,17.4847629 19.2495217,16.6500647 L19.5843043,14.8920905 C19.5862609,14.8821767 19.588,14.8718319 19.5899565,14.8617026 L19.6799565,14.3888578 C19.9825652,13.3392888 20.8988696,13.3722629 20.8988696,13.3722629 L21.454087,13.3722629 L22.3947391,13.3722629 C24.5723478,13.3722629 24.8599565,11.385194 24.8599565,11.385194 C24.963,10.129806 24.4295217,8.62635776 24.2523478,8.1681681" id="Fill-1" fill="#FEFEFE"></path>
    </g>
</svg>