<svg width="26px" height="19px" viewBox="0 0 26 19" version="1.1" xmlns="http://www.w3.org/2000/svg" xmlns:xlink="http://www.w3.org/1999/xlink">
    <g id="Carrinho" stroke="none" stroke-width="1" fill="none" fill-rule="evenodd">
        <g id="Carrinho---Meu-Carrinho" transform="translate(-318.000000, -1124.000000)" stroke-width="2" stroke="#50D287">
            <g id="VOUCHER" transform="translate(0.000000, 1071.000000)">
                <g id="text-field-+-counter" transform="translate(16.000000, 17.000000)">
                    <g id="text-field">
                        <polyline id="Page-1" points="303 44.6157278 311.194273 52.8100004 327.004985 37"></polyline>
                    </g>
                </g>
            </g>
        </g>
    </g>
</svg>