<svg width="14px" height="14px" viewBox="0 0 14 14" version="1.1" xmlns="http://www.w3.org/2000/svg" xmlns:xlink="http://www.w3.org/1999/xlink">
    <g id="Carrinho" stroke="none" stroke-width="1" fill="none" fill-rule="evenodd">
        <g id="Carrinho---Meu-Carrinho" transform="translate(-333.000000, -154.000000)" fill="#CF0A2C">
            <g id="Produto-carrinho" transform="translate(0.000000, 136.000000)">
                <polygon id="Shape" points="347 19.4 345.6 18 340 23.6 334.4 18 333 19.4 338.6 25 333 30.6 334.4 32 340 26.4 345.6 32 347 30.6 341.4 25"></polygon>
            </g>
        </g>
    </g>
</svg>