<svg width="19px" height="20px" viewBox="0 0 19 20" version="1.1" xmlns="http://www.w3.org/2000/svg" xmlns:xlink="http://www.w3.org/1999/xlink">
    <g id="Perfil" stroke="none" stroke-width="1" fill="none" fill-rule="evenodd">
        <g id="Perfil---Perfil" transform="translate(-16.000000, -593.000000)" fill="#D72E2E">
            <g id="Group-3-Copy-3" transform="translate(0.000000, 460.000000)">
                <g id="Group-Copy" transform="translate(0.000000, 89.000000)">
                    <g id="Group-2">
                        <path d="M25.0658824,62.5992157 L19.8533333,62.5992157 C18.5121569,62.5992157 17.4196078,61.5215686 17.4196078,60.1984314 L17.4196078,47.8 C17.4235294,46.4737255 18.5121569,45.4 19.8533333,45.4 L25.1521569,45.4 C25.5458824,45.4 25.865098,45.0854902 25.865098,44.7019608 C25.865098,44.3145098 25.5458824,44 25.1521569,44 L19.8533333,44 C17.7301961,44 16,45.7058824 16,47.8 L16,60.1984314 C16,62.2933333 17.7301961,64 19.8533333,64 L25.0658824,64 C25.4588235,64 25.7772549,63.6854902 25.7772549,63.3019608 C25.7772549,62.9137255 25.4588235,62.5992157 25.0658824,62.5992157 M34.8188235,53.9286275 C34.8188235,53.9121569 34.814902,53.8956863 34.8101961,53.8792157 C34.8101961,53.8713725 34.8101961,53.867451 34.8062745,53.8588235 C34.8023529,53.8384314 34.7984314,53.8219608 34.7945098,53.8015686 C34.7945098,53.7976471 34.7945098,53.7937255 34.7898039,53.7937255 C34.7858824,53.7733333 34.7772549,53.7568627 34.7694118,53.7364706 C34.7694118,53.732549 34.7694118,53.732549 34.7647059,53.7278431 C34.7568627,53.7113725 34.7482353,53.6917647 34.7403922,53.6752941 C34.7403922,53.6713725 34.7356863,53.667451 34.7356863,53.667451 C34.7278431,53.6501961 34.72,53.6345098 34.7066667,53.6180392 C34.7035294,53.6133333 34.7035294,53.6101961 34.6988235,53.6054902 C34.6862745,53.5898039 34.6784314,53.5733333 34.6658824,53.5607843 C34.6611765,53.5568627 34.6611765,53.5568627 34.6572549,53.5521569 C34.6407843,53.5364706 34.6282353,53.5160784 34.6078431,53.4996078 L30.5137255,49.4658824 C30.2360784,49.1921569 29.785098,49.1921569 29.507451,49.4658824 C29.2305882,49.7396078 29.2305882,50.1843137 29.507451,50.4580392 L32.3882353,53.2996078 L20.9341176,53.2996078 C20.5411765,53.2996078 20.2219608,53.6133333 20.2219608,53.9976471 C20.2219608,54.385098 20.5411765,54.6996078 20.9341176,54.6996078 L32.3929412,54.6996078 L29.532549,57.5207843 C29.254902,57.7945098 29.254902,58.2392157 29.532549,58.5129412 C29.6690196,58.6478431 29.8509804,58.7168627 30.0329412,58.7168627 C30.2156863,58.7168627 30.3976471,58.6478431 30.5333333,58.5129412 L34.6039216,54.4996078 C34.6243137,54.4752941 34.6407843,54.4596078 34.6572549,54.4431373 C34.6611765,54.4384314 34.6611765,54.4384314 34.6658824,54.4345098 C34.6784314,54.4180392 34.6909804,54.4062745 34.6988235,54.3898039 C34.7035294,54.385098 34.7035294,54.3811765 34.7066667,54.3772549 C34.7152941,54.3607843 34.7278431,54.345098 34.7356863,54.3286275 C34.7356863,54.3247059 34.7403922,54.32 34.7403922,54.32 C34.7482353,54.3035294 34.7568627,54.2870588 34.7647059,54.2666667 C34.7647059,54.2627451 34.7647059,54.2627451 34.7694118,54.2588235 C34.7772549,54.2423529 34.7827451,54.2219608 34.7898039,54.2015686 C34.7898039,54.1976471 34.7898039,54.1937255 34.7945098,54.1937255 C34.7984314,54.172549 34.8062745,54.1568627 34.8062745,54.1364706 C34.8062745,54.1286275 34.8062745,54.1239216 34.8101961,54.1160784 C34.814902,54.0996078 34.814902,54.0831373 34.8188235,54.067451 C34.8227451,54.0423529 34.8227451,54.0219608 34.8227451,53.9976471 C34.8227451,53.9733333 34.8227451,53.9529412 34.8188235,53.9286275" id="Fill-1"></path>
                    </g>
                </g>
            </g>
        </g>
    </g>
</svg>