<svg width="27px" height="27px" viewBox="0 0 27 27" version="1.1" xmlns="http://www.w3.org/2000/svg" xmlns:xlink="http://www.w3.org/1999/xlink">
    <g id="Home" stroke="none" stroke-width="1" fill="none" fill-rule="evenodd">
        <g id="Home---Tela-inicial" transform="translate(-18.000000, -476.000000)" fill="#FFFFFF">
            <g id="Group" transform="translate(0.000000, 442.000000)">
                <path d="M36.5184791,46.8280077 L32.1118911,46.8280077 L32.1118911,42.4011594 C32.1118911,42.0263462 31.8095469,41.7232228 31.4370714,41.7232228 C31.0630374,41.7232228 30.7614725,42.0263462 30.7614725,42.4011594 L30.7614725,46.8280077 L26.3541052,46.8280077 C25.9800712,46.8280077 25.6785063,47.131131 25.6785063,47.4997104 C25.6785063,47.8753029 25.9800712,48.1784262 26.3541052,48.1784262 L30.7614725,48.1784262 L30.7614725,52.6044952 C30.7614725,52.9800877 31.0630374,53.2824318 31.4370714,53.2824318 C31.8095469,53.2824318 32.1118911,52.9800877 32.1118911,52.6044952 L32.1118911,48.1784262 L36.5184791,48.1784262 C36.8917339,48.1784262 37.1932988,47.8753029 37.1932988,47.4997104 C37.1932988,47.1256764 36.8917339,46.8280077 36.5184791,46.8280077 L36.5184791,46.8280077 Z M43.5386297,58.1557831 C43.5386297,58.9770995 42.8692647,59.6495814 42.0510653,59.6495814 L20.8324283,59.6495814 C20.0142289,59.6495814 19.3440847,58.9770995 19.3440847,58.1557831 L19.3440847,36.8444169 C19.3440847,36.0231005 20.0142289,35.3506186 20.8324283,35.3506186 L42.0510653,35.3506186 C42.8692647,35.3506186 43.5386297,36.0231005 43.5386297,36.8444169 L43.5386297,58.1557831 Z M42.0510653,34.0002 L20.8324283,34.0002 C19.2677194,34.0002 17.9999,35.279708 17.9999,36.8444169 L17.9999,58.1557831 C17.9999,59.7267259 19.2731741,61 20.8324283,61 L42.0510653,61 C43.614995,61 44.8828144,59.7212713 44.8828144,58.1557831 L44.8828144,36.8444169 C44.8828144,35.279708 43.6095403,34.0002 42.0510653,34.0002 L42.0510653,34.0002 Z" id="Fill-1"></path>
            </g>
        </g>
    </g>
</svg>