<svg  viewBox="0 0 20 20" version="1.1" xmlns="http://www.w3.org/2000/svg" xmlns:xlink="http://www.w3.org/1999/xlink">
    <g id="Produtos" stroke="none" stroke-width="1" fill="none" fill-rule="evenodd">
        <g id="Produtos---Lista-produtos-Single" transform="translate(-323.000000, -495.000000)" fill="#221F20">
            <g id="Page-1" transform="translate(323.000000, 495.000000)">
                <g id="icon-select" transform="translate(0.000000, 0.360722)">
                    <path d="M18.2076111,17.4166667 C18.2076111,18.0022222 17.7303889,18.4816667 17.1470556,18.4816667 L2.01927778,18.4816667 C1.43594444,18.4816667 0.958722222,18.0022222 0.958722222,17.4166667 L0.958722222,2.22277778 C0.958722222,1.63722222 1.43594444,1.15722222 2.01927778,1.15722222 L17.1470556,1.15722222 C17.7303889,1.15722222 18.2076111,1.63722222 18.2076111,2.22277778 L18.2076111,17.4166667 Z M17.1470556,0.195 L2.01927778,0.195 C0.904277778,0.195 -0.000166666667,1.10722222 -0.000166666667,2.22277778 L-0.000166666667,17.4166667 C-0.000166666667,18.5366667 0.907611111,19.4444444 2.01927778,19.4444444 L17.1470556,19.4444444 C18.2626111,19.4444444 19.1665,18.5327778 19.1665,17.4166667 L19.1665,2.22277778 C19.1665,1.10722222 18.2581667,0.195 17.1470556,0.195 L17.1470556,0.195 Z" id="Fill-1"></path>
                    <path d="M14.0043333,7.96788889 C13.8154444,7.779 13.5132222,7.78066667 13.3248889,7.969 L12.3132222,8.98066667 L12.1526667,9.14122222 L9.58711111,11.7067778 L8.91211111,11.0328889 L8.75155556,10.8723333 L5.84877778,7.969 C5.66044444,7.78066667 5.356,7.78177778 5.16933333,7.96788889 C4.98044444,8.15677778 4.97933333,8.46177778 5.16822222,8.65011111 L8.07044444,11.5528889 L8.36655556,11.8484444 L9.24266667,12.7251111 C9.33822222,12.8195556 9.46266667,12.8662222 9.58655556,12.8651111 C9.711,12.8662222 9.836,12.8195556 9.931,12.7251111 L12.8337778,9.82233333 L13.1293333,9.52677778 L14.006,8.65011111 C14.1943333,8.46177778 14.1932222,8.15733333 14.0043333,7.96788889" id="Fill-4"></path>
                </g>
            </g>
        </g>
    </g>
</svg>