<svg width="17px" height="20px" viewBox="0 0 17 20" version="1.1" xmlns="http://www.w3.org/2000/svg" xmlns:xlink="http://www.w3.org/1999/xlink">
    <g id="Produtos" stroke="none" stroke-width="1" fill="none" fill-rule="evenodd">
        <g id="Produtos---Sem-endereço" transform="translate(-20.000000, -554.000000)" fill="#000000">
            <g id="list" transform="translate(0.000000, 536.000000)">
                <g id="row">
                    <g id="Page-1" transform="translate(20.000000, 18.000000)">
                        <path d="M8.07121662,0.949554896 C4.14433234,0.949554896 0.949554896,4.14433234 0.949554896,8.07121662 C0.949554896,9.7295549 1.33198813,11.3353709 2.08635015,12.8440356 C2.69353116,14.058457 3.54219585,15.2150148 4.60872404,16.2814837 C6.06890208,17.7417211 7.53525223,18.6270623 8.07091988,18.9265875 C8.61002967,18.6245697 10.0921068,17.7286053 11.5544807,16.2606528 C12.6157864,15.1953709 13.4599407,14.0406528 14.0637389,12.8286053 C14.812997,11.3245104 15.1928783,9.72391691 15.1928783,8.07121662 C15.1928783,4.14433234 11.9981009,0.949554896 8.07121662,0.949554896 L8.07121662,0.949554896 Z M8.07121662,19.9966766 L7.8588724,19.8905045 C7.77851632,19.8503264 5.86866469,18.884273 3.93727003,16.9528783 C1.36148368,14.3771513 0,11.3058754 0,8.07121662 C0,3.62071217 3.62077151,0 8.07121662,0 C12.5216617,0 16.1424332,3.62071217 16.1424332,8.07121662 C16.1424332,11.3058754 14.7809496,14.3771513 12.2051632,16.9529377 C10.2737685,18.8843323 8.36385757,19.8503858 8.28356083,19.8905638 L8.07121662,19.9966766 Z" id="Fill-1"></path>
                        <path d="M8.07121662,4.74777448 C7.28587537,4.74777448 6.64688427,5.38676558 6.64688427,6.17210682 C6.64688427,6.95744807 7.28587537,7.59643917 8.07121662,7.59643917 C8.85655786,7.59643917 9.49554896,6.95744807 9.49554896,6.17210682 C9.49554896,5.38676558 8.85655786,4.74777448 8.07121662,4.74777448 M8.07121662,8.54599407 C6.76225519,8.54599407 5.69732938,7.48106825 5.69732938,6.17210682 C5.69732938,4.8631454 6.76225519,3.79821958 8.07121662,3.79821958 C9.38017804,3.79821958 10.4451039,4.8631454 10.4451039,6.17210682 C10.4451039,7.48106825 9.38017804,8.54599407 8.07121662,8.54599407" id="Fill-3"></path>
                    </g>
                </g>
            </g>
        </g>
    </g>
</svg>