<svg width="20px" height="19px" viewBox="0 0 20 19" version="1.1" xmlns="http://www.w3.org/2000/svg" xmlns:xlink="http://www.w3.org/1999/xlink">
    <g id="Home" stroke="none" stroke-width="1" fill="none" fill-rule="evenodd">
        <g id="Home---Menu" transform="translate(-18.000000, -242.000000)" fill="#D72E2E">
            <g id="side-nav">
                <g id="labels" transform="translate(16.000000, 99.688474)">
                    <g id="Group-10" transform="translate(2.000000, 141.557632)">
                        <path d="M11.5253653,9.53660671 C11.7900096,9.7936096 12.1435527,9.9224519 12.4964118,9.9224519 C12.8499548,9.9224519 13.2034978,9.7936096 13.4674584,9.53660671 L17.9274342,5.20232458 C18.1038638,5.03053485 18.1038638,4.77285025 17.9274342,4.60106052 L17.8392194,4.51584736 C17.7510046,4.4299525 17.6627898,4.38632336 17.5301257,4.38632336 C17.3974616,4.38632336 17.3092468,4.4299525 17.221032,4.51584736 L14.2620754,7.39059851 C14.1307789,7.5194408 13.9543493,7.56238824 13.7772359,7.56238824 C13.6001225,7.56238824 13.4236929,7.47649337 13.2917126,7.39059851 L13.2034978,7.30538535 C12.9381696,7.04770075 12.9381696,6.66117386 13.2034978,6.40348927 L16.1610868,3.52873813 C16.3382002,3.3569484 16.3382002,3.0992638 16.1610868,2.92815578 L16.072872,2.84157921 C15.9846572,2.75568434 15.8964424,2.71341862 15.7644622,2.71341862 C15.6317981,2.71341862 15.5428994,2.75568434 15.4553685,2.84157921 L12.4964118,5.71701206 C12.3644316,5.84585435 12.1873181,5.88880179 12.0108885,5.88880179 C11.834459,5.88880179 11.6580294,5.80290692 11.5253653,5.71701206 L11.4371505,5.63111719 C11.3044864,5.5029566 11.2607209,5.33116687 11.2607209,5.15937714 C11.2607209,4.98758741 11.3489357,4.81579768 11.4371505,4.68695539 L14.3947395,1.81152254 C14.4843219,1.72562767 14.5274036,1.64041451 14.5274036,1.51157222 C14.5274036,1.38272992 14.4843219,1.29683506 14.3947395,1.2116219 L14.3065247,1.12504533 C14.2183099,1.03983217 14.1307789,0.996884735 13.9981148,0.996884735 C13.8647669,0.996884735 13.9981148,1.16799276 13.9099,1.25456933 L9.44992421,5.58816976 C9.18527983,5.84585435 9.05261572,6.18943381 9.05261572,6.53233157 C9.05261572,6.87591102 9.18527983,7.26175621 9.44992421,7.47649337 L9.58258832,7.60533567 L0.354226843,16.1021102 C0.133347943,16.3168474 0,16.6167977 0,16.9174297 C0,17.2180617 0.133347943,17.5180121 0.354226843,17.7327492 L1.01617971,18.4621739 C1.23705861,18.676911 1.5461523,18.8909665 1.85524599,18.8909665 C2.16433969,18.8909665 2.47343338,18.676911 2.69431228,18.4621739 L11.3927012,9.40776442 L11.5253653,9.53660671 Z M6.22632317,9.02123752 L7.90513958,7.47649337 C7.81624095,7.17586135 7.77179164,6.87591102 7.77179164,6.575279 C7.77179164,6.05990981 7.94890506,5.54590403 8.21354944,5.11642971 L4.68085471,1.55451965 C4.15156595,1.03983217 3.22428487,1.03983217 2.69431228,1.55451965 C1.76634736,2.45573402 1.72258189,3.91458331 2.56164817,4.90169255 L6.22632317,9.02123752 Z M19.6500161,16.2738999 L14.0418803,10.7384531 C13.8210014,10.8666137 13.6452556,10.9525086 13.3792436,11.0384034 C13.1145992,11.1242983 12.8061894,11.1672457 12.4964118,11.1672457 C12.1435527,11.1672457 11.7900096,11.0813509 11.480916,10.995456 L9.67080311,12.8408322 C9.89168201,13.0126219 10.2007757,13.0985168 10.5098694,13.1407825 C10.9071779,13.1407825 11.3044864,13.0126219 11.6135801,12.7119899 L11.6580294,12.6690424 L17.2654813,18.4621739 C17.4863602,18.676911 17.7954539,18.8057533 18.1038638,18.8057533 C18.4129575,18.8057533 18.722735,18.676911 18.9429301,18.4621739 L19.6500161,17.7756967 C19.870895,17.5609595 20.0028752,17.2603275 20.0028752,16.9603772 C20.0028752,16.6597451 19.870895,16.4456897 19.6500161,16.2738999 L19.6500161,16.2738999 Z" id="icon-recipes"></path>
                    </g>
                </g>
            </g>
        </g>
    </g>
</svg>