<?xml version="1.0" encoding="UTF-8"?>
<svg width="20px" height="20px" viewBox="0 0 20 20" version="1.1" xmlns="http://www.w3.org/2000/svg" xmlns:xlink="http://www.w3.org/1999/xlink">
    <!-- Generator: Sketch 41.2 (35397) - http://www.bohemiancoding.com/sketch -->
    <title>Fill 1</title>
    <desc>Created with Sketch.</desc>
    <defs></defs>
    <g id="Produtos" stroke="none" stroke-width="1" fill="none" fill-rule="evenodd">
        <g id="Produtos---Lista-produtos" transform="translate(-324.000000, -217.000000)" fill="#D3212D">
            <g id="list" transform="translate(0.000000, 183.000000)">
                <g id="row">
                    <g id="Group" transform="translate(16.000000, 16.000000)">
                        <path d="M321.717568,27.5021501 L318.453404,27.5021501 L318.453404,24.222979 C318.453404,23.9453375 318.229444,23.7208 317.953534,23.7208 C317.67647,23.7208 317.453087,23.9453375 317.453087,24.222979 L317.453087,27.5021501 L314.188346,27.5021501 C313.911282,27.5021501 313.687899,27.7266876 313.687899,27.9997114 C313.687899,28.2779301 313.911282,28.5024676 314.188346,28.5024676 L317.453087,28.5024676 L317.453087,31.7810615 C317.453087,32.0592802 317.67647,32.2832405 317.953534,32.2832405 C318.229444,32.2832405 318.453404,32.0592802 318.453404,31.7810615 L318.453404,28.5024676 L321.717568,28.5024676 C321.994055,28.5024676 322.217438,28.2779301 322.217438,27.9997114 C322.217438,27.7226471 321.994055,27.5021501 321.717568,27.5021501 L321.717568,27.5021501 Z M326.917718,35.8931571 C326.917718,36.5015441 326.421888,36.9996825 325.81581,36.9996825 L310.098185,36.9996825 C309.492107,36.9996825 308.9957,36.5015441 308.9957,35.8931571 L308.9957,20.1068429 C308.9957,19.4984559 309.492107,19.0003175 310.098185,19.0003175 L325.81581,19.0003175 C326.421888,19.0003175 326.917718,19.4984559 326.917718,20.1068429 L326.917718,35.8931571 Z M325.81581,18 L310.098185,18 C308.939132,18 308,18.9477907 308,20.1068429 L308,35.8931571 C308,37.056827 308.943173,38 310.098185,38 L325.81581,38 C326.974285,38 327.913417,37.0527865 327.913417,35.8931571 L327.913417,20.1068429 C327.913417,18.9477907 326.970244,18 325.81581,18 L325.81581,18 Z" id="Fill-1"></path>
                    </g>
                </g>
            </g>
        </g>
    </g>
</svg>