<svg width="40px" height="41px" viewBox="0 0 40 41" version="1.1" xmlns="http://www.w3.org/2000/svg" xmlns:xlink="http://www.w3.org/1999/xlink">
    <g id="Home" stroke="none" stroke-width="1" fill="none" fill-rule="evenodd">
        <g id="Home---Tela-inicial" transform="translate(-250.000000, -328.000000)" fill="#D3212D">
            <g id="Group-2" transform="translate(-1.000000, 291.000000)">
                <g id="PRODUTOS-Copy" transform="translate(180.000000, 0.000000)">
                    <path d="M108.666319,44.7488829 C107.612986,44.7488829 106.731246,45.4622829 106.441971,46.4333971 L75.557913,46.4333971 C75.2686377,45.4622829 74.3863188,44.7488829 73.3335652,44.7488829 C72.0466087,44.7488829 70.9996522,45.8066829 70.9996522,47.1075543 C70.9996522,48.40784 72.0466087,49.46564 73.3335652,49.46564 C74.3863188,49.46564 75.2686377,48.7516543 75.557913,47.7811257 L106.441971,47.7811257 C106.731246,48.7516543 107.612986,49.46564 108.666319,49.46564 C109.953275,49.46564 110.999652,48.40784 110.999652,47.1075543 C110.999652,45.8066829 109.953275,44.7488829 108.666319,44.7488829 L108.666319,44.7488829 Z M90.1155942,45.56244 C90.246029,45.69364 90.4164638,45.7598257 90.5868986,45.7598257 C90.757913,45.7598257 90.9283478,45.69364 91.0582029,45.56244 C91.3190725,45.2988686 91.3190725,44.8730543 91.0582029,44.6094829 C90.6726957,44.2193971 90.4605217,43.70104 90.4605217,43.1510543 C90.4605217,42.6016543 90.6726957,42.0832971 91.0582029,41.6932114 C92.3677681,40.3689114 92.3677681,38.5209829 91.0582029,37.1972686 C90.797913,36.9342829 90.3764638,36.9342829 90.1155942,37.1972686 C89.8553043,37.46084 89.8553043,37.8866543 90.1155942,38.1502257 C90.9173333,38.9608543 90.9173333,39.92904 90.1155942,40.7402543 C88.8002319,42.06924 88.8002319,44.2328686 90.1155942,45.56244 L90.1155942,45.56244 Z M96.4947246,45.56244 C96.6251594,45.69364 96.7955942,45.7598257 96.966029,45.7598257 C97.1370435,45.7598257 97.3074783,45.69364 97.437913,45.56244 C97.6987826,45.2988686 97.6987826,44.8730543 97.437913,44.6094829 C96.8361739,44.0015114 96.8587826,42.9882257 97.4877681,42.3515543 C98.0506667,41.7839971 98.3532754,41.1104257 98.3642899,40.4058114 C98.3758841,39.6929971 98.0883478,39.0205971 97.5335652,38.4600686 C97.2732754,38.1959114 96.8518261,38.1959114 96.5909565,38.4600686 C96.3306667,38.7230543 96.3306667,39.1488686 96.5909565,39.41244 C96.8837101,39.7088114 97.0361739,40.0444257 97.0309565,40.3835543 C97.0257391,40.7314686 96.8570435,41.0823114 96.5451594,41.3980114 C95.3961739,42.5606543 95.3735652,44.4290829 96.4947246,45.56244 L96.4947246,45.56244 Z M84.4634203,45.56244 C84.5938551,45.69364 84.7637101,45.7598257 84.9341449,45.7598257 C85.1051594,45.7598257 85.2761739,45.69364 85.4054493,45.56244 C85.6663188,45.2988686 85.6663188,44.8730543 85.4054493,44.6094829 C84.8042899,44.0015114 84.8263188,42.9882257 85.4558841,42.3515543 C86.0187826,41.7839971 86.321971,41.1115971 86.3329855,40.4069829 C86.3445797,39.6929971 86.0576232,39.0205971 85.5022609,38.4600686 C85.241971,38.1964971 84.8205217,38.1964971 84.5596522,38.4600686 C84.2987826,38.72364 84.2987826,39.1494543 84.5596522,39.4130257 C84.8524058,39.7093971 85.0054493,40.0450114 84.9996522,40.3847257 C84.9944348,40.73264 84.8257391,41.0828971 84.5138551,41.3985971 C83.3642899,42.5606543 83.3411014,44.4290829 84.4634203,45.56244 L84.4634203,45.56244 Z M102.680812,45.56244 C102.811826,45.69364 102.982841,45.7598257 103.152696,45.7598257 C103.322551,45.7598257 103.494145,45.69364 103.624,45.56244 C103.88429,45.2988686 103.88429,44.8730543 103.624,44.6094829 C103.278493,44.2603971 103.294145,43.6758543 103.658783,43.3080257 C104.091246,42.8716686 104.32429,42.3509686 104.332986,41.80274 C104.341681,41.2550971 104.113275,40.7185829 103.690667,40.2915971 C103.430957,40.0280257 103.009507,40.0280257 102.748638,40.2915971 C102.487768,40.5551686 102.487768,40.9809829 102.748638,41.2445543 C102.865159,41.3622829 103.00313,41.5508829 102.999652,41.78224 C102.996174,41.9725971 102.899362,42.1711543 102.716174,42.3556543 C101.831536,43.2488686 101.816464,44.6873829 102.680812,45.56244 L102.680812,45.56244 Z M78.9729855,45.56244 C79.1028406,45.69364 79.2738551,45.7598257 79.4442899,45.7598257 C79.6153043,45.7598257 79.7857391,45.69364 79.9155942,45.56244 C80.1764638,45.2994543 80.1764638,44.8730543 79.9155942,44.6094829 C79.5706667,44.2603971 79.5868986,43.6758543 79.9509565,43.3080257 C80.3828406,42.8716686 80.6164638,42.3509686 80.6245797,41.80274 C80.6338551,41.2550971 80.4066087,40.7185829 79.984,40.2915971 C79.7225507,40.0280257 79.3016812,40.0280257 79.0408116,40.2915971 C78.7805217,40.5551686 78.7805217,40.9809829 79.0408116,41.2445543 C79.157913,41.3622829 79.2958841,41.5508829 79.2918261,41.78224 C79.2889275,41.9725971 79.1909565,42.1711543 79.0083478,42.3556543 C78.1242899,43.2488686 78.1086377,44.6873829 78.9729855,45.56244 L78.9729855,45.56244 Z M92.3329855,69.6300257 L92.3329855,64.5583257 C93.757913,64.4247829 95.1370435,64.0797971 96.4413913,63.5561686 L98.6935652,68.6589114 C96.797913,69.19074 94.6268986,69.5210829 92.3329855,69.6300257 L92.3329855,69.6300257 Z M88.9996522,69.6341257 C86.6953043,69.5245971 84.5225507,69.1954257 82.6367536,68.6665257 L84.9990725,63.3125114 C86.2634203,63.8794829 87.6066087,64.2724971 88.9996522,64.4692971 L88.9996522,69.6341257 Z M106.292406,50.2235543 C106.326609,49.76904 106.168928,49.3156971 105.861681,48.9812543 C105.553855,48.6468114 105.120812,48.4546971 104.669217,48.4546971 L77.3306667,48.4546971 C76.8790725,48.4546971 76.4448696,48.6468114 76.1376232,48.9812543 C75.8297971,49.3156971 75.6726957,49.76904 75.7068986,50.2235543 C76.0483478,54.8583114 78.5358841,58.9764686 82.099942,61.6127686 L76.4512464,74.4123829 C76.277913,74.8247257 76.2744348,75.28334 76.441971,75.7009543 C76.6083478,76.1185686 76.9254493,76.4448114 77.3341449,76.6211114 C77.5411014,76.7089686 77.7596522,76.7534829 77.9834203,76.7534829 C78.6547246,76.7534829 79.2582029,76.3510971 79.5150145,75.7396114 L82.0889275,69.9076543 C84.1324058,70.4998114 86.4953043,70.8670543 89.0002319,70.9818543 L89.0002319,75.7437114 C89.0002319,76.67324 89.7474783,77.4282257 90.6668986,77.4282257 C91.5863188,77.4282257 92.3341449,76.67324 92.3341449,75.7437114 L92.3341449,70.9789257 C94.8251594,70.8652971 97.188058,70.4962971 99.241971,69.9006257 L101.814145,75.7296543 C102.075594,76.3528543 102.679072,76.7540686 103.351536,76.7540686 C103.575304,76.7540686 103.793275,76.7095543 103.999652,76.6216971 C104.846609,76.2579686 105.241391,75.26694 104.877333,74.40184 L99.3932754,61.9759114 C103.229217,59.3653829 105.935304,55.0750257 106.292406,50.2235543 L106.292406,50.2235543 Z" id="Fill-1"></path>
                </g>
            </g>
        </g>
    </g>
</svg>