<svg width="44px" height="44px" viewBox="0 0 44 44" version="1.1" xmlns="http://www.w3.org/2000/svg" xmlns:xlink="http://www.w3.org/1999/xlink">
    <g id="Produtos" stroke="none" stroke-width="1" fill="none" fill-rule="evenodd">
        <g id="Produtos---Lista-produtos-Single" transform="translate(-80.000000, -206.000000)">
            <g id="stamp" transform="translate(81.000000, 207.000000)">
                <circle id="Oval" stroke="#FFFFFF" fill="#FFFFFF" cx="21" cy="21" r="21"></circle>
                <path d="M30.6662745,19.7525545 C30.6662745,19.7525545 30.5501961,19.1945347 29.9858824,19.2598812 C29.4556863,19.3212673 29.4254902,19.7806733 29.4329412,19.9517624 C29.8509804,23.3830495 28.172549,26.8848317 24.9478431,28.6242376 C20.7470588,30.8899802 15.5270588,29.2998812 13.2647059,25.1050297 C11.0023529,20.9101782 12.5419608,15.6741386 16.7427451,13.408 C20.4278431,11.4206733 24.9258824,12.3846337 27.5019608,15.4828515 C27.5921569,15.6012673 27.6478431,15.6753267 27.7207843,15.7763168 C28.2505882,16.5058218 27.5419608,16.8424554 27.5419608,16.8424554 C27.5419608,16.8424554 26.26,17.5212673 26.1768627,17.5660198 C24.7635294,18.328396 25.2309804,19.6891881 25.2309804,19.6891881 L25.6184314,20.8535446 C25.6184314,20.8535446 25.62,20.8539406 25.6215686,20.8539406 L25.9384314,21.8503762 L25.9435294,21.8662178 C25.9545098,21.8986931 26.2419608,22.6503762 25.7015686,22.9466139 C25.2188235,23.2044356 24.8545098,22.7668119 24.6666667,22.5596832 L22.9603922,20.5224554 L22.9588235,20.5236436 L22.6113725,20.1085941 C22.5478431,20.0274059 22.3031373,19.7339406 21.9243137,19.507802 C21.3105882,19.1410693 20.634902,19.1200792 20.0215686,19.448 L20.0211765,19.447604 C20.0203922,19.448396 20.0192157,19.4491881 20.0180392,19.4499802 C20.0168627,19.4503762 20.0156863,19.4507723 20.0145098,19.4515644 L20.014902,19.4519604 C18.8478431,20.0864158 18.9294118,21.3695842 19.1403922,21.977901 L19.2537255,22.3561188 L19.2517647,22.3565149 L20.0384314,24.9802772 L20.0478431,25.0087921 C20.0592157,25.0428515 20.3819608,25.8214653 19.8188235,26.1196832 C19.3121569,26.3806733 18.9556863,25.8951287 18.7952941,25.7272079 L17.0882353,23.6895842 L17.0870588,23.6907723 L16.7396078,23.2757228 C16.6760784,23.1945347 16.4309804,22.9010693 16.052549,22.6749307 C15.4364706,22.3070099 14.7752941,22.318495 14.1596078,22.6503762 L14.16,22.6503762 C14.1588235,22.6511683 14.1572549,22.6515644 14.1560784,22.6523564 C13.8533333,22.8155248 13.74,23.1941386 13.9035294,23.497505 C14.0670588,23.8004752 14.4454902,23.9137426 14.7486275,23.7501782 C14.7498039,23.7497822 14.7505882,23.7489901 14.7517647,23.748198 L14.7521569,23.7485941 C15.2411765,23.4848317 15.6517647,23.968 15.7254902,24.0630495 L17.0003922,25.5870099 L17.0019608,25.5854257 L17.7823529,26.5161188 C18.1941176,27.0499802 19.2584314,27.8685941 20.4266667,27.2503762 L20.4270588,27.2503762 C20.4321569,27.247604 20.4368627,27.2452277 20.4419608,27.2428515 L20.4415686,27.2420594 C21.6003922,26.6044356 21.4898039,25.2456238 21.2635294,24.5969109 L21.0823529,23.9921584 L21.0839216,23.9917624 L20.3658824,21.5945347 L20.354902,21.5620594 C20.3447059,21.5335446 20.1109804,20.8618614 20.627451,20.5798812 C21.1152941,20.3204752 21.5239216,20.8008713 21.5976471,20.8959208 L22.8721569,22.4198812 L22.8741176,22.418297 L23.6541176,23.3489901 C24.0670588,23.8840396 25.1352941,24.7054257 26.3066667,24.0788911 L26.3070588,24.0792871 C26.3078431,24.078495 26.3090196,24.077703 26.3101961,24.0773069 L26.3133333,24.0757228 L26.3133333,24.0753267 C27.4839216,23.438495 27.3803922,22.0887921 27.1592157,21.4523564 L26.7262745,20.0931485 C26.7239216,20.0852277 26.7211765,20.0773069 26.7192157,20.0693861 L26.6027451,19.7042376 C26.4160784,18.8539406 27.0654902,18.5335446 27.0654902,18.5335446 L27.4521569,18.3252277 C27.4521569,18.3252277 27.8662745,18.1018614 28.1062745,17.9723564 C29.6203922,17.1557228 29.0690196,15.6535446 29.0690196,15.6535446 C28.665098,14.7339406 27.7258824,13.8792871 27.4290196,13.6242376 C27.4266667,13.6218614 27.4247059,13.6190891 27.4227451,13.6163168 C27.4180392,13.6115644 27.4145098,13.6068119 27.4101961,13.6024554 C24.3898039,10.9367129 19.9019608,10.2868119 16.1505882,12.3101782 C11.3443137,14.9022574 9.57803922,20.8967129 12.1666667,25.697505 C14.7552941,30.497901 20.7337255,32.3149307 25.54,29.7224554 C29.2439216,27.7244356 31.1647059,23.6935446 30.6662745,19.7525545 L30.6662745,19.7525545 Z M33.7082353,29.0012673 C33.5639216,28.8927525 33.2462745,29.3157228 33.3909804,29.4242376 L34.9745098,30.6115644 C34.1713725,30.7038416 33.5541176,30.698297 32.5160784,30.5018614 C32.3964706,30.4800792 32.0972549,30.8491881 32.2423529,30.9573069 L34.414902,32.5862178 C34.5847059,32.7137426 34.7239216,32.1513663 34.5537255,32.0242376 L33.3462745,31.1188911 C34.0639216,31.1937426 34.7717647,31.1763168 35.587451,31.0369109 C35.7011765,31.0206733 35.9643137,30.6927525 35.8196078,30.5838416 L33.7082353,29.0012673 Z M36.9882353,27.5707723 C36.8305882,27.9505743 36.5901961,28.0808713 36.2901961,27.9561188 C36.0062745,27.838495 35.8658824,27.6234455 36.0352941,27.2143366 C36.0839216,27.097505 36.1596078,26.9624554 36.2623529,26.8095842 L37.0929412,27.1537426 C37.0796078,27.2907723 37.0439216,27.4369109 36.9882353,27.5707723 L36.9882353,27.5707723 Z M35.2129412,25.8012673 C35.0462745,25.7319604 34.8431373,26.2202772 35.0101961,26.2895842 L35.8658824,26.6448317 C35.6756863,26.7961188 35.4133333,26.8388911 35.1709804,26.8800792 C34.8584314,26.9264158 34.5513725,26.9703762 34.4423529,27.2333465 C34.4133333,27.3042376 34.4007843,27.3921584 34.3964706,27.497505 C34.3890196,27.6808713 34.8435294,27.8693861 34.8486275,27.6808713 C34.8494118,27.6321584 34.8568627,27.5909703 34.872549,27.5537426 C34.9329412,27.4072079 35.1164706,27.3660198 35.3039216,27.3264158 C35.3996078,27.307802 35.4996078,27.2907723 35.6035294,27.2650297 C35.4007843,27.8365149 35.5580392,28.2345347 36.1215686,28.468198 C36.6643137,28.6935446 37.1360784,28.4052277 37.4290196,27.6998812 C37.6607843,27.1402772 37.6584314,26.8167129 37.5537255,26.7735446 L35.2129412,25.8012673 Z M36.8443137,23.7303762 L36.9537255,23.0111683 C37.2239216,23.1573069 37.4917647,23.3169109 37.7694118,23.5054257 C37.4494118,23.598495 37.1454902,23.6709703 36.8443137,23.7303762 L36.8443137,23.7303762 Z M36.0121569,21.8990891 C35.8380392,21.8087921 35.7466667,22.4115644 35.9215686,22.4931485 C36.1345098,22.5941386 36.3345098,22.6931485 36.5345098,22.7921584 L36.3788235,23.8151287 C36.1588235,23.8503762 35.9384314,23.8852277 35.7054902,23.918495 C35.5184314,23.9446337 35.4215686,24.5517624 35.614902,24.5125545 C36.6796078,24.3319604 38.1870588,23.9161188 38.5290196,23.6804752 C38.5607843,23.6531485 38.5694118,23.5949307 38.547451,23.5600792 C38.2905882,23.2329505 36.9752941,22.3885941 36.0121569,21.8990891 L36.0121569,21.8990891 Z M29.9584314,37.6614653 C20.7458824,42.6309703 9.20862745,39.177505 4.24,29.9632475 C-0.728627451,20.7489901 2.72431373,9.20958416 11.9368627,4.24047525 C21.1498039,-0.729029703 32.6870588,2.72443564 37.6556863,11.9390891 C42.6243137,21.1529505 39.1713725,32.6919604 29.9584314,37.6614653 L29.9584314,37.6614653 Z M38.5078431,11.4792871 C33.2862745,1.79532673 21.16,-1.83437624 11.4772549,3.38819802 C1.79490196,8.61116832 -1.83372549,20.7386931 3.38784314,30.4230495 C8.60980392,40.1070099 20.7356863,43.7363168 30.4180392,38.5141386 C40.1007843,33.2911683 43.7298039,21.1636436 38.5078431,11.4792871 L38.5078431,11.4792871 Z M31.1901961,32.1287921 C31.127451,32.0519604 31.0403922,31.9945347 30.987451,32.0373069 L29.6643137,33.1113663 C29.5243137,33.2258218 29.8180392,33.5870099 29.9580392,33.4733465 L30.9513725,32.6666139 L31.4184314,33.2424554 L30.6709804,33.8491881 C30.5337255,33.9604752 30.8278431,34.3216634 30.9643137,34.2107723 L31.7082353,33.6064158 L32.1556863,34.157703 L31.3133333,34.8416634 C31.1486275,34.9755248 31.2627451,35.4824554 31.4278431,35.348198 L32.7823529,34.248396 C32.8313725,34.208396 32.8023529,34.1157228 32.74,34.038099 L31.1901961,32.1287921 Z M9.84196078,26.9414653 C6.53960784,20.8167129 8.8345098,13.1466139 14.9580392,9.84364356 C21.0823529,6.54027723 28.7509804,8.83611881 32.0537255,14.9604752 C35.3560784,21.0852277 33.0607843,28.7553267 26.9372549,32.0586931 C20.8137255,35.3616634 13.1447059,33.0662178 9.84196078,26.9414653 L9.84196078,26.9414653 Z M32.9058824,14.5010693 C29.3498039,7.90621782 21.092549,5.43493069 14.4984314,8.99136634 C7.9054902,12.547802 5.43411765,20.8064158 8.99019608,27.4008713 C12.5462745,33.9953267 20.8035294,36.4674059 27.3968627,32.9109703 C33.9905882,29.3541386 36.4615686,21.0955248 32.9058824,14.5010693 L32.9058824,14.5010693 Z M28.2247059,35.3969109 C27.8913725,35.4864158 27.5913725,35.5632475 27.4596078,35.2963168 C27.3498039,35.0733465 27.4701961,34.857505 27.7576471,34.7153267 C27.9682353,34.6115644 28.2733333,34.5462178 28.6435294,34.5501782 C28.8517647,34.5533465 28.6054902,34.1157228 28.4215686,34.1208713 C28.1082353,34.1192871 27.794902,34.1885941 27.5356863,34.3165149 C27.0329412,34.5644356 26.7298039,35.0218614 26.9858824,35.5402772 C27.2737255,36.1236436 27.7592157,35.9945347 28.18,35.877703 C28.5082353,35.7862178 28.7952941,35.7050297 28.9254902,35.968396 C29.0352941,36.1913663 28.9333333,36.3925545 28.6698039,36.5228515 C28.4631373,36.6250297 28.1560784,36.6860198 27.7701961,36.6800792 C27.5717647,36.6769109 27.812549,37.1026535 27.9882353,37.1014653 C28.2992157,37.1089901 28.6027451,37.0396832 28.8580392,36.9137426 C29.3443137,36.6737426 29.6352941,36.2222574 29.3772549,35.6998812 C29.1152941,35.1691881 28.6419608,35.2919604 28.2247059,35.3969109 L28.2247059,35.3969109 Z M38.7027451,19.528396 C38.6317647,18.7636436 38.1188235,18.2670099 37.1294118,18.358495 C36.1490196,18.4495842 35.7360784,19.0321584 35.8066667,19.7965149 C35.8396078,20.1517624 35.9760784,20.447604 36.0827451,20.5695842 C36.185098,20.6959208 36.6207843,20.6464158 36.5109804,20.4935446 C36.4223529,20.3656238 36.3007843,20.0820594 36.2764706,19.8210693 C36.2356863,19.3806733 36.492549,18.9755248 37.1807843,18.9117624 C37.8780392,18.8472079 38.205098,19.197703 38.2458824,19.638495 C38.2701961,19.8994851 38.2027451,20.2004752 38.1345098,20.3430495 C38.054902,20.5137426 38.487451,20.4824554 38.5694118,20.3386931 C38.6564706,20.1992871 38.7356863,19.8836436 38.7027451,19.528396 L38.7027451,19.528396 Z M18.3188235,4.13592079 C18.5039216,4.41314851 18.6647059,4.68047525 18.8117647,4.94978218 L18.0937255,5.06265347 C18.1517647,4.76087129 18.2231373,4.45710891 18.3188235,4.13592079 L18.3188235,4.13592079 Z M17.9113725,6.20205941 C17.9435294,5.96839604 17.9776471,5.74819802 18.0109804,5.528 L19.0333333,5.368 C19.1329412,5.56681188 19.2329412,5.76641584 19.3345098,5.97869307 C19.4160784,6.1489901 20.0231373,6.05829703 19.9278431,5.88562376 C19.4341176,4.92562376 18.5839216,3.61394059 18.2560784,3.35928713 C18.2207843,3.33750495 18.1631373,3.34661386 18.1356863,3.37790099 C17.9015686,3.72126733 17.4937255,5.23017822 17.3180392,6.29512871 C17.2843137,6.488 17.8862745,6.39374257 17.9113725,6.20205941 L17.9113725,6.20205941 Z M14.0482353,5.03176238 C14.5760784,4.808 14.9580392,5.0040396 15.2172549,5.61552475 C15.4764706,6.22661386 15.3576471,6.62978218 14.8419608,6.84839604 C14.6756863,6.91889109 14.5431373,6.96483168 14.4494118,6.97552475 L13.7090196,5.21473267 C13.7811765,5.15453465 13.8984314,5.09512871 14.0482353,5.03176238 L14.0482353,5.03176238 Z M14.0654902,7.42265347 C14.0792157,7.45592079 14.1105882,7.47176238 14.1603922,7.48522772 C14.3164706,7.51691089 14.632549,7.44245545 15.052549,7.26423762 C15.8341176,6.93314851 16.0745098,6.26225743 15.7117647,5.40562376 C15.3490196,4.5489901 14.6831373,4.26225743 13.8643137,4.60918812 C13.4941176,4.76641584 13.2458824,4.92007921 13.1529412,5.048 C13.1109804,5.09988119 13.1019608,5.14819802 13.1176471,5.18542574 L14.0654902,7.42265347 Z M22.0305882,3.65908911 C22.1227451,3.64087129 22.2541176,3.6440396 22.4160784,3.65948515 C22.987451,3.71374257 23.2305882,4.06819802 23.1678431,4.72958416 C23.105098,5.39057426 22.8090196,5.68958416 22.2509804,5.63651485 C22.0709804,5.61948515 21.932549,5.59730693 21.845098,5.56166337 L22.0305882,3.65908911 Z M22.2388235,6.1030495 C23.0843137,6.18344554 23.6152941,5.70740594 23.7031373,4.78027723 C23.7909804,3.85354455 23.3407843,3.2840396 22.4552941,3.20007921 C22.0545098,3.16166337 21.7627451,3.17988119 21.62,3.248 C21.5580392,3.27374257 21.527451,3.31176238 21.5239216,3.35215842 L21.2941176,5.77275248 C21.2905882,5.80879208 21.3109804,5.83809901 21.3482353,5.87334653 C21.4701961,5.97552475 21.7843137,6.05988119 22.2388235,6.1030495 L22.2388235,6.1030495 Z M12.1839216,8.728 C12.2866667,8.87651485 12.7254902,8.57394059 12.6227451,8.4250297 L11.0815686,6.18978218 C10.9607843,6.01512871 10.6501961,6.50384158 10.7705882,6.67849505 L12.1839216,8.728 Z M25.0184314,6.56126733 L26.6305882,7.11136634 C26.8019608,7.16958416 26.9517647,6.72918812 26.7807843,6.67057426 L25.5705882,6.25790099 L25.8094118,5.55651485 L26.7203922,5.8670099 C26.8870588,5.9240396 27.0372549,5.48324752 26.8705882,5.42661386 L25.9639216,5.11730693 L26.1929412,4.44562376 L27.2196078,4.79572277 C27.4203922,4.86423762 27.7890196,4.49790099 27.587451,4.42978218 L25.9368627,3.86661386 C25.8768627,3.84641584 25.8133333,3.91968317 25.7815686,4.01394059 L24.9882353,6.34146535 C24.9560784,6.43532673 24.9545098,6.53988119 25.0184314,6.56126733 L25.0184314,6.56126733 Z M36.1258824,15.3137426 L36.2423529,15.6563168 C36.3894118,16.088396 36.3396078,16.3485941 36.0658824,16.4416634 C35.7964706,16.5339406 35.6058824,16.3786931 35.4698039,15.9810693 C35.4105882,15.8056238 35.3764706,15.6646337 35.3686275,15.5715644 L36.1258824,15.3137426 Z M37.2223529,14.9454257 C37.2654902,15.0167129 37.3105882,15.1204752 37.3572549,15.2571089 C37.4909804,15.6507723 37.4454902,15.8812673 37.2101961,15.9612673 C36.9705882,16.0428515 36.7854902,15.8911683 36.6545098,15.5062178 L36.5423529,15.1767129 L37.2223529,14.9454257 Z M35.0247059,16.0614653 C35.2709804,16.7842376 35.7160784,17.1240396 36.2078431,16.9565149 C36.58,16.8301782 36.7341176,16.5248317 36.6498039,16.137901 C36.8101961,16.4412673 37.0996078,16.5624554 37.4247059,16.4519604 C37.8698039,16.3002772 38.0007843,15.7735446 37.7603922,15.0674059 C37.5972549,14.588198 37.4054902,14.3192871 37.2686275,14.3660198 L34.967451,15.1497822 C34.834902,15.1953267 34.8513725,15.5521584 35.0247059,16.0614653 L35.0247059,16.0614653 Z M30.7509804,9.62225743 C30.8968627,9.59770297 31.3811765,9.39334653 31.8827451,9.13710891 C31.6568627,9.6670099 31.492549,10.1240396 31.4835294,10.3006733 C31.4854902,10.4313663 31.6113725,10.548198 31.7388235,10.5367129 C32.0694118,10.4919604 33.4098039,9.78106931 34.3,9.23809901 C34.4713725,9.13275248 34.0537255,8.73948515 33.8784314,8.84879208 C33.3019608,9.22582178 32.7435294,9.57077228 32.1066667,9.87968317 C32.3690196,9.23017822 32.6717647,8.63691089 33,8.03572277 C33.0952941,7.85275248 32.6776471,7.46621782 32.5788235,7.6460198 C32.4545098,7.89394059 32.3184314,8.17394059 32.1854902,8.45710891 C31.8439216,8.64007921 31.4898039,8.81077228 31.1184314,8.96562376 C31.3807843,8.31611881 31.6870588,7.72562376 32.0090196,7.11849505 C32.107451,6.93869307 31.6894118,6.55215842 31.5905882,6.7319604 C31.1219608,7.66463366 30.5109804,9.0499802 30.4952941,9.38621782 C30.4972549,9.51730693 30.6235294,9.63374257 30.7509804,9.62225743 L30.7509804,9.62225743 Z M33.2090196,12.3905743 L34.1058824,13.8388911 C34.2011765,13.9925545 34.5964706,13.7474059 34.5015686,13.5937426 L33.8282353,12.5066139 L34.4580392,12.1165149 L34.965098,12.9347327 C35.0576471,13.0844356 35.4533333,12.8392871 35.3607843,12.6895842 L34.8564706,11.8753267 L35.4592157,11.5018614 L36.0301961,12.4238416 C36.1419608,12.6040396 36.6592157,12.5549307 36.5470588,12.3743366 L35.6290196,10.8915644 C35.5952941,10.837703 35.4996078,10.8547327 35.4152941,10.9070099 L33.3254902,12.2012673 C33.2411765,12.2535446 33.1733333,12.3331485 33.2090196,12.3905743 L33.2090196,12.3905743 Z M6.33882353,12.2246337 C6.67098039,12.2594851 6.97960784,12.3066139 7.28117647,12.3648317 L6.90862745,12.9901782 C6.71333333,12.7529505 6.52509804,12.5038416 6.33882353,12.2246337 L6.33882353,12.2246337 Z M7.66901961,13.8594851 C7.50980392,13.6856238 7.36196078,13.518495 7.21411765,13.3513663 L7.74431373,12.4622574 C7.96156863,12.5125545 8.17843137,12.5632475 8.40745098,12.6206733 C8.59058824,12.6666139 8.90941176,12.1406733 8.71490196,12.1042376 C7.66039216,11.8701782 6.10666667,11.6864158 5.70117647,11.7759208 C5.66117647,11.7893861 5.63137255,11.8396832 5.63843137,11.8808713 C5.75333333,12.2804752 6.65372549,13.5592871 7.36117647,14.3759208 C7.48823529,14.5252277 7.80078431,14.0012673 7.66901961,13.8594851 L7.66901961,13.8594851 Z M4.57529412,21.2305743 C3.94745098,21.2107723 3.59137255,20.9145347 3.60705882,20.4222574 C3.6227451,19.9256238 3.99764706,19.648396 4.62509804,19.6685941 C5.24823529,19.688396 5.60431373,19.9893861 5.58862745,20.4856238 C5.57294118,20.977901 5.19843137,21.2503762 4.57529412,21.2305743 L4.57529412,21.2305743 Z M6.05333333,20.5006733 C6.05686275,20.387802 6.05137255,20.2792871 6.03647059,20.1794851 C6.23764706,20.1089901 6.45411765,19.9846337 6.5945098,19.8309703 C6.72509804,19.7085941 6.58117647,19.1169109 6.43960784,19.3109703 C6.28862745,19.5002772 6.1027451,19.6662178 5.89647059,19.7636436 C5.67843137,19.3636436 5.24784314,19.1327525 4.64313725,19.1133465 C3.72666667,19.0840396 3.16901961,19.5632475 3.14156863,20.407604 C3.11529412,21.2428515 3.64117647,21.7569109 4.55764706,21.7858218 C5.46941176,21.8151287 6.02705882,21.3359208 6.05333333,20.5006733 L6.05333333,20.5006733 Z M3.82588235,17.0171089 L5.1627451,17.4194851 C5.82078431,17.617505 6.42745098,17.498297 6.68,16.6586931 C6.93254902,15.8186931 6.49215686,15.3842376 5.83490196,15.1866139 L4.35490196,14.7410693 C4.18196078,14.6887921 4.02941176,15.1953267 4.20235294,15.247604 L5.66509804,15.687604 C6.07647059,15.8115644 6.34352941,16.0994851 6.21686275,16.5192871 C6.09098039,16.9390891 5.70862745,17.0317624 5.29803922,16.908198 L3.76156863,16.4456238 C3.55803922,16.3846337 3.62235294,16.9561188 3.82588235,17.0171089 L3.82588235,17.0171089 Z M9.51843137,10.998495 C9.58588235,11.0646337 9.67647059,11.1149307 9.72666667,11.0634455 L10.9117647,9.85314851 C11.034902,9.72760396 10.7062745,9.40522772 10.5827451,9.53116832 L9.6945098,10.437703 L8.00745098,8.78463366 C7.85607843,8.63572277 7.65058824,9.16839604 7.80196078,9.31691089 L9.51843137,10.998495 Z" id="Fill-1" fill="#1D1D1B"></path>
            </g>
        </g>
    </g>
</svg>