<svg viewBox="0 0 126 80" version="1.1" xmlns="http://www.w3.org/2000/svg" xmlns:xlink="http://www.w3.org/1999/xlink">
    <g id="Carrinho" stroke="none" stroke-width="1" fill="none" fill-rule="evenodd">
        <g id="icon-elo-light">
            <path d="M125.92,75.208 C125.92,77.518 124.05,79.39 121.74,79.39 L4.67,79.39 C2.36,79.39 0.49,77.518 0.49,75.208 L0.49,5.176 C0.49,2.866 2.36,0.996 4.67,0.996 L121.74,0.996 C124.05,0.996 125.92,2.866 125.92,5.176 L125.92,75.208" id="Fill-462" fill="#F9F9F9"></path>
            <path d="M36.3482457,32.2440842 C37.1607744,31.9724556 38.029995,31.8249859 38.9344208,31.8249859 C42.8815318,31.8249859 46.1739588,34.6293896 46.9292998,38.3548174 L52.5226243,37.2140767 C51.2392058,30.8824696 45.6438979,26.1163225 38.9344208,26.1163225 C37.3982854,26.1163225 35.9196683,26.3666242 34.5393942,26.8277149 L36.3482457,32.2440842 Z" id="Fill-2" fill="#FFF100"></path>
            <path d="M29.7484831,50.3728187 L33.5301463,46.0963635 C31.8421163,44.6010012 30.7767054,42.4178879 30.7767054,39.9846383 C30.7767054,37.5528767 31.8411246,35.3697634 33.5286588,33.8755583 L29.7450122,29.5995991 C26.8767,32.1401445 25.0691707,35.851189 25.0691707,39.9846383 C25.0691707,44.1199062 26.8793445,47.8322733 29.7484831,50.3728187" id="Fill-4" fill="#00A4E0"></path>
            <path d="M46.9272833,41.6225436 C46.1692979,45.3449956 42.8785236,48.1441089 38.9343877,48.1441089 C38.0294661,48.1441089 37.1584274,47.9963085 36.3457334,47.7240187 L34.5340721,53.1397267 C35.9166601,53.6028013 37.3959384,53.8532683 38.9343877,53.8532683 C45.6385758,53.8532683 51.2309086,49.0934035 52.5196162,42.7682441 L46.9272833,41.6225436 Z" id="Fill-6" fill="#EE4023"></path>
            <path d="M71.1402912,45.4489187 C70.2166927,46.347624 68.964182,46.8951796 67.5812635,46.875506 C66.6333684,46.8596348 65.7550573,46.5757722 65.008311,46.1027781 L63.1569819,49.0534941 C64.4248639,49.8551538 65.9198439,50.3294705 67.5315134,50.3544346 C69.877533,50.3893181 72.0157925,49.4674673 73.5706048,47.9453224 L71.1402912,45.4489187 Z" id="Fill-8" fill="#231F20"></path>
            <path d="M62.7086202,42.4149451 C62.6876293,42.21887 62.6727539,42.0178351 62.6783735,41.8149816 C62.7223386,39.0616633 64.9873698,36.8646628 67.7378356,36.9102924 C69.2349643,36.9302967 70.5643313,37.6160638 71.4629722,38.6774486 L62.7086202,42.4149451 Z M67.7882467,33.4277267 C63.119843,33.3561411 59.2725626,37.0865286 59.2021523,41.7597632 C59.1748807,43.5112135 59.6808103,45.1489205 60.5710218,46.5102044 L75.8958484,39.9583848 C75.0335697,36.2660219 71.7505637,33.4898888 67.7882467,33.4277267 L67.7882467,33.4277267 Z" id="Fill-10" fill="#231F20"></path>
            <path d="M80.703106,29.6141477 L80.703106,45.9558375 L83.5380311,47.1312964 L82.196929,50.3544676 L79.3934076,49.1887629 C78.7630202,48.9153157 78.3364261,48.4986974 78.0123071,48.0281831 C77.7010802,47.5467575 77.4703459,46.888765 77.4703459,46.0008058 L77.4703459,29.6141477 L80.703106,29.6141477 Z" id="Fill-12" fill="#231F20"></path>
            <path d="M90.9230178,37.1659671 C91.4188652,36.9994851 91.9495873,36.9102098 92.5017961,36.9102098 C94.9109535,36.9102098 96.920458,38.6214862 97.3806044,40.896024 L100.795341,40.1998415 C100.012067,36.3348797 96.596339,33.4254948 92.5017961,33.4254948 C91.5634874,33.4254948 90.6618714,33.5782549 89.8199225,33.8594722 L90.9230178,37.1659671 Z" id="Fill-14" fill="#231F20"></path>
            <path d="M86.8952159,48.2306894 L89.2025593,45.6207077 C88.1720231,44.7081151 87.523124,43.375267 87.523124,41.8896588 C87.523124,40.4055386 88.1720231,39.0735171 89.2015676,38.1614205 L86.8925714,35.5514388 C85.1420646,37.1021849 84.0391346,39.3681258 84.0391346,41.8896588 C84.0391346,44.414333 85.142891,46.6794473 86.8952159,48.2306894" id="Fill-16" fill="#231F20"></path>
            <path d="M97.380654,42.8899231 C96.917863,45.1611545 94.9086892,46.870943 92.5016804,46.870943 C91.949141,46.870943 91.4180884,46.7801797 90.9214145,46.6141937 L89.8156747,49.9195313 C90.6599376,50.2020713 91.5627106,50.3553273 92.5016804,50.3553273 C96.5925871,50.3553273 100.007323,47.4499103 100.794398,43.5892468 L97.380654,42.8899231 Z" id="Fill-18" fill="#231F20"></path>
        </g>
    </g>
</svg>