<svg viewBox="0 0 126 79" version="1.1" xmlns="http://www.w3.org/2000/svg" xmlns:xlink="http://www.w3.org/1999/xlink">
    <g id="Carrinho" stroke="none" stroke-width="1" fill="none" fill-rule="evenodd">
        <g id="icon-cirrus-light">
            <path d="M125.521,74.343 C125.521,76.652 123.648,78.523 121.34,78.523 L4.272,78.523 C1.963,78.523 0.091,76.652 0.091,74.343 L0.091,4.312 C0.091,2.002 1.963,0.13 4.272,0.13 L121.34,0.13 C123.648,0.13 125.521,2.002 125.521,4.312 L125.521,74.343" id="Fill-51" fill="#F9F9F9"></path>
            <path d="M70.191,39.327 C70.191,51.737 60.131,61.796 47.722,61.796 C35.313,61.796 25.255,51.737 25.255,39.327 C25.255,26.919 35.313,16.858 47.722,16.858 C60.131,16.858 70.191,26.919 70.191,39.327" id="Fill-52" fill="#007CC3"></path>
            <path d="M77.889,16.858 C72.083,16.858 66.792,19.061 62.805,22.674 C61.992,23.41 61.234,24.206 60.535,25.051 L65.075,25.051 C65.696,25.806 66.269,26.6 66.788,27.431 L58.824,27.431 C58.346,28.196 57.913,28.989 57.528,29.811 L68.082,29.811 C68.442,30.582 68.76,31.375 69.033,32.19 L56.575,32.19 C56.317,32.966 56.099,33.759 55.924,34.569 L69.684,34.569 C70.016,36.102 70.191,37.695 70.191,39.327 C70.191,41.822 69.784,44.222 69.033,46.465 L56.575,46.465 C56.849,47.279 57.167,48.073 57.527,48.844 L68.082,48.844 C67.696,49.665 67.264,50.459 66.787,51.223 L58.824,51.223 C59.344,52.054 59.915,52.848 60.535,53.601 L65.074,53.601 C64.376,54.449 63.618,55.246 62.805,55.981 C66.792,59.594 72.083,61.796 77.889,61.796 C90.298,61.796 100.357,51.737 100.357,39.327 C100.357,26.919 90.298,16.858 77.889,16.858" id="Fill-53" fill="#009DDD"></path>
            <path d="M97.989,51.808 L98.071,51.808 C98.103,51.808 98.135,51.811 98.163,51.796 C98.187,51.781 98.199,51.751 98.199,51.722 C98.199,51.698 98.185,51.671 98.164,51.657 C98.137,51.642 98.097,51.645 98.068,51.645 L97.989,51.645 L97.989,51.808 Z M97.989,52.17 L97.841,52.17 L97.841,51.533 L98.11,51.533 C98.167,51.533 98.224,51.533 98.272,51.564 C98.326,51.6 98.354,51.66 98.354,51.723 C98.354,51.796 98.312,51.863 98.244,51.889 L98.36,52.17 L98.195,52.17 L98.098,51.917 L97.989,51.917 L97.989,52.17 Z M98.087,52.404 C98.393,52.404 98.639,52.156 98.639,51.852 C98.639,51.546 98.393,51.301 98.087,51.301 C97.782,51.301 97.536,51.546 97.536,51.852 C97.536,52.156 97.782,52.404 98.087,52.404 Z M97.361,51.852 C97.361,51.451 97.688,51.126 98.087,51.126 C98.49,51.126 98.813,51.451 98.813,51.852 C98.813,52.253 98.49,52.577 98.087,52.577 C97.688,52.577 97.361,52.253 97.361,51.852 L97.361,51.852 Z" id="Fill-54" fill="#009DDD"></path>
            <path d="M90.449,44.301 L90.533,44.301 C90.563,44.301 90.597,44.304 90.624,44.289 C90.647,44.273 90.661,44.244 90.661,44.216 C90.661,44.192 90.644,44.163 90.624,44.15 C90.599,44.134 90.557,44.139 90.53,44.139 L90.449,44.139 L90.449,44.301 Z M90.449,44.662 L90.302,44.662 L90.302,44.024 L90.57,44.024 C90.625,44.024 90.685,44.025 90.732,44.057 C90.786,44.093 90.815,44.154 90.815,44.217 C90.815,44.289 90.771,44.356 90.704,44.383 L90.822,44.662 L90.657,44.662 L90.56,44.411 L90.449,44.411 L90.449,44.662 Z M90.548,44.897 C90.853,44.897 91.1,44.649 91.1,44.344 C91.1,44.04 90.853,43.793 90.548,43.793 C90.244,43.793 89.996,44.04 89.996,44.344 C89.996,44.649 90.244,44.897 90.548,44.897 Z M89.823,44.344 C89.823,43.944 90.147,43.618 90.548,43.618 C90.949,43.618 91.274,43.944 91.274,44.344 C91.274,44.745 90.949,45.07 90.548,45.07 C90.147,45.07 89.823,44.745 89.823,44.344 L89.823,44.344 Z" id="Fill-55" fill="#FFFFFF"></path>
            <path d="M47.128,33.481 C46.928,34.363 46.823,34.862 46.551,35.933 C44.861,35.218 42.597,34.844 40.856,35.929 C39.217,36.974 38.664,38.602 38.783,40.406 C38.905,41.275 39.556,42.123 40.474,42.491 C42.063,43.077 43.582,42.863 45.272,41.999 C45.031,43.086 44.85,43.939 44.64,44.716 C42.614,45.28 40.689,45.467 38.664,44.794 C36.854,44.164 35.382,42.534 35.261,40.775 C34.852,37.951 36.204,35.062 38.952,33.735 C41.51,32.585 44.426,32.784 47.128,33.481" id="Fill-56" fill="#FFFFFF"></path>
            <path d="M75.76,43.52 C75.225,44.053 74.318,45.224 71.853,45.224 C69.605,45.224 68.178,43.569 68.975,39.847 L69.906,35.469 L73.334,35.469 C73.334,35.469 72.402,39.852 72.403,39.847 C72.087,41.337 72.163,42.472 73.676,42.472 C75.458,42.472 75.993,41.394 76.33,39.847 C76.328,39.851 77.261,35.469 77.261,35.469 L80.688,35.469 L79.149,42.509 C78.974,43.333 78.807,44.209 78.709,45.072 L75.492,45.072 C75.492,45.072 75.694,43.898 75.76,43.52" id="Fill-57" fill="#FFFFFF"></path>
            <path d="M81.826,38.507 C81.826,39.723 82.625,40.555 84.444,41.177 C85.846,41.668 86.066,41.811 86.066,42.238 C86.066,42.846 85.439,43.103 84.087,43.103 C83.059,43.103 82.102,43.001 80.996,42.733 C80.996,42.733 80.562,44.725 80.515,44.953 C81.478,45.125 83.143,45.224 84.112,45.224 C87.741,45.224 89.425,44.211 89.425,42.02 C89.425,40.71 88.719,39.94 86.997,39.348 C85.545,38.871 85.384,38.761 85.384,38.306 C85.384,37.797 85.958,37.526 87.074,37.526 C87.742,37.526 88.686,37.583 89.559,37.674 L90.041,35.446 C89.148,35.34 87.791,35.253 87.007,35.253 C83.154,35.253 81.814,36.738 81.826,38.507" id="Fill-58" fill="#FFFFFF"></path>
            <polyline id="Fill-59" fill="#FFFFFF" points="48.586 35.469 52.025 35.469 49.98 45.073 46.541 45.073 48.586 35.469"></polyline>
            <path d="M68.928,35.428 C66.399,35.094 65.678,36.337 64.997,36.954 C65.079,36.454 65.229,35.967 65.198,35.469 L62.052,35.469 C61.599,38.442 60.794,41.452 60.165,44.425 L60,45.071 L63.581,45.071 C64.007,43.12 64.502,40.177 65.072,39.286 C65.643,38.395 66.591,37.685 67.835,38.113 L68.928,35.428" id="Fill-60" fill="#FFFFFF"></path>
            <path d="M61.106,35.428 C58.578,35.094 57.856,36.337 57.176,36.954 C57.256,36.454 57.405,35.967 57.377,35.469 L54.232,35.469 C53.778,38.442 52.974,41.452 52.344,44.425 L52.178,45.071 L55.76,45.071 C56.186,43.12 56.68,40.177 57.252,39.286 C57.821,38.395 58.77,37.685 60.015,38.113 L61.106,35.428" id="Fill-61" fill="#FFFFFF"></path>
        </g>
    </g>
</svg>