<svg width="26px" height="19px" viewBox="0 0 26 19" version="1.1" xmlns="http://www.w3.org/2000/svg" xmlns:xlink="http://www.w3.org/1999/xlink">
    <g id="Carrinho" stroke="none" stroke-width="1" fill="none" fill-rule="evenodd">
        <g id="Carrinho---Meu-Carrinho" transform="translate(-312.000000, -1440.000000)" stroke-width="2" stroke="#FFFFFF">
            <g id="Group-5" transform="translate(0.000000, 1419.000000)">
                <polyline id="Page-1" points="313 29.6157278 321.194273 37.8100004 337.004985 22"></polyline>
            </g>
        </g>
    </g>
</svg>