<svg width="20px" height="19px" viewBox="0 0 20 19" version="1.1" xmlns="http://www.w3.org/2000/svg" xmlns:xlink="http://www.w3.org/1999/xlink">
    <g id="Home" stroke="none" stroke-width="1" fill="none" fill-rule="evenodd">
        <g id="icon-init" fill="#D72E2E">
            <path d="M1.24990383,9.78496138 L0.142846151,8.68980755 L9.9992306,0.011903846 L19.7722881,8.63028832 L18.7485574,9.83257676 L9.9992306,2.0712692 L1.24990383,9.78496138 Z M5.48767299,2.82121149 L5.48767299,1.26180767 L3.07119226,1.26180767 L3.07119226,4.95199992 L5.48767299,2.82121149 Z M3.04738457,9.39213446 L9.83257676,3.32117302 L16.7606151,9.30880754 L16.7606151,18.4033459 L11.9990767,18.4033459 L11.9990767,14.3084228 L7.77321141,14.3084228 L7.77321141,18.4033459 L3.04738457,18.4033459 L3.04738457,9.39213446 Z" id="a"></path>
        </g>
    </g>
</svg>