<svg width="20px" height="20px" viewBox="0 0 20 20" version="1.1" xmlns="http://www.w3.org/2000/svg" xmlns:xlink="http://www.w3.org/1999/xlink">
    <g id="Produtos" stroke="none" stroke-width="1" fill="none" fill-rule="evenodd">
        <g id="Produtos---Endereço" transform="translate(-18.000000, -498.000000)" fill="#000000">
            <g id="list" transform="translate(0.000000, 480.000000)">
                <g id="row">
                    <g id="Group-11" transform="translate(18.000000, 18.000000)">
                        <path d="M9.6,9 C9.93135,9 10.2,9.26865 10.2,9.6 C10.2,9.93135 9.93135,10.2 9.6,10.2 C9.26865,10.2 9,9.93135 9,9.6 C9,9.26865 9.26865,9 9.6,9 L9.6,9 Z" id="Fill-2"></path>
                        <path d="M10,0.8 C4.9271,0.8 0.8,4.9271 0.8,10 C0.8,15.0729 4.9271,19.2 10,19.2 C15.0729,19.2 19.2,15.0729 19.2,10 C19.2,4.9271 15.0729,0.8 10,0.8 M10,20 C4.486,20 0,15.514 0,10 C0,4.486 4.486,0 10,0 C15.514,0 20,4.486 20,10 C20,15.514 15.514,20 10,20" id="Fill-4"></path>
                        <polygon id="Fill-6" points="9.55 2 10.35 2 10.35 0.4 9.55 0.4"></polygon>
                        <polygon id="Fill-8" points="9.55 19.6 10.35 19.6 10.35 18 9.55 18"></polygon>
                        <polygon id="Fill-9" points="17.95 10.4 19.55 10.4 19.55 9.6 17.95 9.6"></polygon>
                        <polygon id="Fill-10" points="0.35 10.4 1.95 10.4 1.95 9.6 0.35 9.6"></polygon>
                        <path d="M7.9462,11.177 L13.6,13.6 L11.17695,7.94625 L5.52315,5.5232 L7.9462,11.177 Z M15.1232,15.12315 L7.3369,11.78625 L4,4 L11.78625,7.3369 L15.1232,15.12315 Z" id="Fill-1"></path>
                    </g>
                </g>
            </g>
        </g>
    </g>
</svg>