<svg width="20px" height="20px" viewBox="0 0 20 20" version="1.1" xmlns="http://www.w3.org/2000/svg" xmlns:xlink="http://www.w3.org/1999/xlink">
    <g id="Produtos" stroke="none" stroke-width="1" fill="none" fill-rule="evenodd">
        <g id="Produtos---Endereço-Selecionado" transform="translate(-289.000000, -153.000000)" fill="#919191">
            <g id="edit" transform="translate(289.000000, 152.000000)">
                <g id="Group">
                    <path d="M0,15.25 L0,19 L3.75,19 L14.81,7.94 L11.06,4.19 L0,15.25 L0,15.25 Z M17.71,5.04 C18.1,4.65 18.1,4.02 17.71,3.63 L15.37,1.29 C14.98,0.9 14.35,0.9 13.96,1.29 L12.13,3.12 L15.88,6.87 L17.71,5.04 L17.71,5.04 Z" id="Shape"></path>
                </g>
            </g>
        </g>
    </g>
</svg>