<svg width="80px" height="80px" viewBox="0 0 80 80" version="1.1" xmlns="http://www.w3.org/2000/svg" xmlns:xlink="http://www.w3.org/1999/xlink">
    <g id="Login-e-cadastro" stroke="none" stroke-width="1" fill="none" fill-rule="evenodd">
        <g id="Cadastre-se-CONFIRMAÇÃO-Copy-2" transform="translate(-140.000000, -57.000000)">
            <g id="dialog">
                <g id="Group" transform="translate(140.000000, 57.000000)">
                    <circle id="Oval-2" fill="#FFA82C" cx="40" cy="40" r="40"></circle>
                    <g id="Group-2" transform="translate(22.500625, 21.445000)" fill="#FFFFFF">
                        <path d="M17.4830947,9.08780892 C17.0537767,9.08780892 16.7053447,9.43624093 16.7053447,9.86555894 L16.7053447,19.5874341 C16.7053447,20.0167521 17.0537767,20.3651841 17.4830947,20.3651841 C17.9124127,20.3651841 18.2608447,20.0167521 18.2608447,19.5874341 L18.2608447,9.86555894 C18.2608447,9.43624093 17.9124127,9.08780892 17.4830947,9.08780892 Z" id="Shape" transform="translate(17.483095, 14.726497) rotate(-360.000000) translate(-17.483095, -14.726497) "></path>
                        <path d="M17.4830947,22.3095592 C17.0537767,22.3095592 16.7053447,22.6579912 16.7053447,23.0873092 L16.7053447,24.6428092 C16.7053447,25.0721272 17.0537767,25.4205592 17.4830947,25.4205592 C17.9124127,25.4205592 18.2608447,25.0721272 18.2608447,24.6428092 L18.2608447,23.0873092 C18.2608447,22.6579912 17.9124127,22.3095592 17.4830947,22.3095592 Z" id="Shape" transform="translate(17.483095, 23.865059) rotate(-360.000000) translate(-17.483095, -23.865059) "></path>
                        <path d="M19.5888529,1.26753252 C19.1490352,0.506115253 18.3619522,0.0519092441 17.4830947,0.0519092441 C16.6042372,0.0519092441 15.8171542,0.506115253 15.3773365,1.26753252 L0.350428489,27.2945479 C-0.0890002692,28.0559652 -0.0890002692,28.9262674 0.350428489,29.6872958 C0.789857248,30.4487131 1.57732914,30.8648093 2.45618666,30.8648093 L32.5100027,30.8648093 C33.3888603,30.8648093 34.1763322,30.4487131 34.6157609,29.6876847 C35.0551897,28.9262674 35.0551897,28.0369103 34.6157609,27.275493 L19.5888529,1.26753252 Z M33.2686979,28.9099347 C33.1924784,29.0413744 32.9661531,29.3093093 32.5100027,29.3093093 L2.45618666,29.3093093 C2.00003627,29.3093093 1.77371102,29.0413744 1.69749152,28.9099347 C1.62127201,28.7784949 1.46922189,28.4487289 1.69749152,28.053243 L16.7247884,2.03556066 C16.9526692,1.64007478 17.3314334,1.6023539 17.4830947,1.6023539 C17.634756,1.6023539 18.0135202,1.6474634 18.2417898,2.04256041 L33.2686979,28.0516875 C33.4969675,28.4471734 33.3445285,28.7781061 33.2686979,28.9099347 Z" id="Shape" transform="translate(17.483095, 15.458359) rotate(-360.000000) translate(-17.483095, -15.458359) "></path>
                    </g>
                </g>
            </g>
        </g>
    </g>
</svg>